# Blender v2.77 (sub 0) OBJ File: 'PlayerCharacter17.blend'
# www.blender.org
mtllib DashBack.mtl
o Cube
v -1.693967 11.783480 -1.296357
v -2.884269 10.951546 -0.286545
v -1.828380 10.903182 -0.215397
v -3.051599 11.385265 -0.830841
v -2.721734 11.846720 -1.411995
v -1.483271 11.305291 -0.741952
v -1.964178 10.626165 -1.217988
v -1.624623 10.373869 -1.638925
v -1.867664 10.232382 -2.095894
v -2.869918 10.151449 -2.147259
v -3.189780 10.233688 -1.626706
v -2.550437 12.861183 1.411094
v -1.836574 11.348717 0.891101
v -2.473370 13.293601 0.628595
v -2.120368 13.715960 -0.177127
v -1.602161 12.029044 -0.924682
v -1.500009 11.559941 -0.203682
v -2.261555 13.317232 -0.408945
v -2.683916 12.376000 1.116915
v -1.871647 11.379950 0.449872
v -2.650177 13.064575 0.429709
v -1.512268 11.532684 -0.340494
v -1.739256 12.232126 -0.838326
v -1.973128 10.461492 0.253986
v -1.662316 9.936893 -0.086801
v -1.876013 9.345264 -0.391330
v -2.795503 9.155845 -0.336610
v -3.091540 9.700874 0.036845
v -2.956923 10.264110 0.322102
v -1.923207 10.528459 0.300021
v -2.075822 10.162444 0.700816
v -2.869244 9.999659 0.763069
v -2.974296 9.553465 0.550273
v -2.739496 9.127693 0.242447
v -1.832395 9.752255 0.439013
v -2.002865 9.281412 0.193981
v -2.835898 9.080427 -0.378761
v -1.567505 9.939566 -0.076891
v -1.810256 9.282947 -0.421131
v -3.186368 9.692284 0.031522
v -3.017673 10.326748 0.360596
v -3.022273 10.135071 0.863562
v -1.971277 10.350872 0.780794
v -3.167969 9.519865 0.566760
v -2.849801 8.942203 0.153405
v -1.634155 9.783245 0.415715
v -1.863320 9.148880 0.087202
v -2.030528 9.909760 1.498378
v -2.675933 9.777342 1.549019
v -2.619888 9.437269 1.356660
v -2.570391 9.068044 1.125522
v -1.983496 9.548058 1.294655
v -1.971181 9.193087 1.086097
v -2.349518 9.625584 2.044230
v -1.946234 9.770203 1.910347
v -2.310564 9.396290 1.910861
v -2.279096 9.145712 1.753060
v -1.912920 9.525240 1.771007
v -1.903722 9.281609 1.633767
v -2.064432 9.601011 2.325803
v -1.821739 9.732093 2.173813
v -1.982217 9.453590 2.303887
v -1.961610 9.277729 2.192972
v -1.742854 9.573137 2.148748
v -1.735059 9.400772 2.055142
v -2.053038 10.040828 1.142847
v -1.916202 9.656955 0.912565
v -1.987469 9.249001 0.687330
v -2.649516 9.110845 0.730888
v -2.783746 9.505927 0.997093
v -2.766127 9.894525 1.198797
v -1.633910 10.003376 1.246836
v -1.691777 9.835430 1.448328
v -1.646508 9.579953 1.301310
v -1.523992 9.724691 1.098869
v -1.337872 9.960371 1.391419
v -1.381891 9.832621 1.544687
v -1.347455 9.638287 1.432855
v -1.254263 9.748385 1.278864
v -3.037532 10.541603 -1.241453
v -2.975003 10.569769 -0.866263
v -3.117893 10.059534 -1.185119
v -2.808478 9.599097 -1.640475
v -1.848742 9.763418 -1.667849
v -1.619654 10.244881 -1.280955
v -1.946832 10.694287 -0.911030
v -2.869797 10.801399 -2.106379
v -1.965484 10.364759 -1.039052
v -3.185964 10.517565 -1.597221
v -1.634173 10.551019 -1.548349
v -1.876822 10.800509 -2.000817
v -3.029639 10.346925 -1.130120
v -1.519187 8.673011 1.004355
v -1.077040 8.392685 -1.383067
v -0.780982 8.623800 1.219985
v -0.418614 8.430081 -1.271301
v -1.370970 8.381154 0.012600
v -1.184735 6.755145 -0.937406
v -0.683328 8.113465 0.500691
v -0.452422 6.637776 -0.528587
v -1.972486 6.855924 2.859488
v -1.808844 6.239552 1.999038
v -1.134241 6.848913 2.966683
v -0.948000 6.172932 2.150009
v -1.959373 5.549202 3.073032
v -1.713332 5.484149 1.505437
v -1.249351 5.544886 3.194204
v -0.980021 5.475384 1.614671
v -1.769280 7.809593 1.504081
v -0.866533 7.680965 1.520442
v -0.728388 5.998747 1.036798
v -1.673767 5.986860 1.064973
v -2.155389 6.907903 1.238349
v -0.590038 5.487406 2.501536
v -2.317311 6.434521 2.455975
v -2.356011 5.504769 2.257162
v -1.627878 8.500757 -0.364983
v -0.578426 6.408275 2.689103
v -0.282000 6.782839 1.229308
v -1.628652 7.606164 -0.675512
v -0.169047 7.092378 0.048842
v -2.037223 5.536329 3.177529
v -1.748513 5.494092 1.338288
v -1.211117 5.530294 3.318313
v -0.895305 5.483907 1.465227
v -0.442974 5.479439 2.505972
v -2.498273 5.501775 2.226683
v -2.038582 4.893181 3.125425
v -1.742310 4.962113 1.239397
v -1.212871 4.885212 3.269033
v -0.889783 4.950037 1.371347
v -0.437336 4.905538 2.407317
v -2.494635 4.935331 2.143980
v -1.941236 4.859689 2.958860
v -1.696387 4.951867 1.406085
v -1.253112 4.849599 3.077583
v -0.985997 4.941804 1.516037
v -0.605448 4.889754 2.350916
v -2.319045 4.911613 2.125858
v -1.963407 3.774344 2.919334
v -1.699691 3.874375 1.234453
v -1.250008 3.764637 3.040329
v -0.963979 3.863953 1.348323
v -0.580006 3.805481 2.289720
v -2.354683 3.828119 2.056640
v -1.851607 2.849519 2.716988
v -1.630999 2.839766 1.283263
v -1.310398 2.831273 2.819324
v -1.069778 2.827998 1.371710
v -0.787449 2.794393 2.180743
v -2.138177 2.831518 1.989574
v -1.938003 2.573918 3.028237
v -1.602052 2.255240 1.174003
v -1.432763 2.524991 3.147899
v -1.076504 2.225099 1.273221
v -0.854523 2.290152 2.177863
v -2.116519 2.398134 1.943665
v -2.207705 2.445005 3.954345
v -1.660813 1.829812 1.122622
v -1.627882 2.383584 4.099050
v -1.056147 1.789481 1.241130
v -0.817314 1.882918 2.272871
v -2.268629 2.031143 1.988091
v -2.287436 2.051049 4.120756
v -1.719009 1.390408 1.209382
v -1.707613 1.989627 4.265461
v -1.116685 1.337684 1.336940
v -0.884519 1.473884 2.364727
v -2.334928 1.633767 2.073741
v -2.233128 1.827675 3.932188
v -1.739763 1.245503 1.414107
v -1.723971 1.773755 4.059241
v -1.210286 1.196419 1.526011
v -1.010101 1.330007 2.429372
v -2.281450 1.472122 2.168979
v -1.830724 9.407749 1.034313
v -2.184876 10.608731 1.095226
v -1.229118 9.683000 -1.328600
v -1.398008 11.491408 -1.268965
v -0.515810 9.633516 -1.233745
v -1.322354 9.629534 1.484161
v -0.505600 11.500603 -1.247124
v -1.107074 9.235559 1.359571
v -1.879037 9.565227 -0.217715
v -1.922168 11.076584 -0.130155
v -1.618056 12.316734 2.086291
v -0.830562 13.584115 -0.023822
v -0.657826 12.429461 -1.097328
v -1.812408 11.069628 1.941018
v -2.006448 7.866398 1.205142
v -1.534975 7.023536 -1.234670
v -0.323458 7.940325 1.470842
v -0.216928 6.837374 -1.813885
v -2.092353 7.367471 -0.276277
v -2.712732 7.589625 1.930418
v -2.398099 4.444283 0.396960
v -0.685619 7.797746 2.088710
v -1.208282 3.835890 0.165601
v -2.988855 6.203322 1.220516
v -3.059770 6.910618 2.821225
v -2.512191 4.074681 0.972360
v -1.365289 3.433816 0.664784
v -3.090108 5.743237 1.901451
v -2.770257 3.577493 1.879597
v -1.768425 3.007807 1.467074
v -3.309379 5.224773 2.825771
v -2.056629 5.406294 -0.752813
v -2.663112 6.642591 0.183022
v -0.671987 4.868681 -1.113657
v -2.379351 7.902769 1.211721
v -0.442162 8.082300 1.422682
v -1.934429 14.115590 1.211236
v -1.743442 14.101243 0.613873
v -2.038445 13.888714 1.872515
v -1.218103 13.409569 2.588514
v -1.122364 14.067486 0.514539
v -1.369817 13.498197 2.456083
v -1.788256 14.534784 1.359465
v -1.623047 14.620192 0.875064
v -1.884392 14.318704 2.034035
v -1.185616 14.443419 0.721498
v -1.542508 14.109650 2.554354
v -1.596556 15.015814 1.525077
v -1.473685 15.043824 1.231784
v -1.684944 14.808773 2.204061
v -1.090022 14.880128 1.001388
v -1.321894 14.579401 2.960628
v -1.286569 15.445271 2.060434
v -1.193335 15.433002 1.916295
v -1.373345 15.239823 2.738759
v -1.023740 15.395887 1.643519
v -1.276479 15.096536 3.075145
v -1.259425 13.502660 2.422076
v -1.468092 14.153601 2.503140
v -1.281491 14.614826 2.867970
v -1.184549 13.921611 2.810283
v -0.946182 6.129321 1.950772
v -1.775293 6.157905 1.813823
v -1.991973 6.429921 3.078608
v -1.186575 6.419941 3.190502
v -0.590612 6.193017 2.713480
v -2.336533 6.216218 2.478460
v -1.916664 7.226927 2.495029
v -0.918174 6.093900 2.052749
v -1.063805 7.222319 2.593626
v -1.797852 6.148587 1.938088
v -0.515608 6.578600 2.404109
v -2.280427 6.596374 2.182703
v 0.940720 10.806785 1.965906
v 1.975963 11.604255 3.167836
v 0.950110 11.640917 3.076759
v 2.214983 11.178804 2.638814
v 1.966607 10.719506 2.016846
v 0.691179 11.227263 2.452498
v 1.113644 10.792644 3.766087
v 1.064288 10.508340 3.087155
v 1.234011 9.862205 2.727613
v 1.856942 9.409494 3.049980
v 1.795102 9.648118 3.799940
v 1.248787 13.058995 2.386292
v 0.772546 12.118361 2.498469
v 1.599065 13.110438 1.669797
v 1.696179 13.015700 0.766756
v 1.649328 11.928819 0.198356
v 0.774136 11.620779 1.863292
v 1.851438 12.650093 0.959034
v 1.514221 12.768536 2.429196
v 0.951959 12.159352 2.591182
v 1.823800 12.865532 1.702451
v 0.770225 11.550486 2.004230
v 1.271975 11.554238 1.149732
v -0.351914 10.500525 3.969643
v -0.293724 10.306990 3.301022
v -0.120886 9.718232 2.966476
v 0.067397 8.971157 3.505799
v -0.019125 9.190079 4.190416
v -0.157588 9.705264 4.553911
v -0.390104 10.584193 3.994895
v -0.808998 10.211525 4.054395
v -0.659923 9.567505 4.526611
v -0.562649 9.160534 4.243216
v -0.481651 8.991706 3.699088
v -0.767837 10.060499 3.533319
v -0.627742 9.591655 3.266201
v 0.096620 8.887424 3.470708
v -0.332039 10.371456 3.242105
v -0.132787 9.714301 2.871937
v 0.013349 9.121181 4.247811
v -0.155038 9.712805 4.648946
v -0.663125 9.569676 4.754283
v -0.860271 10.422894 4.128739
v -0.525662 9.007962 4.362665
v -0.419513 8.778683 3.626529
v -0.800874 10.214051 3.406288
v -0.613747 9.582728 3.046746
v -1.616645 10.057768 4.215839
v -1.495382 9.533892 4.599960
v -1.437240 9.312999 4.278085
v -1.350366 9.065510 3.926815
v -1.551594 9.814556 3.882454
v -1.469204 9.553536 3.574685
v -2.090173 9.638519 4.499538
v -2.055776 10.011601 4.252301
v -2.048025 9.490316 4.280143
v -1.987547 9.320952 4.042801
v -2.010949 9.847837 4.024929
v -1.959970 9.669229 3.815715
v -2.442230 9.809939 4.411003
v -2.344332 10.067030 4.257663
v -2.490968 9.752805 4.258265
v -2.447903 9.632967 4.092630
v -2.392486 9.998990 4.099026
v -2.359982 9.873505 3.951626
v -1.250579 10.138661 4.156357
v -1.196452 9.937604 3.737148
v -1.087675 9.581553 3.447968
v -0.956376 9.042349 3.837024
v -1.040563 9.253868 4.276481
v -1.116599 9.559849 4.580761
v -1.488503 10.387054 3.892555
v -1.700466 10.224203 3.919090
v -1.655525 10.060319 3.674046
v -1.469926 10.248212 3.589228
v -1.725577 10.550634 3.726923
v -1.886810 10.426760 3.747108
v -1.852625 10.302097 3.560710
v -1.711445 10.445021 3.496192
v 1.616726 10.170685 4.222003
v 1.060491 9.988514 4.315624
v 1.216150 9.462219 3.929805
v 1.320207 9.221336 3.228205
v 1.001833 9.893688 2.741127
v 0.797907 10.512766 3.081489
v 0.773901 10.736588 3.767736
v 2.045213 9.807792 2.783778
v 1.122529 10.890493 3.730160
v 2.219948 10.185080 3.430134
v 0.974473 10.538013 3.109488
v 1.167009 10.018255 2.645145
v 1.994067 10.609406 3.926104
v 0.600634 8.605384 1.326916
v 1.391769 8.266463 -0.904262
v -0.370911 8.337798 1.230459
v 0.282491 8.165196 -1.224890
v -0.041744 8.329180 1.264918
v 0.882847 8.086580 -1.109456
v 1.157553 8.507163 0.520975
v 1.333452 6.900620 -0.509934
v -0.151404 7.699768 0.943375
v 0.131349 6.886756 -0.595519
v 0.450943 8.166304 0.879244
v 0.617474 6.705371 -0.233386
v 1.698095 7.116638 3.218471
v 1.722483 5.876941 2.608922
v 0.856853 7.043691 3.252648
v 0.853976 5.792731 2.660883
v 1.739683 6.381844 4.056141
v 1.778441 5.029068 3.137665
v 1.021781 6.344032 4.101905
v 1.039720 4.978361 3.177338
v 1.565427 7.881589 2.011162
v 0.666685 7.691293 1.934467
v 0.724482 6.002595 1.355113
v 1.643022 6.066486 1.477603
v -0.001634 7.037123 0.067831
v 2.039393 7.021858 1.740346
v 0.501177 5.605034 3.665566
v 2.129517 6.514643 2.931931
v 2.275863 5.757202 3.589042
v 1.310609 8.556244 0.181695
v 0.383512 6.359767 3.010951
v 0.202100 6.763995 1.528490
v 1.619430 7.775559 -0.164041
v 0.156679 7.109119 0.129587
v 1.796901 6.490086 4.126711
v 1.841166 4.921995 3.050414
v 0.961667 6.445836 4.180033
v 0.981681 4.862982 3.096536
v 0.355558 5.588936 3.668907
v 2.420302 5.767090 3.580792
v 1.845790 6.147339 4.580161
v 1.887293 4.599155 3.479381
v 1.010602 6.102990 4.634379
v 1.027852 4.540323 3.526906
v 0.402743 5.256450 4.103031
v 2.467284 5.438286 4.017742
v 1.779165 6.002414 4.492394
v 1.812855 4.722678 3.575314
v 1.083311 5.964548 4.537772
v 1.096703 4.673654 3.614915
v 0.576219 5.263445 4.090168
v 2.296631 5.413588 4.018144
v 1.882942 5.397334 5.388478
v 1.921424 4.009098 4.393443
v 1.163913 5.358338 5.435707
v 1.179747 3.958326 4.434457
v 0.637118 4.632025 4.971915
v 2.418853 4.787519 4.897324
v 1.943951 4.700068 6.184524
v 1.924334 3.497560 5.292746
v 1.397105 4.698547 6.211887
v 1.358972 3.465859 5.321717
v 0.961150 4.081334 5.790773
v 2.318912 4.158156 5.747875
v 2.048650 4.608798 6.876414
v 1.937837 3.097075 5.692643
v 1.530431 4.663711 6.884303
v 1.404308 3.109350 5.705556
v 1.067169 3.831563 6.218188
v 2.349499 3.756988 6.227685
v 2.150898 5.040243 7.772234
v 1.966411 2.776836 5.976520
v 1.555624 5.121059 7.777088
v 1.351279 2.801928 5.987596
v 0.949501 3.600803 6.543363
v 2.428164 3.473175 6.568438
v 2.124246 4.845959 8.160532
v 1.916567 2.506369 6.312225
v 1.528972 4.926775 8.165386
v 1.302704 2.559113 6.314276
v 0.916058 3.348380 6.876982
v 2.393767 3.200522 6.907526
v 2.054820 4.557215 8.145932
v 1.865726 2.527017 6.543279
v 1.532098 4.628181 8.150178
v 1.328786 2.580443 6.543230
v 0.993954 3.271573 7.039470
v 2.292221 3.137050 7.066586
v 0.951133 9.510508 1.659944
v 0.851745 10.547958 2.082647
v 1.410682 9.779596 -0.739723
v 1.665914 11.418961 -0.251851
v 0.708400 9.656222 -0.870934
v 0.243785 9.678463 1.866225
v -0.535078 9.630355 1.755357
v 0.881320 11.346605 -0.640126
v 0.206615 11.415327 -1.024997
v 0.218040 9.303539 1.674253
v -0.441157 9.205366 1.499556
v 0.111040 9.608254 -1.065627
v 1.523575 9.698011 0.519507
v 1.384748 11.010324 0.945301
v -0.170485 12.247814 2.581989
v -0.898132 12.212333 2.375369
v 0.570723 13.519754 0.433735
v -0.111973 13.575053 0.126818
v -0.883223 11.108229 2.313264
v 0.239369 12.305595 -0.921472
v 1.070240 12.357376 -0.483682
v -0.031770 11.003831 2.559837
v 1.634204 8.317760 2.059431
v 2.362694 7.409773 -0.302132
v -0.084876 7.120065 1.588916
v 0.693415 6.775408 -1.616283
v 0.087547 7.875106 1.632520
v 1.537011 6.835730 -1.328790
v 2.318762 7.828674 0.741713
v 2.273859 7.265329 3.340766
v 2.980710 4.820565 1.021400
v 0.505707 4.047238 0.042451
v 0.291032 7.179150 2.886618
v 2.097116 4.207939 0.297692
v 3.026430 6.217657 2.430979
v 2.443930 6.532160 4.049314
v 3.025544 4.343182 1.569235
v 0.502698 3.549651 0.531649
v 2.231067 3.670622 0.807648
v 2.907056 5.707333 2.896862
v 3.258094 3.622850 2.336818
v 0.436762 3.090255 1.266490
v 2.569971 3.074330 1.515816
v 3.117046 4.951401 3.745176
v 2.761669 6.019569 0.288601
v 2.895844 7.108943 1.583348
v 1.777420 5.389437 -0.614528
v 0.567871 5.172444 -0.958636
v 2.075000 8.132780 2.684116
v 0.169923 8.068838 2.272855
v 0.875200 14.030912 1.786080
v 0.935333 14.018635 1.176428
v 0.666167 13.801786 2.467688
v -0.402751 13.383349 2.768053
v 0.425592 14.015722 0.870711
v -0.337720 13.947042 0.651257
v -0.205055 13.460743 2.712535
v 0.713224 14.461832 1.852442
v 0.748305 14.549625 1.353271
v 0.518999 14.246544 2.523656
v 0.399872 14.394621 1.053724
v -0.358309 14.358088 0.729625
v -0.010296 14.063603 2.866834
v 0.507312 14.956095 1.927069
v 0.502824 14.987704 1.609542
v 0.324346 14.751384 2.590698
v 0.222609 14.841946 1.259311
v -0.416329 14.778278 1.035691
v -0.317332 14.550282 3.157236
v 0.045901 15.407447 2.315033
v 0.011804 15.398792 2.146564
v -0.134701 15.204662 2.975430
v -0.047130 15.368165 1.830122
v -0.511286 15.381951 1.610426
v -0.356364 15.070417 3.250955
v -0.873118 14.386230 3.321180
v -0.848978 15.017195 3.323594
v -0.653583 15.521322 2.375854
v -0.285321 13.471605 2.634474
v -0.055315 14.111204 2.790783
v -0.321559 14.586868 3.056868
v -0.838791 14.460705 3.110406
v -0.453852 13.899512 2.960375
v 0.897952 5.608553 2.761357
v 1.733994 5.679270 2.716155
v 1.710886 6.928248 3.481692
v 0.901144 6.863545 3.519532
v 0.412923 6.180882 3.192190
v 2.166250 6.335006 3.114129
v 1.660463 7.351734 2.886273
v 0.818617 5.861436 2.389166
v 0.805217 7.280831 2.910279
v 1.701820 5.944721 2.355291
v 0.333326 6.513515 2.684971
v 2.104635 6.663774 2.622910
v -0.858303 13.790607 2.989981
v -0.880566 12.992458 2.710808
v -1.423152 8.531236 0.933687
v -1.004672 8.265564 -1.324985
v -0.724580 8.483751 1.137083
v -0.381041 8.299970 -1.222179
v -1.526526 8.368135 -0.358475
v -1.882900 7.775450 1.134526
v -1.437107 6.977836 -1.173872
v -0.291301 7.844954 1.384998
v -0.190179 6.801577 -1.722623
v -1.964432 7.303207 -0.266950
v -2.551755 7.534376 1.828025
v -2.254074 4.559614 0.377507
v -0.634544 7.731211 1.977728
v -1.128705 3.984233 0.158569
v -2.812880 6.223248 1.156579
v -2.880321 6.895782 2.675224
v -2.362316 4.213675 0.926382
v -1.277548 3.607588 0.635396
v -2.908962 5.791728 1.805215
v -2.608073 3.742448 1.788948
v -1.660502 3.203688 1.398695
v -3.118044 5.300364 2.683960
v -1.931305 5.461564 -0.707462
v -2.505010 6.630829 0.177857
v -0.621608 4.953106 -1.048991
v -2.236650 7.822689 1.150753
v -0.404457 7.992488 1.350226
v 0.610599 8.547938 1.300092
v 1.386633 8.215294 -0.887449
v -0.312261 8.202549 1.152071
v 0.307263 8.038045 -1.172962
v 0.022590 8.183886 1.193935
v 0.898821 7.953251 -1.054844
v 1.306538 8.499670 0.178541
v 1.585139 8.196390 1.956693
v 2.274462 7.336985 -0.277348
v -0.042285 7.051092 1.492906
v 0.683708 6.739760 -1.529041
v 0.122601 7.777134 1.552446
v 1.494046 6.793792 -1.249290
v 2.287550 7.794093 0.730359
v 2.163215 7.226910 3.182453
v 2.926703 4.854711 1.009538
v 0.491682 4.183778 0.052296
v 0.287888 7.145400 2.752914
v 2.060480 4.254139 0.300019
v 2.874985 6.236053 2.321977
v 2.321520 6.529827 3.854336
v 2.969721 4.385389 1.547247
v 0.487364 3.713150 0.518233
v 2.190860 3.726056 0.800602
v 2.853563 5.722719 2.848813
v 3.089766 3.780366 2.243499
v 0.423306 3.279238 1.219889
v 2.438942 3.261611 1.466938
v 2.956375 5.036853 3.575595
v 2.712251 6.031142 0.292417
v 2.752249 7.081735 1.523858
v 1.694502 5.455603 -0.555234
v 0.550824 5.245412 -0.891710
v 1.975912 8.050044 2.564889
v 0.174123 7.989589 2.175887
vt 0.1411 0.5697
vt 0.1173 0.5717
vt 0.1192 0.5293
vt 0.1411 0.5249
vt 0.1790 0.5728
vt 0.1795 0.5302
vt 0.1179 0.6009
vt 0.0932 0.6030
vt 0.0926 0.5899
vt 0.1166 0.5874
vt 0.0607 0.6051
vt 0.0351 0.6025
vt 0.0372 0.5891
vt 0.0618 0.5920
vt 0.1780 0.6032
vt 0.1407 0.6005
vt 0.1401 0.5862
vt 0.1785 0.5890
vt 0.1188 0.5269
vt 0.1412 0.5219
vt 0.0947 0.5314
vt 0.0943 0.5290
vt 0.0624 0.5348
vt 0.0373 0.5301
vt 0.0378 0.5272
vt 0.0623 0.5314
vt 0.1826 0.5272
vt 0.4961 0.6945
vt 0.5387 0.7226
vt 0.5166 0.7257
vt 0.4899 0.6966
vt 0.5390 0.8238
vt 0.5284 0.8586
vt 0.5095 0.8519
vt 0.5284 0.8191
vt 0.5405 0.7832
vt 0.4607 0.7887
vt 0.4721 0.7651
vt 0.4496 0.8737
vt 0.4286 0.8459
vt 0.4491 0.8154
vt 0.4601 0.8910
vt 0.5560 0.7961
vt 0.4081 0.8841
vt 0.4086 0.8776
vt 0.4818 0.7271
vt 0.4731 0.7008
vt 0.4037 0.8602
vt 0.0105 0.5255
vt 0.0088 0.5215
vt 0.0095 0.5980
vt 0.0118 0.5846
vt 0.0385 0.5084
vt 0.0632 0.5137
vt 0.0110 0.4962
vt 0.0972 0.5129
vt 0.1202 0.5072
vt 0.1398 0.5066
vt 0.1799 0.5009
vt 0.1393 0.4993
vt 0.1720 0.4925
vt 0.0961 0.5046
vt 0.1195 0.5008
vt 0.0409 0.5016
vt 0.0642 0.5060
vt 0.0202 0.4909
vt 0.0268 0.4371
vt 0.0334 0.4215
vt 0.0477 0.4247
vt 0.0408 0.4370
vt 0.0677 0.3339
vt 0.0689 0.3483
vt 0.0573 0.3502
vt 0.0554 0.3388
vt 0.0652 0.4263
vt 0.0597 0.4346
vt 0.0551 0.4111
vt 0.0712 0.4173
vt 0.0418 0.4730
vt 0.0297 0.4607
vt 0.0422 0.4567
vt 0.0531 0.4653
vt 0.0539 0.4828
vt 0.0639 0.4735
vt 0.0418 0.4069
vt 0.0509 0.3820
vt 0.0634 0.3881
vt 0.0772 0.4570
vt 0.0695 0.4530
vt 0.0798 0.4430
vt 0.0836 0.4460
vt 0.0615 0.4483
vt 0.0759 0.4333
vt 0.0747 0.4416
vt 0.0794 0.4028
vt 0.0824 0.4344
vt 0.0879 0.4369
vt 0.0879 0.4133
vt 0.0813 0.4218
vt 0.0800 0.4278
vt 0.0258 0.4023
vt 0.0359 0.3747
vt 0.0404 0.4926
vt 0.0263 0.4809
vt 0.0127 0.4652
vt 0.0091 0.4383
vt 0.0159 0.4193
vt 0.0549 0.3590
vt 0.0515 0.3694
vt 0.0417 0.3631
vt 0.0468 0.3569
vt 0.0636 0.3206
vt 0.0506 0.3298
vt 0.0689 0.3620
vt 0.0641 0.3770
vt 0.0371 0.3551
vt 0.0457 0.3504
vt 0.0436 0.3429
vt 0.0412 0.3364
vt 0.0928 0.5752
vt 0.0612 0.5769
vt 0.0374 0.5736
vt 0.0129 0.5690
vt 0.1437 0.6376
vt 0.1190 0.6377
vt 0.0301 0.6389
vt 0.0041 0.6338
vt 0.0913 0.6387
vt 0.0564 0.6411
vt 0.1826 0.6402
vt 0.2529 0.3464
vt 0.2565 0.3339
vt 0.3062 0.3342
vt 0.3016 0.3589
vt 0.2432 0.3589
vt 0.2638 0.3741
vt 0.4755 0.3347
vt 0.4790 0.3476
vt 0.4352 0.3605
vt 0.4300 0.3347
vt 0.4893 0.3619
vt 0.4679 0.3759
vt 0.3923 0.4452
vt 0.4158 0.4540
vt 0.4127 0.4635
vt 0.3895 0.4561
vt 0.3146 0.4759
vt 0.3384 0.4697
vt 0.3397 0.4910
vt 0.3219 0.4959
vt 0.3092 0.4587
vt 0.3355 0.4505
vt 0.3382 0.4617
vt 0.3114 0.4686
vt 0.3269 0.4183
vt 0.3009 0.4315
vt 0.4261 0.4281
vt 0.4031 0.4141
vt 0.4475 0.4476
vt 0.4873 0.4056
vt 0.3627 0.4638
vt 0.3635 0.4564
vt 0.3884 0.4632
vt 0.3634 0.4452
vt 0.3644 0.4111
vt 0.3686 0.3448
vt 0.3687 0.3345
vt 0.5055 0.3974
vt 0.2371 0.3998
vt 0.2226 0.3858
vt 0.2736 0.4456
vt 0.4348 0.4676
vt 0.4307 0.4753
vt 0.2974 0.4979
vt 0.2913 0.4801
vt 0.4100 0.4699
vt 0.4028 0.4878
vt 0.3857 0.4824
vt 0.4287 0.4816
vt 0.4235 0.5000
vt 0.2854 0.4661
vt 0.2887 0.4743
vt 0.1064 0.2829
vt 0.0814 0.2715
vt 0.0807 0.2675
vt 0.1098 0.2807
vt 0.0786 0.0255
vt 0.1025 0.0139
vt 0.1059 0.0161
vt 0.0782 0.0296
vt 0.0042 0.1582
vt 0.0042 0.1375
vt 0.0079 0.1357
vt 0.0079 0.1599
vt 0.2021 0.2869
vt 0.1761 0.2917
vt 0.1734 0.2888
vt 0.2036 0.2832
vt 0.3554 0.1412
vt 0.3550 0.1613
vt 0.3513 0.1629
vt 0.3517 0.1394
vt 0.1713 0.0035
vt 0.1991 0.0078
vt 0.2008 0.0115
vt 0.1685 0.0065
vt 0.0871 0.2534
vt 0.1162 0.2667
vt 0.0233 0.1357
vt 0.0233 0.1599
vt 0.3359 0.1626
vt 0.3363 0.1392
vt 0.1985 0.0267
vt 0.1662 0.0218
vt 0.1127 0.0299
vt 0.0849 0.0434
vt 0.1706 0.2736
vt 0.2008 0.2680
vt 0.1122 0.0348
vt 0.0891 0.0460
vt 0.1723 0.2691
vt 0.1975 0.2645
vt 0.0912 0.2509
vt 0.1155 0.2620
vt 0.0277 0.1378
vt 0.0277 0.1579
vt 0.3315 0.1606
vt 0.3318 0.1411
vt 0.1952 0.0303
vt 0.1683 0.0261
vt 0.0582 0.1375
vt 0.0582 0.1583
vt 0.3011 0.1604
vt 0.3014 0.1402
vt 0.1911 0.0604
vt 0.1632 0.0561
vt 0.1259 0.0619
vt 0.1003 0.0744
vt 0.1664 0.2393
vt 0.1925 0.2345
vt 0.1018 0.2223
vt 0.1285 0.2345
vt 0.1642 0.2102
vt 0.1863 0.2063
vt 0.1151 0.1966
vt 0.1379 0.2068
vt 0.0870 0.1400
vt 0.0870 0.1559
vt 0.2724 0.1575
vt 0.2726 0.1420
vt 0.1856 0.0887
vt 0.1621 0.0853
vt 0.1360 0.0893
vt 0.1141 0.0998
vt 0.2541 0.1563
vt 0.2543 0.1417
vt 0.1925 0.1057
vt 0.1605 0.1007
vt 0.1423 0.1035
vt 0.1187 0.1147
vt 0.1620 0.1949
vt 0.1928 0.1892
vt 0.1193 0.1816
vt 0.1438 0.1925
vt 0.1026 0.1405
vt 0.1026 0.1556
vt 0.1589 0.1832
vt 0.2136 0.1707
vt 0.1226 0.1701
vt 0.1497 0.1821
vt 0.1146 0.1394
vt 0.1146 0.1567
vt 0.2263 0.1560
vt 0.2266 0.1392
vt 0.2136 0.1239
vt 0.1577 0.1124
vt 0.1484 0.1138
vt 0.1223 0.1261
vt 0.2141 0.1557
vt 0.2144 0.1389
vt 0.2135 0.1360
vt 0.1553 0.1241
vt 0.1535 0.1246
vt 0.1274 0.1369
vt 0.1563 0.1716
vt 0.2132 0.1585
vt 0.1275 0.1592
vt 0.1545 0.1711
vt 0.1265 0.1394
vt 0.1265 0.1567
vt 0.1568 0.1661
vt 0.2058 0.1547
vt 0.1330 0.1556
vt 0.1330 0.1404
vt 0.2061 0.1400
vt 0.1559 0.1296
vt 0.7379 0.2719
vt 0.7037 0.2677
vt 0.7119 0.2449
vt 0.7448 0.2540
vt 0.6730 0.4081
vt 0.6904 0.4120
vt 0.6923 0.4365
vt 0.6758 0.4365
vt 0.7242 0.4174
vt 0.7261 0.4365
vt 0.6574 0.2577
vt 0.6681 0.2313
vt 0.6917 0.2897
vt 0.6437 0.2838
vt 0.6836 0.3854
vt 0.7202 0.3918
vt 0.6372 0.3758
vt 0.7285 0.2931
vt 0.6844 0.3380
vt 0.7211 0.3385
vt 0.6401 0.3292
vt 0.5858 0.7233
vt 0.6195 0.7182
vt 0.6195 0.7677
vt 0.5903 0.7705
vt 0.4933 0.9233
vt 0.5479 0.8949
vt 0.4629 0.9483
vt 0.4489 0.9179
vt 0.5885 0.6551
vt 0.6195 0.6511
vt 0.5555 0.6968
vt 0.4777 0.9763
vt 0.5094 0.9561
vt 0.5635 0.9198
vt 0.4042 0.8909
vt 0.5009 0.6883
vt 0.7521 0.2127
vt 0.7372 0.1998
vt 0.7716 0.1523
vt 0.7877 0.1661
vt 0.8093 0.3244
vt 0.7889 0.2732
vt 0.8401 0.2503
vt 0.8609 0.3054
vt 0.8135 0.3512
vt 0.8664 0.3647
vt 0.7658 0.2319
vt 0.8191 0.2099
vt 0.8155 0.3712
vt 0.8685 0.3712
vt 0.8866 0.2324
vt 0.8637 0.1791
vt 0.9010 0.1522
vt 0.9280 0.2140
vt 0.8317 0.1386
vt 0.8746 0.1166
vt 0.8002 0.1126
vt 0.8290 0.0759
vt 0.9031 0.2876
vt 0.9454 0.2664
vt 0.9120 0.3547
vt 0.9575 0.3383
vt 0.9519 0.2025
vt 0.9770 0.2487
vt 0.9233 0.1404
vt 0.8970 0.1026
vt 0.8464 0.0557
vt 0.9852 0.1863
vt 0.9537 0.1240
vt 0.9256 0.0908
vt 0.8654 0.0345
vt 0.9392 0.9594
vt 0.9133 0.9204
vt 0.9551 0.9075
vt 0.9663 0.9329
vt 0.9275 0.8361
vt 0.9410 0.7833
vt 0.9859 0.7991
vt 0.9827 0.8084
vt 0.9683 0.8493
vt 0.9206 0.8763
vt 0.9642 0.8810
vt 0.9593 0.9860
vt 0.9859 0.9630
vt 0.9599 0.7543
vt 0.3559 0.6510
vt 0.3908 0.7125
vt 0.3599 0.7365
vt 0.3252 0.6744
vt 0.3992 0.8213
vt 0.3921 0.8850
vt 0.3508 0.8800
vt 0.3582 0.8192
vt 0.3843 0.9751
vt 0.3292 0.9448
vt 0.4107 0.7647
vt 0.3615 0.7771
vt 0.2583 0.9396
vt 0.3054 0.8710
vt 0.3191 0.7543
vt 0.2891 0.7058
vt 0.3158 0.8146
vt 0.3200 0.7913
vt 0.2338 0.8975
vt 0.2477 0.8773
vt 0.2675 0.7926
vt 0.2377 0.7615
vt 0.2622 0.8304
vt 0.2631 0.8174
vt 0.2050 0.9369
vt 0.2050 0.9040
vt 0.2050 0.8246
vt 0.3248 0.9535
vt 0.2603 0.9512
vt 0.3824 0.9861
vt 0.2050 0.9547
vt 0.4015 0.9881
vt 0.4267 0.5549
vt 0.4534 0.6068
vt 0.4062 0.6228
vt 0.4393 0.6775
vt 0.4941 0.6670
vt 0.3614 0.4837
vt 0.4941 0.4380
vt 0.4941 0.5178
vt 0.4468 0.5513
vt 0.4941 0.5992
vt 0.2399 0.5688
vt 0.2417 0.5240
vt 0.2634 0.5293
vt 0.2635 0.5717
vt 0.2018 0.5702
vt 0.2032 0.5276
vt 0.2617 0.6009
vt 0.2635 0.5874
vt 0.2874 0.5910
vt 0.2863 0.6040
vt 0.3187 0.6075
vt 0.3181 0.5943
vt 0.3428 0.5925
vt 0.3444 0.6060
vt 0.2015 0.6007
vt 0.2017 0.5864
vt 0.2401 0.5852
vt 0.2389 0.5995
vt 0.2418 0.5210
vt 0.2639 0.5269
vt 0.2883 0.5300
vt 0.2878 0.5324
vt 0.3199 0.5372
vt 0.3202 0.5337
vt 0.3448 0.5306
vt 0.3452 0.5335
vt 0.2002 0.5245
vt 0.7429 0.6946
vt 0.7490 0.6967
vt 0.7224 0.7258
vt 0.7002 0.7226
vt 0.6999 0.8239
vt 0.7105 0.8191
vt 0.7294 0.8520
vt 0.7105 0.8587
vt 0.6985 0.7832
vt 0.7668 0.7652
vt 0.7782 0.7888
vt 0.7898 0.8155
vt 0.8103 0.8460
vt 0.7892 0.8738
vt 0.7788 0.8911
vt 0.6829 0.7961
vt 0.8303 0.8777
vt 0.8307 0.8842
vt 0.7571 0.7272
vt 0.7659 0.7009
vt 0.8352 0.8603
vt 0.3740 0.5261
vt 0.3722 0.5301
vt 0.3684 0.5891
vt 0.3701 0.6025
vt 0.3200 0.5160
vt 0.3449 0.5118
vt 0.3729 0.5008
vt 0.2633 0.5072
vt 0.2861 0.5138
vt 0.2438 0.5057
vt 0.2040 0.4984
vt 0.2446 0.4985
vt 0.2122 0.4903
vt 0.2875 0.5055
vt 0.2643 0.5008
vt 0.3428 0.5048
vt 0.3193 0.5083
vt 0.3639 0.4951
vt 0.1645 0.4599
vt 0.1646 0.4458
vt 0.1770 0.4390
vt 0.1802 0.4532
vt 0.1803 0.3793
vt 0.1679 0.3744
vt 0.1699 0.3630
vt 0.1814 0.3649
vt 0.1670 0.4270
vt 0.1753 0.4214
vt 0.1844 0.4154
vt 0.1905 0.4315
vt 0.1286 0.4449
vt 0.1364 0.4335
vt 0.1450 0.4445
vt 0.1409 0.4569
vt 0.1188 0.4328
vt 0.1281 0.4227
vt 0.1948 0.4449
vt 0.2136 0.4233
vt 0.2196 0.4357
vt 0.1446 0.4094
vt 0.1556 0.4030
vt 0.1586 0.4068
vt 0.1486 0.4171
vt 0.1533 0.4251
vt 0.1600 0.4120
vt 0.1683 0.4107
vt 0.1988 0.4072
vt 0.1672 0.4042
vt 0.1648 0.3988
vt 0.1798 0.4053
vt 0.1884 0.3988
vt 0.1738 0.4066
vt 0.1993 0.4608
vt 0.2269 0.4507
vt 0.1090 0.4462
vt 0.1207 0.4603
vt 0.1364 0.4739
vt 0.1634 0.4775
vt 0.1824 0.4708
vt 0.1675 0.3542
vt 0.1593 0.3563
vt 0.1543 0.3501
vt 0.1641 0.3438
vt 0.1762 0.3926
vt 0.1632 0.3834
vt 0.1814 0.3512
vt 0.1766 0.3362
vt 0.1583 0.3629
vt 0.1496 0.3581
vt 0.1562 0.3703
vt 0.1538 0.3768
vt 0.2879 0.5762
vt 0.3193 0.5793
vt 0.3433 0.5770
vt 0.3680 0.5735
vt 0.2343 0.6364
vt 0.2591 0.6376
vt 0.3478 0.6426
vt 0.3740 0.6385
vt 0.2867 0.6398
vt 0.3215 0.6437
vt 0.1954 0.6374
vt 0.2530 0.3214
vt 0.3019 0.3094
vt 0.2435 0.3089
vt 0.2643 0.2938
vt 0.4353 0.3088
vt 0.4790 0.3219
vt 0.4680 0.2936
vt 0.4893 0.3077
vt 0.3931 0.2241
vt 0.3904 0.2133
vt 0.4136 0.2061
vt 0.4166 0.2155
vt 0.3161 0.1927
vt 0.3236 0.1728
vt 0.3413 0.1780
vt 0.3397 0.1992
vt 0.3104 0.2098
vt 0.3128 0.2000
vt 0.3395 0.2072
vt 0.3367 0.2182
vt 0.3018 0.2369
vt 0.3277 0.2503
vt 0.4036 0.2552
vt 0.4267 0.2414
vt 0.4480 0.2221
vt 0.4874 0.2641
vt 0.3639 0.2053
vt 0.3894 0.2062
vt 0.3646 0.2127
vt 0.3644 0.2238
vt 0.3651 0.2579
vt 0.3687 0.3241
vt 0.5055 0.2723
vt 0.2232 0.2817
vt 0.2378 0.2678
vt 0.2747 0.2225
vt 0.4315 0.1945
vt 0.4355 0.2022
vt 0.2928 0.1883
vt 0.2992 0.1705
vt 0.4109 0.1997
vt 0.3869 0.1870
vt 0.4040 0.1818
vt 0.4296 0.1882
vt 0.4246 0.1699
vt 0.2867 0.2022
vt 0.2902 0.1940
vt 0.6107 0.2858
vt 0.6073 0.2836
vt 0.6367 0.2708
vt 0.6359 0.2748
vt 0.6429 0.0289
vt 0.6432 0.0330
vt 0.6157 0.0190
vt 0.6192 0.0169
vt 0.7150 0.1629
vt 0.7113 0.1645
vt 0.7117 0.1404
vt 0.7154 0.1421
vt 0.5149 0.2882
vt 0.5135 0.2844
vt 0.5436 0.2905
vt 0.5409 0.2935
vt 0.3642 0.1398
vt 0.3679 0.1382
vt 0.3679 0.1616
vt 0.3642 0.1600
vt 0.5506 0.0054
vt 0.5533 0.0084
vt 0.5209 0.0128
vt 0.5227 0.0091
vt 0.6012 0.2695
vt 0.6305 0.2567
vt 0.6959 0.1642
vt 0.6963 0.1401
vt 0.3833 0.1382
vt 0.3833 0.1616
vt 0.5554 0.0237
vt 0.5230 0.0281
vt 0.6362 0.0467
vt 0.6087 0.0328
vt 0.5166 0.2693
vt 0.5467 0.2754
vt 0.6321 0.0493
vt 0.6092 0.0376
vt 0.5199 0.2658
vt 0.5450 0.2709
vt 0.6020 0.2647
vt 0.6264 0.2541
vt 0.6915 0.1622
vt 0.6918 0.1421
vt 0.3877 0.1402
vt 0.3877 0.1597
vt 0.5532 0.0280
vt 0.5262 0.0317
vt 0.6610 0.1620
vt 0.6613 0.1412
vt 0.4181 0.1398
vt 0.4181 0.1600
vt 0.5578 0.0581
vt 0.5298 0.0619
vt 0.6204 0.0774
vt 0.5950 0.0645
vt 0.5255 0.2360
vt 0.5515 0.2412
vt 0.5894 0.2371
vt 0.6164 0.2252
vt 0.5321 0.2078
vt 0.5542 0.2121
vt 0.5805 0.2092
vt 0.6035 0.1994
vt 0.6322 0.1592
vt 0.6325 0.1433
vt 0.4469 0.1421
vt 0.4469 0.1576
vt 0.5583 0.0873
vt 0.5348 0.0903
vt 0.6061 0.1026
vt 0.5844 0.0918
vt 0.4652 0.1421
vt 0.4652 0.1567
vt 0.5597 0.1027
vt 0.5277 0.1072
vt 0.6013 0.1174
vt 0.5779 0.1058
vt 0.5259 0.1906
vt 0.5566 0.1969
vt 0.5749 0.1948
vt 0.5995 0.1843
vt 0.6167 0.1585
vt 0.6169 0.1435
vt 0.5054 0.1718
vt 0.5599 0.1853
vt 0.5692 0.1842
vt 0.5964 0.1727
vt 0.6047 0.1595
vt 0.6050 0.1422
vt 0.4930 0.1401
vt 0.4930 0.1569
vt 0.5624 0.1144
vt 0.5062 0.1250
vt 0.5975 0.1288
vt 0.5716 0.1160
vt 0.5052 0.1400
vt 0.5052 0.1568
vt 0.5646 0.1262
vt 0.5062 0.1371
vt 0.5922 0.1395
vt 0.5663 0.1267
vt 0.5060 0.1596
vt 0.5627 0.1737
vt 0.5645 0.1733
vt 0.5918 0.1617
vt 0.5928 0.1593
vt 0.5931 0.1420
vt 0.5135 0.1560
vt 0.5623 0.1682
vt 0.5863 0.1581
vt 0.5865 0.1429
vt 0.5135 0.1412
vt 0.5638 0.1317
vt 0.7379 0.6011
vt 0.7449 0.6190
vt 0.7119 0.6281
vt 0.7037 0.6053
vt 0.6730 0.4649
vt 0.6904 0.4610
vt 0.7242 0.4556
vt 0.6681 0.6417
vt 0.6574 0.6153
vt 0.6917 0.5833
vt 0.6438 0.5892
vt 0.6836 0.4876
vt 0.7202 0.4812
vt 0.6372 0.4972
vt 0.7285 0.5799
vt 0.6844 0.5350
vt 0.7211 0.5345
vt 0.6401 0.5438
vt 0.6532 0.7233
vt 0.6487 0.7705
vt 0.7455 0.9234
vt 0.6910 0.8949
vt 0.7759 0.9484
vt 0.7899 0.9180
vt 0.6505 0.6551
vt 0.6835 0.6969
vt 0.7612 0.9764
vt 0.7294 0.9561
vt 0.6754 0.9198
vt 0.8347 0.8911
vt 0.7381 0.6884
vt 0.7520 0.5296
vt 0.7876 0.5762
vt 0.7716 0.5900
vt 0.7372 0.5425
vt 0.8093 0.4179
vt 0.8609 0.4369
vt 0.8401 0.4920
vt 0.7889 0.4691
vt 0.8135 0.3912
vt 0.8664 0.3777
vt 0.8191 0.5324
vt 0.7658 0.5105
vt 0.8866 0.5100
vt 0.9280 0.5284
vt 0.9009 0.5901
vt 0.8637 0.5633
vt 0.8746 0.6257
vt 0.8316 0.6038
vt 0.8290 0.6664
vt 0.8001 0.6298
vt 0.9031 0.4547
vt 0.9454 0.4760
vt 0.9120 0.3876
vt 0.9575 0.4040
vt 0.9770 0.4937
vt 0.9519 0.5398
vt 0.9233 0.6020
vt 0.8970 0.6398
vt 0.8464 0.6866
vt 0.9852 0.5561
vt 0.9537 0.6184
vt 0.9256 0.6516
vt 0.8653 0.7079
vt 0.8770 0.9583
vt 0.8499 0.9318
vt 0.8611 0.9064
vt 0.9029 0.9192
vt 0.8887 0.8350
vt 0.8479 0.8482
vt 0.8335 0.8073
vt 0.8303 0.7980
vt 0.8752 0.7821
vt 0.8956 0.8751
vt 0.8520 0.8798
vt 0.8569 0.9848
vt 0.8303 0.9619
vt 0.8563 0.7531
vt 0.0542 0.6510
vt 0.0849 0.6744
vt 0.0502 0.7365
vt 0.0193 0.7125
vt 0.0109 0.8213
vt 0.0519 0.8192
vt 0.0593 0.8800
vt 0.0180 0.8850
vt 0.0809 0.9448
vt 0.0258 0.9751
vt -0.0006 0.7647
vt 0.0486 0.7771
vt 0.1047 0.8710
vt 0.1518 0.9396
vt 0.1210 0.7058
vt 0.0910 0.7543
vt 0.0901 0.7913
vt 0.0943 0.8146
vt 0.1624 0.8773
vt 0.1763 0.8975
vt 0.1724 0.7615
vt 0.1426 0.7926
vt 0.1470 0.8174
vt 0.1479 0.8304
vt 0.1498 0.9512
vt 0.0853 0.9535
vt 0.0277 0.9861
vt 0.0086 0.9881
vt 0.5615 0.5549
vt 0.5820 0.6228
vt 0.5348 0.6068
vt 0.5489 0.6775
vt 0.3628 0.1856
vt 0.5414 0.5513
vt 0.2945 0.0894
vt 0.2899 0.0946
vt 0.2732 0.0825
vt 0.2780 0.0768
vt 0.3339 0.0692
vt 0.3158 0.0764
vt 0.3078 0.0583
vt 0.3272 0.0510
vt 0.3434 0.0677
vt 0.3481 0.0490
vt 0.3012 0.0845
vt 0.2935 0.0657
vt 0.3504 0.0670
vt 0.3504 0.0483
vt 0.3014 0.0419
vt 0.2826 0.0500
vt 0.2731 0.0368
vt 0.2949 0.0273
vt 0.2683 0.0613
vt 0.2606 0.0462
vt 0.2591 0.0724
vt 0.2462 0.0622
vt 0.3209 0.0361
vt 0.3134 0.0212
vt 0.3446 0.0329
vt 0.3388 0.0169
vt 0.2909 0.0189
vt 0.3072 0.0100
vt 0.2690 0.0289
vt 0.2556 0.0382
vt 0.2391 0.0561
vt 0.2852 0.0071
vt 0.2632 0.0182
vt 0.2515 0.0281
vt 0.2316 0.0494
vt 0.4063 0.0894
vt 0.4228 0.0768
vt 0.4276 0.0825
vt 0.4109 0.0946
vt 0.3669 0.0692
vt 0.3736 0.0510
vt 0.3930 0.0583
vt 0.3850 0.0764
vt 0.3575 0.0677
vt 0.3527 0.0490
vt 0.4073 0.0658
vt 0.3996 0.0845
vt 0.3994 0.0419
vt 0.4059 0.0273
vt 0.4277 0.0369
vt 0.4182 0.0500
vt 0.4402 0.0462
vt 0.4325 0.0613
vt 0.4546 0.0622
vt 0.4417 0.0724
vt 0.3799 0.0361
vt 0.3874 0.0212
vt 0.3562 0.0329
vt 0.3620 0.0169
vt 0.3936 0.0100
vt 0.4099 0.0189
vt 0.4319 0.0290
vt 0.4452 0.0382
vt 0.4617 0.0561
vt 0.4157 0.0071
vt 0.4376 0.0182
vt 0.4494 0.0282
vt 0.4692 0.0494
vn -0.6300 0.7710 0.0930
vn -0.9879 -0.1530 -0.0243
vn -0.6301 0.3576 -0.6893
vn -0.3525 0.7093 -0.6104
vn 0.4108 0.9075 0.0876
vn 0.1050 0.8259 -0.5539
vn -0.9915 -0.0117 -0.1297
vn -0.4628 0.3354 -0.8205
vn -0.4368 -0.3142 -0.8429
vn -0.9529 -0.2350 -0.1915
vn 0.5320 0.2907 -0.7953
vn 0.8394 -0.3933 -0.3751
vn 0.9237 -0.0836 -0.3737
vn 0.5268 -0.2432 -0.8144
vn 0.3109 -0.9504 0.0029
vn -0.7218 -0.6895 0.0595
vn -0.9872 0.0807 -0.1375
vn 0.4131 0.4599 -0.7860
vn -0.7949 0.1964 -0.5741
vn -0.5675 0.7821 -0.2575
vn -0.3654 0.0057 -0.9308
vn -0.3706 -0.4558 -0.8092
vn 0.3594 -0.0651 -0.9309
vn 0.6153 0.4705 -0.6324
vn 0.8152 0.3109 -0.4886
vn 0.5381 -0.3254 -0.7775
vn 0.3890 0.8966 -0.2115
vn -0.7664 -0.5960 -0.2395
vn -0.9288 -0.1586 0.3349
vn 0.0975 -0.9015 0.4215
vn 0.7204 -0.6850 -0.1084
vn -0.8708 0.4915 0.0040
vn -0.4310 0.7256 -0.5365
vn -0.4445 0.5915 -0.6727
vn -0.9393 0.3426 -0.0170
vn -0.8600 -0.2854 0.4229
vn -0.9826 0.1843 -0.0238
vn -0.6746 -0.5147 0.5291
vn 0.3032 0.4001 -0.8648
vn 0.6704 0.4293 -0.6052
vn -0.4678 0.5842 -0.6633
vn -0.5773 0.1160 -0.8082
vn -0.9135 0.0623 0.4020
vn 0.4605 -0.7074 0.5361
vn 0.9933 -0.1146 0.0147
vn 0.7906 -0.2138 0.5738
vn 0.5406 -0.7829 0.3080
vn 0.3886 0.4167 0.8218
vn -0.3323 -0.8982 0.2876
vn -0.6897 -0.4003 0.6034
vn -0.4937 0.2651 0.8282
vn -0.2559 -0.1284 0.9581
vn 0.4316 0.0073 0.9020
vn 0.0154 -0.7407 0.6716
vn -0.3800 -0.5307 0.7576
vn 0.6450 -0.3677 0.6698
vn 0.3741 -0.6924 0.6169
vn 0.7064 -0.7066 -0.0412
vn 0.9743 -0.0503 -0.2194
vn 0.9341 -0.3404 0.1074
vn 0.7382 -0.6736 -0.0376
vn 0.2544 0.8058 0.5346
vn 0.1264 -0.9588 0.2544
vn -0.0963 0.2029 0.9744
vn 0.9285 0.2453 -0.2788
vn 0.8297 -0.5480 -0.1061
vn 0.4644 0.8840 0.0530
vn -0.9266 -0.2619 0.2697
vn -0.4216 -0.9036 0.0754
vn -0.4481 -0.8787 0.1646
vn -0.8773 -0.3285 0.3497
vn -0.7316 0.5511 0.4013
vn -0.7619 0.3985 0.5105
vn 0.2163 0.9677 0.1291
vn -0.7031 0.3030 0.6433
vn -0.7386 -0.4243 0.5238
vn 0.0268 -0.3507 0.9361
vn -0.2896 0.2867 0.9132
vn -0.3138 -0.8784 0.3605
vn 0.9267 -0.3693 0.0690
vn 0.0675 -0.7865 0.6138
vn 0.9418 0.1346 0.3080
vn 0.5448 0.7506 0.3738
vn 0.4726 -0.2232 -0.8525
vn 0.2221 0.9546 -0.1983
vn 0.5831 0.8007 0.1371
vn 0.9095 -0.1426 -0.3905
vn 0.2767 0.1430 0.9502
vn 0.4884 -0.7517 0.4431
vn -0.3949 -0.7982 -0.4549
vn 0.5793 -0.6850 -0.4417
vn 0.9898 0.1343 -0.0477
vn 0.1099 -0.0156 -0.9938
vn 0.1936 -0.0003 -0.9810
vn 0.0760 -0.8406 -0.5362
vn 0.3310 -0.8102 -0.4837
vn -0.3980 0.0063 -0.9173
vn -0.3265 -0.5692 -0.7546
vn -0.1133 -0.2001 0.9732
vn -0.3190 -0.2943 0.9009
vn -0.2173 -0.1455 0.9652
vn -0.1368 -0.6945 0.7063
vn -0.7407 -0.2070 0.6391
vn -0.9183 -0.1208 0.3770
vn 0.3914 0.7337 0.5554
vn -0.5238 0.7327 0.4344
vn -0.5397 0.5359 0.6493
vn 0.3002 0.5344 0.7901
vn -0.3101 0.5942 -0.7421
vn 0.5527 0.5665 -0.6111
vn 0.2264 0.9151 -0.3337
vn -0.0996 0.9238 -0.3695
vn -0.4964 -0.8513 0.1698
vn 0.3864 -0.8763 0.2875
vn 0.9687 -0.1961 -0.1522
vn -0.8766 -0.1062 -0.4693
vn 0.4556 -0.8874 -0.0699
vn -0.4773 -0.8549 -0.2032
vn -0.5248 0.8148 0.2463
vn 0.5154 0.7616 0.3929
vn -0.9879 -0.0227 -0.1533
vn -0.9163 -0.0548 -0.3968
vn 0.9539 0.1544 0.2573
vn 0.9077 0.1779 0.3800
vn 0.2639 0.1735 0.9488
vn 0.9473 -0.0437 0.3174
vn 0.9815 -0.0651 0.1797
vn 0.4574 -0.7747 0.4365
vn -0.1054 -0.8766 0.4696
vn -0.9763 -0.0558 -0.2092
vn -0.9952 -0.0953 -0.0219
vn -0.9819 0.1865 0.0311
vn -0.4778 0.8719 -0.1072
vn -0.9813 0.1858 -0.0497
vn -0.5470 0.1904 0.8151
vn -0.3634 0.7798 0.5097
vn 0.1942 0.7693 0.6086
vn -0.2780 0.6817 -0.6767
vn -0.7966 0.6021 -0.0539
vn 0.5289 0.8473 0.0489
vn 0.7934 0.5784 0.1897
vn 0.4786 0.6717 -0.5654
vn -0.4845 0.5736 0.6604
vn 0.2648 0.5605 0.7846
vn -0.2919 -0.5159 -0.8053
vn -0.8278 -0.5445 -0.1349
vn 0.4957 -0.5297 -0.6882
vn -0.4945 -0.5994 0.6294
vn 0.2537 -0.6071 0.7530
vn 0.8156 -0.5696 0.1015
vn 0.5890 -0.8040 0.0813
vn 0.3846 -0.7714 -0.5069
vn -0.6146 -0.7819 -0.1040
vn -0.4121 -0.7642 0.4960
vn -0.2453 -0.7625 -0.5986
vn 0.2130 -0.7772 0.5920
vn 0.6192 0.0161 -0.7850
vn -0.3629 0.0289 -0.9314
vn -0.6137 -0.1281 0.7790
vn 0.3288 -0.1374 0.9343
vn 0.9828 -0.0840 0.1645
vn -0.9902 -0.0627 -0.1249
vn -0.9865 -0.0266 -0.1612
vn -0.7250 0.1501 0.6722
vn -0.3901 0.0212 -0.9205
vn 0.6543 -0.0106 -0.7561
vn 0.4908 0.0771 0.8678
vn 0.9843 -0.0994 0.1456
vn -0.5464 0.8002 0.2471
vn 0.5425 0.6865 0.4841
vn 0.9904 0.1148 0.0765
vn 0.6679 0.0840 -0.7395
vn -0.9106 0.2768 -0.3069
vn -0.3329 0.1610 -0.9291
vn -0.9095 0.2549 -0.3283
vn -0.5827 0.7030 0.4077
vn -0.3509 0.0143 -0.9363
vn 0.6857 -0.0856 -0.7228
vn 0.4711 0.5883 0.6572
vn 0.9955 0.0481 0.0815
vn -0.7282 -0.0739 0.6813
vn 0.3232 -0.1899 0.9271
vn 0.9217 -0.3617 0.1402
vn 0.5858 -0.5393 -0.6049
vn -0.9514 -0.1556 -0.2657
vn -0.3771 -0.4423 -0.8137
vn -0.6704 -0.7420 0.0007
vn -0.6051 -0.7147 0.3508
vn -0.3729 -0.8771 -0.3027
vn 0.2874 -0.9442 -0.1608
vn 0.2321 -0.8076 0.5421
vn 0.4411 -0.8625 0.2479
vn 0.1715 0.0388 -0.9844
vn 0.2777 0.0722 -0.9579
vn -0.4822 -0.3480 0.8039
vn -0.3410 -0.3594 0.8686
vn -0.1899 -0.4012 0.8961
vn -0.2228 -0.4528 0.8633
vn 0.1274 0.1142 -0.9852
vn 0.3593 0.0622 -0.9311
vn -0.4662 -0.0240 -0.8843
vn -0.5271 0.1667 -0.8332
vn -0.8465 -0.2949 0.4433
vn -0.9746 -0.0321 0.2214
vn -0.9548 -0.1521 -0.2553
vn -0.9588 0.1843 -0.2161
vn -0.6788 -0.2207 0.7004
vn -0.3025 -0.2269 0.9257
vn -0.3203 -0.1567 0.9343
vn -0.6316 -0.1662 0.7572
vn 0.0620 0.4453 -0.8932
vn 0.1018 0.7172 -0.6894
vn 0.3409 0.3806 -0.8596
vn 0.2333 0.7263 -0.6465
vn 0.2620 -0.0442 -0.9640
vn -0.0189 -0.0287 -0.9994
vn -0.8298 0.3579 -0.4282
vn -0.5643 0.5634 -0.6034
vn 0.5802 0.5531 0.5979
vn -0.5879 0.0718 -0.8057
vn -0.2848 0.3260 0.9014
vn -0.8849 0.2047 -0.4184
vn -0.6639 -0.2666 -0.6987
vn -0.7418 -0.4334 -0.5118
vn -0.9664 0.0651 -0.2488
vn -0.1156 -0.5406 -0.8332
vn -0.2089 -0.7108 -0.6716
vn 0.2251 -0.5256 -0.8204
vn 0.1459 -0.6927 -0.7063
vn -0.6396 0.7602 -0.1139
vn -0.6630 0.7196 0.2062
vn 0.0470 0.6503 -0.7581
vn -0.1248 0.9109 0.3933
vn -0.9740 0.0041 -0.2264
vn -0.9010 0.4288 0.0657
vn -0.7700 -0.4340 -0.4676
vn -0.2424 -0.7688 -0.5918
vn 0.0766 -0.7707 -0.6326
vn -0.9670 -0.0213 -0.2539
vn -0.8110 -0.3764 -0.4477
vn -0.3685 -0.7449 -0.5561
vn 0.0502 -0.8343 -0.5489
vn -0.4824 0.7252 -0.4912
vn 0.0778 0.6489 -0.7569
vn -0.7029 -0.1001 0.7042
vn -0.3502 0.0988 0.9314
vn -0.8978 0.1502 0.4140
vn -0.8899 0.4498 -0.0759
vn 0.2132 0.6030 -0.7687
vn -0.0146 0.4985 -0.8668
vn 0.2014 0.4368 -0.8767
vn -0.9414 0.1619 0.2958
vn -0.9095 0.3919 -0.1384
vn -0.3302 -0.2077 0.9207
vn -0.5545 0.5489 -0.6254
vn -0.5908 -0.5983 0.5413
vn -0.9218 0.3164 0.2241
vn -0.0219 0.6761 -0.7364
vn 0.1694 0.6375 -0.7516
vn -0.8025 0.5800 -0.1400
vn -0.4910 0.7233 -0.4855
vn -0.5961 0.4633 0.6557
vn -0.6509 0.6561 0.3819
vn -0.0495 0.8918 -0.4497
vn 0.1150 0.8786 -0.4635
vn -0.5433 0.8378 0.0542
vn -0.2836 0.9415 -0.1820
vn -0.1373 -0.7901 0.5974
vn -0.1575 0.4199 0.8938
vn -0.0025 0.9872 0.1597
vn 0.0396 -0.4483 0.8930
vn -0.0102 -0.8707 0.4917
vn -0.3986 0.3465 0.8491
vn -0.1152 -0.8995 0.4214
vn -0.6829 -0.2146 0.6982
vn -0.2282 -0.3648 0.9026
vn -0.2061 -0.2539 0.9450
vn 0.1738 0.0287 0.9843
vn 0.8584 0.2792 0.4304
vn 0.9216 -0.1610 0.3530
vn 0.3235 -0.7366 0.5939
vn -0.1174 0.9542 0.2750
vn 0.6850 0.7083 0.1705
vn 0.9627 -0.1730 0.2080
vn 0.6251 -0.5913 0.5094
vn 0.4949 -0.8149 -0.3015
vn 0.6598 -0.5571 -0.5042
vn -0.6016 -0.7181 -0.3499
vn -0.1429 -0.5036 -0.8520
vn -0.9344 0.2278 -0.2738
vn -0.9127 -0.3274 0.2443
vn -0.5361 0.2945 0.7911
vn -0.3208 0.5963 0.7358
vn 0.3577 0.0347 0.9332
vn 0.5987 0.3049 0.7407
vn 0.6380 0.2136 0.7398
vn 0.8278 -0.3798 0.4129
vn 0.7178 -0.5939 -0.3634
vn 0.9589 -0.2483 -0.1369
vn 0.7145 0.2129 -0.6664
vn 0.4378 0.1023 -0.8932
vn 0.2718 0.7662 -0.5822
vn 0.5327 0.7354 -0.4188
vn 0.3254 0.9293 0.1741
vn 0.2454 -0.9393 0.2398
vn -0.9745 -0.2203 -0.0417
vn -0.4874 0.3197 0.8126
vn -0.0942 -0.1173 0.9886
vn 0.7794 0.5973 0.1891
vn 0.9038 0.4199 0.0824
vn 0.9893 -0.0024 -0.1461
vn 0.8384 0.4626 -0.2882
vn 0.4587 0.5613 0.6889
vn 0.5556 0.5499 0.6236
vn 0.9921 0.1241 0.0186
vn 0.6615 -0.4268 -0.6166
vn -0.5789 -0.5363 -0.6142
vn -0.2096 -0.6584 -0.7229
vn 0.9619 0.1300 -0.2405
vn 0.4560 0.3994 0.7953
vn -0.6604 0.4138 0.6265
vn -0.9980 -0.0634 0.0028
vn -0.6753 -0.2315 -0.7003
vn -0.8311 0.3638 -0.4204
vn -0.7460 0.5764 0.3334
vn -0.4411 -0.7500 0.4928
vn -0.4126 -0.8927 -0.1812
vn -0.5151 -0.1180 0.8490
vn -0.8212 -0.2569 0.5095
vn -0.9500 0.2970 0.0962
vn -0.8248 -0.5421 -0.1609
vn -0.7164 -0.6432 0.2701
vn -0.9160 0.1530 -0.3710
vn -0.8754 -0.2702 -0.4007
vn -0.3905 -0.0679 -0.9181
vn -0.3944 -0.0221 -0.9186
vn -0.4919 0.3589 -0.7932
vn -0.1259 0.6011 -0.7891
vn -0.3320 0.7788 0.5321
vn -0.7914 0.0977 0.6034
vn -0.5459 -0.6368 -0.5445
vn -0.3255 0.1321 -0.9362
vn 0.0274 0.7931 -0.6084
vn 0.0589 0.9717 0.2286
vn -0.0245 -0.8045 0.5934
vn -0.1317 -0.8216 0.5547
vn -0.2591 -0.9552 -0.1432
vn -0.1941 -0.9573 -0.2143
vn 0.0285 -0.0627 0.9976
vn -0.1044 -0.1966 0.9749
vn 0.0931 0.8722 0.4801
vn -0.2706 -0.2288 0.9351
vn -0.6505 0.0332 0.7588
vn -0.9551 -0.2386 0.1754
vn -0.3606 -0.8009 0.4779
vn -0.4787 -0.8649 -0.1509
vn -0.8023 -0.5428 -0.2482
vn -0.4631 0.3320 -0.8217
vn -0.5388 0.7234 -0.4316
vn -0.2949 0.9268 0.2322
vn 0.5558 0.1355 -0.8202
vn 0.0228 0.4875 -0.8728
vn -0.0787 0.9878 0.1343
vn 0.3833 0.8634 0.3280
vn -0.7718 -0.2411 -0.5883
vn -0.9053 0.2978 0.3029
vn 0.1769 -0.9474 -0.2668
vn -0.0907 -0.0368 -0.9952
vn -0.1562 0.7415 -0.6525
vn 0.2849 -0.0098 -0.9585
vn -0.1733 -0.8660 -0.4691
vn 0.6968 0.1748 -0.6956
vn 0.5456 -0.5270 -0.6515
vn -0.0870 -0.1579 0.9836
vn -0.0802 -0.1775 0.9808
vn 0.7818 0.4633 0.4172
vn 0.3902 -0.0251 0.9204
vn -0.5248 0.7143 0.4630
vn -0.4864 0.6814 0.5469
vn 0.4682 0.7465 0.4726
vn 0.4516 0.7880 0.4184
vn 0.4638 -0.4404 -0.7687
vn 0.1139 0.2292 -0.9667
vn -0.2406 0.1870 -0.9524
vn -0.4660 -0.5394 -0.7013
vn 0.5720 -0.7874 -0.2299
vn 0.5820 -0.6075 -0.5405
vn -0.5197 -0.7234 -0.4545
vn -0.4316 -0.8903 -0.1452
vn 0.5859 -0.7592 -0.2834
vn -0.3961 -0.8910 -0.2217
vn -0.6211 0.6882 0.3749
vn 0.4409 0.8412 0.3130
vn 0.9924 0.0946 -0.0788
vn 0.9802 0.1141 -0.1620
vn -0.9959 -0.0429 0.0793
vn -0.4657 0.6388 0.6124
vn -0.9886 -0.0222 0.1491
vn -0.9857 -0.0635 0.1562
vn -0.9859 -0.1547 0.0636
vn -0.4556 -0.8010 0.3883
vn 0.9368 0.3278 0.1225
vn 0.9929 0.1156 -0.0274
vn 0.9986 0.0516 -0.0058
vn 0.9893 0.1202 -0.0828
vn 0.4223 0.4919 -0.7614
vn 0.4532 0.7064 0.5436
vn -0.3714 0.8724 -0.3176
vn 0.2266 0.9057 -0.3582
vn 0.7433 0.4159 -0.5239
vn 0.3462 -0.1657 -0.9234
vn -0.4104 -0.2187 -0.8853
vn -0.8468 0.2994 -0.4397
vn -0.5837 0.4133 -0.6989
vn 0.3135 0.9426 -0.1151
vn -0.4393 0.8958 -0.0667
vn 0.8462 -0.2873 0.4487
vn 0.4521 -0.8897 0.0623
vn -0.3086 -0.9455 0.1036
vn -0.3350 0.1888 0.9231
vn 0.4150 0.2322 0.8797
vn -0.7455 -0.4066 0.5281
vn -0.2080 -0.9022 0.3779
vn -0.4716 -0.5135 0.7168
vn 0.3349 -0.0304 0.9417
vn 0.6151 -0.4327 0.6590
vn 0.3724 -0.8585 0.3523
vn -0.2121 -0.0729 0.9745
vn 0.5185 -0.6872 -0.5089
vn -0.4698 -0.7620 -0.4456
vn -0.4926 0.6429 0.5864
vn 0.4738 0.7142 0.5152
vn -0.9866 -0.1020 0.1274
vn 0.9985 0.0536 -0.0015
vn 0.5792 0.7494 0.3208
vn 0.9991 0.0296 -0.0316
vn 0.5476 -0.6706 -0.5004
vn -0.5187 -0.7498 -0.4107
vn -0.5499 0.6923 0.4673
vn -0.9814 -0.1051 0.1608
vn -0.4914 0.8612 -0.1296
vn 0.6414 0.7468 -0.1755
vn -0.9902 0.0925 -0.1042
vn -0.5401 -0.5852 -0.6048
vn 0.9725 0.0522 -0.2269
vn 0.5119 -0.5737 -0.6393
vn 0.6452 0.7631 0.0375
vn 0.9832 -0.0625 -0.1716
vn 0.5139 -0.6288 -0.5835
vn -0.5554 -0.5640 -0.6110
vn -0.4425 0.8961 0.0322
vn -0.9737 0.1095 -0.1995
vn -0.4899 0.4797 0.7279
vn 0.5874 0.3444 0.7323
vn -0.9862 -0.1394 0.0886
vn -0.5604 -0.7888 -0.2525
vn 0.9301 -0.3392 0.1408
vn 0.4199 -0.8784 -0.2281
vn 0.3892 -0.3473 0.8531
vn 0.4983 -0.5940 0.6315
vn 0.2371 -0.8733 0.4255
vn -0.4264 -0.8048 0.4129
vn -0.4694 -0.2436 0.8487
vn -0.6415 -0.4700 0.6063
vn 0.3055 0.1195 -0.9447
vn 0.0370 -0.4198 0.9068
vn 0.0046 -0.4148 0.9098
vn 0.4511 0.1194 -0.8845
vn 0.7812 0.0586 -0.6215
vn 0.8927 0.1271 -0.4324
vn 0.6138 -0.3211 0.7212
vn 0.6778 -0.1693 0.7154
vn 0.9608 -0.1504 0.2329
vn 0.9535 0.0054 0.3014
vn 0.0092 -0.2576 0.9662
vn -0.0601 -0.0638 0.9961
vn 0.5404 0.4055 -0.7372
vn 0.3947 0.6597 -0.6395
vn 0.5115 -0.0143 -0.8592
vn 0.2489 0.9626 0.1067
vn 0.7438 0.6580 -0.1172
vn -0.4134 0.5698 0.7103
vn 0.8200 0.3243 -0.4715
vn 0.9242 0.3813 -0.0196
vn 0.9753 0.1869 0.1175
vn 0.9207 -0.1846 -0.3439
vn 0.9021 -0.0244 -0.4309
vn 0.4992 -0.5161 -0.6960
vn 0.5260 -0.3737 -0.7639
vn 0.4058 0.7998 0.4422
vn 0.4517 0.6100 0.6511
vn -0.1957 0.8894 0.4131
vn -0.2008 0.5703 0.7965
vn 0.7350 0.5109 0.4458
vn 0.9738 0.2093 0.0882
vn 0.9464 -0.1307 -0.2953
vn 0.4718 -0.6044 -0.6419
vn 0.9639 0.2657 -0.0147
vn 0.9512 -0.0094 -0.3084
vn 0.6023 -0.5011 -0.6214
vn 0.3657 0.5465 -0.7534
vn 0.7271 0.5791 -0.3687
vn 0.6274 0.1455 0.7650
vn -0.0980 0.1488 0.9840
vn 0.2764 -0.1397 0.9508
vn 0.8709 0.4320 0.2344
vn 0.3846 0.4603 -0.8001
vn 0.9173 0.3275 0.2264
vn 0.7633 0.1064 0.6372
vn -0.0793 -0.1916 0.9782
vn 0.7850 0.4947 -0.3727
vn 0.7913 0.2593 0.5537
vn 0.3004 -0.6208 0.7241
vn 0.3404 0.6550 -0.6746
vn 0.6767 0.6849 -0.2701
vn 0.8311 0.5279 0.1747
vn 0.5003 0.6192 0.6052
vn 0.3389 0.4316 0.8360
vn 0.2608 0.8820 -0.3923
vn 0.3815 0.9227 -0.0556
vn 0.5307 0.8067 0.2599
vn -0.2295 -0.8657 0.4447
vn -0.4262 -0.4064 0.8081
vn 0.0472 0.3310 0.9424
vn 0.3309 -0.2694 0.9044
vn -0.0416 0.2232 -0.9739
vn 0.2306 0.3196 -0.9190
vn 0.2691 -0.0546 -0.9615
vn -0.0162 -0.0363 -0.9992
vn -0.6446 0.4579 0.6121
vn -0.8880 0.3524 -0.2954
vn -0.8298 0.3568 -0.4290
vn -0.5522 0.6056 -0.5729
vn -0.0544 0.3486 0.9357
vn 0.5497 0.5810 0.6001
vn -0.5105 0.2012 -0.8360
vn -0.5898 0.0666 -0.8048
vn 0.2701 0.4591 0.8463
vn -0.2968 0.3357 0.8940
vn -0.8840 0.2065 -0.4193
vn -0.6648 -0.2690 -0.6969
vn -0.7421 -0.4358 -0.5093
vn -0.9663 0.0652 -0.2490
vn -0.1126 -0.5452 -0.8307
vn -0.2070 -0.7147 -0.6681
vn 0.2255 -0.5282 -0.8186
vn 0.1357 -0.6914 -0.7096
vn -0.6317 0.7649 -0.1257
vn -0.6623 0.7216 0.2015
vn 0.0373 0.7006 -0.7126
vn -0.1244 0.9141 0.3858
vn -0.9741 0.0044 -0.2261
vn -0.9005 0.4301 0.0640
vn -0.7708 -0.4353 -0.4651
vn -0.2417 -0.7718 -0.5882
vn 0.0620 -0.7819 -0.6203
vn -0.9669 -0.0210 -0.2544
vn -0.8112 -0.3764 -0.4474
vn -0.3676 -0.7465 -0.5546
vn 0.0388 -0.8504 -0.5246
vn 0.3975 0.2849 -0.8722
vn 0.5083 -0.0347 -0.8605
vn -0.0506 0.8054 0.5906
vn 0.2599 0.9583 0.1184
vn 0.7568 0.6462 -0.0985
vn 0.5919 0.8025 -0.0753
vn -0.4573 0.3696 0.8088
vn -0.4376 0.5633 0.7009
vn 0.8226 0.2975 -0.4846
vn 0.6630 0.4498 -0.5984
vn 0.9228 0.3852 0.0042
vn 0.9675 0.2254 0.1142
vn 0.9221 -0.1598 -0.3524
vn 0.9023 -0.0172 -0.4307
vn 0.4802 -0.5149 -0.7101
vn 0.5108 -0.3727 -0.7747
vn 0.4021 0.7974 0.4500
vn 0.4450 0.6219 0.6443
vn -0.1905 0.9020 0.3874
vn -0.2011 0.5676 0.7984
vn 0.7114 0.5325 0.4586
vn 0.9676 0.2251 0.1140
vn 0.9500 -0.1533 -0.2720
vn 0.4575 -0.6404 -0.6169
vn 0.9732 0.2219 0.0596
vn 0.9658 -0.0802 -0.2467
vn 0.5936 -0.5740 -0.5640
usemtl Material
s 1
f 81/1/1 82/2/2 28/3/3 29/4/4
f 86/5/5 81/1/1 29/4/4 24/6/6
f 89/7/7 87/8/8 10/9/9 11/10/10
f 91/11/11 90/12/12 8/13/13 9/14/14
f 88/15/15 92/16/16 80/17/17 7/18/18
f 87/8/8 91/11/11 9/14/14 10/9/9
f 29/4/4 28/3/3 40/19/19 41/20/20
f 28/3/3 27/21/21 37/22/22 40/19/19
f 26/23/23 25/24/24 38/25/25 39/26/26
f 24/6/6 29/4/4 41/20/20 30/27/27
f 17/28/28 13/29/29 20/30/30 22/31/31
f 14/32/32 15/33/33 18/34/34 21/35/35
f 19/36/36 21/35/35 4/37/37 2/38/38
f 18/34/34 23/39/39 1/40/40 5/41/41
f 15/33/33 16/42/42 23/39/39 18/34/34
f 13/29/29 12/43/43 19/36/36 20/30/30
f 12/43/43 14/32/32 21/35/35 19/36/36
f 16/42/42 17/44/28 22/45/31 23/39/39
f 20/30/30 19/36/36 2/38/38 3/46/44
f 22/31/31 20/30/30 3/46/44 6/47/45
f 23/39/39 22/45/31 6/48/45 1/40/40
f 21/35/35 18/34/34 5/41/41 4/37/37
f 27/21/21 26/23/23 39/26/26 37/22/22
f 25/24/24 24/49/6 30/50/27 38/25/25
f 90/12/12 88/51/15 7/52/18 8/13/13
f 92/16/16 89/7/7 11/10/10 80/17/17
f 39/26/26 38/25/25 46/53/46 47/54/47
f 38/25/25 30/50/27 43/55/48 46/53/46
f 40/19/19 37/22/22 45/56/49 44/57/50
f 37/22/22 39/26/26 47/54/47 45/56/49
f 41/20/20 40/19/19 44/57/50 42/58/51
f 30/27/27 41/20/20 42/58/51 43/59/48
f 32/60/52 31/61/53 43/59/48 42/58/51
f 34/62/54 33/63/55 44/57/50 45/56/49
f 33/63/55 32/60/52 42/58/51 44/57/50
f 35/64/56 36/65/57 47/54/47 46/53/46
f 36/65/57 34/62/54 45/56/49 47/54/47
f 31/66/53 35/64/56 46/53/46 43/55/48
f 68/67/58 67/68/59 52/69/60 53/70/61
f 48/71/62 52/72/60 74/73/63 73/74/64
f 53/70/61 52/69/60 58/75/65 59/76/66
f 52/69/60 48/77/62 55/78/67 58/75/65
f 70/79/68 69/80/69 51/81/70 50/82/71
f 69/80/69 68/67/58 53/70/61 51/81/70
f 71/83/72 70/79/68 50/82/71 49/84/73
f 66/85/74 71/86/72 49/87/73 48/77/62
f 54/88/75 56/89/76 62/90/77 60/91/78
f 57/92/79 59/76/66 65/93/80 63/94/81
f 50/82/71 51/81/70 57/92/79 56/89/76
f 51/81/70 53/70/61 59/76/66 57/92/79
f 49/84/73 50/82/71 56/89/76 54/88/75
f 48/77/62 49/87/73 54/95/75 55/78/67
f 63/94/81 65/93/80 64/96/82 62/90/77
f 61/97/83 60/91/78 62/90/77 64/96/82
f 55/78/67 54/95/75 60/98/78 61/99/83
f 58/75/65 55/78/67 61/99/83 64/100/82
f 59/76/66 58/75/65 64/100/82 65/93/80
f 56/89/76 57/92/79 63/94/81 62/90/77
f 31/101/53 32/102/52 71/86/72 66/85/74
f 32/103/52 33/104/55 70/79/68 71/83/72
f 34/105/54 36/106/57 68/67/58 69/80/69
f 33/104/55 34/105/54 69/80/69 70/79/68
f 35/107/56 31/101/53 66/85/74 67/68/59
f 36/106/57 35/107/56 67/68/59 68/67/58
f 75/108/84 72/109/85 76/110/86 79/111/87
f 66/112/74 48/71/62 73/74/64 72/113/85
f 52/72/60 67/114/59 75/108/84 74/73/63
f 67/114/59 66/115/74 72/109/85 75/108/84
f 79/111/87 76/110/86 77/116/88 78/117/89
f 73/74/64 74/73/63 78/117/89 77/118/88
f 74/73/63 75/108/84 79/111/87 78/117/89
f 72/113/85 73/74/64 77/118/88 76/119/86
f 83/120/90 84/121/91 26/23/23 27/21/21
f 82/2/2 83/120/90 27/21/21 28/3/3
f 85/122/92 86/123/5 24/49/6 25/24/24
f 84/121/91 85/122/92 25/24/24 26/23/23
f 9/14/14 8/13/13 85/122/92 84/121/91
f 8/13/13 7/52/18 86/123/5 85/122/92
f 11/10/10 10/9/9 83/120/90 82/2/2
f 10/9/9 9/14/14 84/121/91 83/120/90
f 7/18/18 80/17/17 81/1/1 86/5/5
f 80/17/17 11/10/10 82/2/2 81/1/1
f 2/124/38 4/125/37 89/7/7 92/16/16
f 6/126/45 3/127/44 88/51/15 90/12/12
f 5/128/41 1/129/40 91/11/11 87/8/8
f 3/130/44 2/124/38 92/16/16 88/15/15
f 1/129/40 6/126/45 90/12/12 91/11/11
f 4/125/37 5/128/41 87/8/8 89/7/7
f 96/131/93 344/132/94 350/133/95 100/134/96
f 94/135/97 96/131/93 100/134/96 98/136/98
f 343/137/99 95/138/100 99/139/101 349/140/102
f 95/138/100 93/141/103 97/142/104 99/139/101
f 245/143/105 243/144/106 101/145/107 103/146/108
f 238/147/109 237/148/110 108/149/111 106/150/112
f 246/151/113 244/152/114 104/153/115 102/154/116
f 98/136/98 100/134/96 111/155/117 112/156/118
f 99/139/101 97/142/104 109/157/119 110/158/120
f 113/159/121 109/157/119 97/142/104 120/160/122
f 241/161/123 118/162/124 103/146/108 240/163/125
f 247/164/126 245/143/105 103/146/108 118/162/124
f 119/165/127 111/155/117 100/134/96 121/166/128
f 365/167/129 121/166/128 100/134/96 350/133/95
f 117/168/130 120/160/122 97/142/104 93/141/103
f 94/135/97 98/136/98 120/169/122 117/170/130
f 349/140/102 99/139/101 121/166/128 365/167/129
f 110/158/120 119/165/127 121/166/128 99/139/101
f 244/152/114 247/164/126 118/162/124 104/153/115
f 237/148/110 104/153/115 118/162/124 241/161/123
f 112/156/118 113/171/121 120/169/122 98/136/98
f 243/144/106 248/172/131 115/173/132 101/145/107
f 238/147/109 106/150/112 116/174/133 242/175/134
f 239/176/135 105/177/136 107/178/137 240/163/125
f 242/179/134 116/180/133 105/177/136 239/176/135
f 248/181/131 246/151/113 102/154/116 115/182/132
f 116/183/133 106/184/112 123/185/138 127/186/139
f 108/187/111 114/188/140 126/189/141 125/190/142
f 106/191/112 108/192/111 125/193/142 123/194/138
f 105/195/136 116/196/133 127/197/139 122/198/143
f 107/199/137 105/200/136 122/201/143 124/202/144
f 114/203/140 107/204/137 124/205/144 126/206/141
f 127/186/139 123/185/138 129/207/145 133/208/146
f 123/194/138 125/193/142 131/209/147 129/210/145
f 124/202/144 122/201/143 128/211/148 130/212/149
f 126/206/141 124/205/144 130/213/149 132/214/150
f 125/190/142 126/189/141 132/215/150 131/216/147
f 122/198/143 127/197/139 133/217/146 128/218/148
f 131/216/147 132/215/150 138/219/151 137/220/152
f 128/218/148 133/217/146 139/221/153 134/222/154
f 133/208/146 129/207/145 135/223/155 139/224/153
f 129/210/145 131/209/147 137/225/152 135/226/155
f 130/212/149 128/211/148 134/227/154 136/228/156
f 132/214/150 130/213/149 136/229/156 138/230/151
f 135/226/155 137/225/152 143/231/157 141/232/158
f 136/228/156 134/227/154 140/233/159 142/234/160
f 138/230/151 136/229/156 142/235/160 144/236/161
f 137/220/152 138/219/151 144/237/161 143/238/157
f 134/222/154 139/221/153 145/239/162 140/240/159
f 139/224/153 135/223/155 141/241/158 145/242/162
f 140/240/159 145/239/162 151/243/163 146/244/164
f 145/242/162 141/241/158 147/245/165 151/246/163
f 141/232/158 143/231/157 149/247/166 147/248/165
f 142/234/160 140/233/159 146/249/164 148/250/167
f 144/236/161 142/235/160 148/251/167 150/252/168
f 143/238/157 144/237/161 150/253/168 149/254/166
f 148/250/167 146/249/164 152/255/169 154/256/170
f 150/252/168 148/251/167 154/257/170 156/258/171
f 149/254/166 150/253/168 156/259/171 155/260/172
f 146/244/164 151/243/163 157/261/173 152/262/169
f 151/246/163 147/245/165 153/263/174 157/264/173
f 147/248/165 149/247/166 155/265/172 153/266/174
f 152/262/169 157/261/173 163/267/175 158/268/176
f 157/264/173 153/263/174 159/269/177 163/270/175
f 153/266/174 155/265/172 161/271/178 159/272/177
f 154/256/170 152/255/169 158/273/176 160/274/179
f 156/258/171 154/257/170 160/275/179 162/276/180
f 155/260/172 156/259/171 162/277/180 161/278/178
f 160/274/179 158/273/176 164/279/181 166/280/182
f 162/276/180 160/275/179 166/281/182 168/282/183
f 161/278/178 162/277/180 168/283/183 167/284/184
f 158/268/176 163/267/175 169/285/185 164/286/181
f 163/270/175 159/269/177 165/287/186 169/288/185
f 159/272/177 161/271/178 167/289/184 165/290/186
f 164/286/181 169/285/185 175/291/187 170/292/188
f 169/288/185 165/287/186 171/293/189 175/291/187
f 165/290/186 167/289/184 173/294/190 171/293/189
f 166/280/182 164/279/181 170/292/188 172/295/191
f 168/282/183 166/281/182 172/295/191 174/296/192
f 167/284/184 168/283/183 174/296/192 173/294/190
f 96/297/93 180/298/193 440/299/194 344/300/94
f 181/301/195 183/302/196 439/303/197 435/304/198
f 183/302/196 95/305/100 343/306/99 439/303/197
f 180/298/193 182/307/199 437/308/200 440/299/194
f 178/309/201 179/310/202 182/307/199 180/298/193
f 176/311/203 93/312/103 95/305/100 183/302/196
f 177/313/204 176/311/203 183/302/196 181/301/195
f 94/314/97 178/309/201 180/298/193 96/297/93
f 184/315/205 178/309/201 94/314/97 117/316/130
f 185/317/206 179/310/202 178/309/201 184/315/205
f 177/313/204 185/317/206 184/315/205 176/311/203
f 176/311/203 184/315/205 117/316/130 93/312/103
f 189/318/207 447/319/208 444/320/209 186/321/210
f 188/322/211 16/42/42 15/33/33 187/323/212
f 182/324/199 179/325/202 16/42/42 188/322/211
f 181/326/195 435/327/198 447/319/208 189/318/207
f 177/328/204 181/326/195 189/318/207 13/29/29
f 437/329/200 182/324/199 188/322/211 448/330/213
f 448/330/213 188/322/211 187/323/212 446/331/214
f 13/29/29 189/318/207 186/321/210 12/43/43
f 185/332/206 17/44/28 16/42/42 179/325/202
f 177/328/204 13/29/29 17/28/28 185/333/206
f 96/334/93 344/335/94 454/336/215 193/337/216
f 93/338/103 117/339/130 194/340/217 190/341/218
f 95/342/100 93/338/103 190/341/218 192/343/219
f 117/339/130 94/344/97 191/345/220 194/340/217
f 343/346/99 95/342/100 192/343/219 453/347/221
f 94/344/97 96/334/93 193/337/216 191/345/220
f 208/348/222 207/349/223 196/350/224 199/351/225
f 207/349/223 209/352/226 198/353/227 196/350/224
f 209/352/226 476/354/228 460/355/229 198/353/227
f 210/356/230 208/348/222 199/351/225 195/357/231
f 211/358/232 210/356/230 195/357/231 197/359/233
f 195/357/231 199/351/225 203/360/234 200/361/235
f 197/359/233 195/357/231 200/361/235
f 199/351/225 196/350/224 201/362/236 203/360/234
f 196/350/224 198/353/227 202/363/237 201/362/236
f 198/353/227 460/355/229 466/364/238 202/363/237
f 200/361/235 203/360/234 206/365/239
f 203/360/234 201/362/236 204/366/240 206/365/239
f 201/362/236 202/363/237 205/367/241 204/366/240
f 202/363/237 466/364/238 470/368/242 205/367/241
f 192/343/219 190/341/218 210/356/230 211/358/232
f 190/341/218 194/340/217 208/348/222 210/356/230
f 193/337/216 454/336/215 476/354/228 209/352/226
f 191/345/220 193/337/216 209/352/226 207/349/223
f 194/340/217 191/345/220 207/349/223 208/348/222
f 174/296/192 172/295/191 170/292/188 175/291/187
f 171/293/189 173/294/190 174/296/192 175/291/187
f 187/369/212 15/370/33 213/371/243 216/372/244
f 12/373/43 186/374/210 215/375/245 217/376/246 214/377/247
f 14/378/32 12/373/43 214/377/247 212/379/248
f 446/380/214 187/369/212 216/372/244 484/381/249
f 444/382/209 215/375/245 186/374/210
f 15/370/33 14/378/32 212/379/248 213/371/243
f 484/383/249 216/384/244 221/385/250 490/386/251
f 212/387/248 214/388/247 220/389/252 218/390/253
f 214/388/247 217/391/246 222/392/254 220/389/252
f 213/393/243 212/387/248 218/390/253 219/394/255
f 216/384/244 213/393/243 219/394/255 221/385/250
f 220/389/252 222/392/254 227/395/256 225/396/257
f 490/386/251 221/385/250 226/397/258 496/398/259
f 219/394/255 218/390/253 223/399/260 224/400/261
f 221/385/250 219/394/255 224/400/261 226/397/258
f 218/390/253 220/389/252 225/396/257 223/399/260
f 225/396/257 227/395/256 232/401/262 230/402/263
f 496/398/259 226/397/258 231/403/264 502/404/265
f 224/400/261 223/399/260 228/405/266 229/406/267
f 226/397/258 224/400/261 229/406/267 231/403/264
f 223/399/260 225/396/257 230/402/263 228/405/266
f 232/401/262 227/395/256 504/407/268 505/408/269
f 228/405/266 230/402/263 506/409/270 229/406/267
f 506/409/270 230/402/263 232/401/262 505/408/269
f 229/406/267 506/409/270 502/404/265 231/403/264
f 227/395/256 222/392/254 234/410/271 235/411/272
f 222/392/254 217/391/246 233/412/273 234/410/271
f 504/407/268 227/395/256 235/411/272 510/413/274
f 215/414/245 233/412/273 217/391/246
f 233/415/273 236/416/275 234/417/271
f 234/417/271 236/416/275 235/418/272
f 235/418/272 236/416/275 510/419/274
f 115/173/132 242/179/134 239/176/135 101/145/107
f 101/145/107 239/176/135 240/163/125 103/146/108
f 102/154/116 238/147/109 242/175/134 115/182/132
f 108/149/111 237/148/110 241/161/123 114/420/140
f 114/420/140 241/161/123 240/163/125 107/178/137
f 102/154/116 104/153/115 237/148/110 238/147/109
f 113/171/121 112/156/118 246/151/113 248/181/131
f 109/157/119 113/159/121 248/172/131 243/144/106
f 111/155/117 119/165/127 247/164/126 244/152/114
f 119/165/127 110/158/120 245/143/105 247/164/126
f 112/156/118 111/155/117 244/152/114 246/151/113
f 110/158/120 109/157/119 243/144/106 245/143/105
f 444/421/209 525/422/276 215/423/245
f 236/416/275 524/424/277 510/419/274
f 236/416/275 525/422/276 524/424/277
f 525/422/276 236/416/275 215/423/245
f 233/415/273 215/423/245 236/416/275
f 329/425/278 277/426/279 276/427/280 330/428/281
f 334/429/282 272/430/283 277/426/279 329/425/278
f 337/431/284 259/432/285 258/433/286 335/434/287
f 339/435/288 257/436/289 256/437/290 338/438/291
f 336/439/292 255/440/293 328/441/294 340/442/295
f 335/434/287 258/433/286 257/436/289 339/435/288
f 277/426/279 289/443/296 288/444/297 276/427/280
f 276/427/280 288/444/297 285/445/298 275/446/299
f 274/447/300 287/448/301 286/449/302 273/450/303
f 272/430/283 278/451/304 289/443/296 277/426/279
f 265/452/305 270/453/306 268/454/307 261/455/308
f 262/456/309 269/457/310 266/458/311 263/459/312
f 267/460/313 250/461/314 252/462/315 269/457/310
f 266/458/311 253/463/316 249/464/317 271/465/318
f 263/459/312 266/458/311 271/465/318 264/466/319
f 261/455/308 268/454/307 267/460/313 260/467/320
f 260/467/320 267/460/313 269/457/310 262/456/309
f 264/466/319 271/465/318 270/468/306 265/469/305
f 268/454/307 251/470/321 250/461/314 267/460/313
f 270/453/306 254/471/322 251/470/321 268/454/307
f 271/465/318 249/464/317 254/472/322 270/468/306
f 269/457/310 252/462/315 253/463/316 266/458/311
f 275/446/299 285/445/298 287/448/301 274/447/300
f 273/450/303 286/449/302 278/473/304 272/474/283
f 338/438/291 256/437/290 255/475/293 336/476/292
f 340/442/295 328/441/294 259/432/285 337/431/284
f 287/448/301 295/477/323 294/478/324 286/449/302
f 286/449/302 294/478/324 291/479/325 278/473/304
f 288/444/297 292/480/326 293/481/327 285/445/298
f 285/445/298 293/481/327 295/477/323 287/448/301
f 289/443/296 290/482/328 292/480/326 288/444/297
f 278/451/304 291/483/325 290/482/328 289/443/296
f 280/484/329 290/482/328 291/483/325 279/485/330
f 282/486/331 293/481/327 292/480/326 281/487/332
f 281/487/332 292/480/326 290/482/328 280/484/329
f 283/488/333 294/478/324 295/477/323 284/489/334
f 284/489/334 295/477/323 293/481/327 282/486/331
f 279/490/330 291/479/325 294/478/324 283/488/333
f 316/491/335 301/492/336 300/493/337 315/494/338
f 296/495/339 321/496/340 322/497/341 300/498/337
f 301/492/336 307/499/342 306/500/343 300/493/337
f 300/493/337 306/500/343 303/501/344 296/502/339
f 318/503/345 298/504/346 299/505/347 317/506/348
f 317/506/348 299/505/347 301/492/336 316/491/335
f 319/507/349 297/508/350 298/504/346 318/503/345
f 314/509/351 296/502/339 297/510/350 319/511/349
f 302/512/352 308/513/353 310/514/354 304/515/355
f 305/516/356 311/517/357 313/518/358 307/499/342
f 298/504/346 304/515/355 305/516/356 299/505/347
f 299/505/347 305/516/356 307/499/342 301/492/336
f 297/508/350 302/512/352 304/515/355 298/504/346
f 296/502/339 303/501/344 302/519/352 297/510/350
f 311/517/357 310/514/354 312/520/359 313/518/358
f 309/521/360 312/520/359 310/514/354 308/513/353
f 303/501/344 309/522/360 308/523/353 302/519/352
f 306/500/343 312/524/359 309/522/360 303/501/344
f 307/499/342 313/518/358 312/524/359 306/500/343
f 304/515/355 310/514/354 311/517/357 305/516/356
f 279/525/330 314/509/351 319/511/349 280/526/329
f 280/527/329 319/507/349 318/503/345 281/528/332
f 282/529/331 317/506/348 316/491/335 284/530/334
f 281/528/332 318/503/345 317/506/348 282/529/331
f 283/531/333 315/494/338 314/509/351 279/525/330
f 284/530/334 316/491/335 315/494/338 283/531/333
f 323/532/361 327/533/362 324/534/363 320/535/364
f 314/536/351 320/537/364 321/496/340 296/495/339
f 300/498/337 322/497/341 323/532/361 315/538/338
f 315/538/338 323/532/361 320/535/364 314/539/351
f 327/533/362 326/540/365 325/541/366 324/534/363
f 321/496/340 325/542/366 326/540/365 322/497/341
f 322/497/341 326/540/365 327/533/362 323/532/361
f 320/537/364 324/543/363 325/542/366 321/496/340
f 331/544/367 275/446/299 274/447/300 332/545/368
f 330/428/281 276/427/280 275/446/299 331/544/367
f 333/546/369 273/450/303 272/474/283 334/547/282
f 332/545/368 274/447/300 273/450/303 333/546/369
f 257/436/289 332/545/368 333/546/369 256/437/290
f 256/437/290 333/546/369 334/547/282 255/475/293
f 259/432/285 330/428/281 331/544/367 258/433/286
f 258/433/286 331/544/367 332/545/368 257/436/289
f 255/440/293 334/429/282 329/425/278 328/441/294
f 328/441/294 329/425/278 330/428/281 259/432/285
f 250/548/314 340/442/295 337/431/284 252/549/315
f 254/550/322 338/438/291 336/476/292 251/551/321
f 253/552/316 335/434/287 339/435/288 249/553/317
f 251/554/321 336/439/292 340/442/295 250/548/314
f 249/553/317 339/435/288 338/438/291 254/550/322
f 252/549/315 337/431/284 335/434/287 253/552/316
f 346/555/370 352/556/371 350/133/95 344/132/94
f 342/557/372 348/558/373 352/556/371 346/555/370
f 343/137/99 349/140/102 351/559/374 345/560/375
f 345/560/375 351/559/374 347/561/376 341/562/377
f 520/563/378 355/564/379 353/565/380 518/566/381
f 513/567/382 358/568/383 360/569/384 512/570/385
f 521/571/386 354/572/387 356/573/388 519/574/389
f 348/558/373 364/575/390 363/576/391 352/556/371
f 351/559/374 362/577/392 361/578/393 347/561/376
f 366/579/394 373/580/395 347/561/376 361/578/393
f 516/581/396 515/582/397 355/564/379 371/583/398
f 522/584/399 371/583/398 355/564/379 520/563/378
f 372/585/400 374/586/401 352/556/371 363/576/391
f 365/167/129 350/133/95 352/556/371 374/586/401
f 370/587/402 341/562/377 347/561/376 373/580/395
f 342/557/372 370/588/402 373/589/395 348/558/373
f 349/140/102 365/167/129 374/586/401 351/559/374
f 362/577/392 351/559/374 374/586/401 372/585/400
f 519/574/389 356/573/388 371/583/398 522/584/399
f 512/570/385 516/581/396 371/583/398 356/573/388
f 364/575/390 348/558/373 373/589/395 366/590/394
f 518/566/381 353/565/380 368/591/403 523/592/404
f 513/567/382 517/593/405 369/594/406 358/568/383
f 514/595/407 515/582/397 359/596/408 357/597/409
f 517/598/405 514/595/407 357/597/409 369/599/406
f 523/600/404 368/601/403 354/572/387 521/571/386
f 369/602/406 380/603/410 376/604/411 358/605/383
f 360/606/384 378/607/412 379/608/413 367/609/414
f 358/610/383 376/611/411 378/612/412 360/613/384
f 357/614/409 375/615/415 380/616/410 369/617/406
f 359/618/408 377/619/416 375/620/415 357/621/409
f 367/622/414 379/623/413 377/624/416 359/625/408
f 380/603/410 386/626/417 382/627/418 376/604/411
f 376/611/411 382/628/418 384/629/419 378/612/412
f 377/619/416 383/630/420 381/631/421 375/620/415
f 379/623/413 385/632/422 383/633/420 377/624/416
f 378/607/412 384/634/419 385/635/422 379/608/413
f 375/615/415 381/636/421 386/637/417 380/616/410
f 384/634/419 390/638/423 391/639/424 385/635/422
f 381/636/421 387/640/425 392/641/426 386/637/417
f 386/626/417 392/642/426 388/643/427 382/627/418
f 382/628/418 388/644/427 390/645/423 384/629/419
f 383/630/420 389/646/428 387/647/425 381/631/421
f 385/632/422 391/648/424 389/649/428 383/633/420
f 388/644/427 394/650/429 396/651/430 390/645/423
f 389/646/428 395/652/431 393/653/432 387/647/425
f 391/648/424 397/654/433 395/655/431 389/649/428
f 390/638/423 396/656/430 397/657/433 391/639/424
f 387/640/425 393/658/432 398/659/434 392/641/426
f 392/642/426 398/660/434 394/661/429 388/643/427
f 393/658/432 399/662/435 404/663/436 398/659/434
f 398/660/434 404/664/436 400/665/437 394/661/429
f 394/650/429 400/666/437 402/667/438 396/651/430
f 395/652/431 401/668/439 399/669/435 393/653/432
f 397/654/433 403/670/440 401/671/439 395/655/431
f 396/656/430 402/672/438 403/673/440 397/657/433
f 401/668/439 407/674/441 405/675/442 399/669/435
f 403/670/440 409/676/443 407/677/441 401/671/439
f 402/672/438 408/678/444 409/679/443 403/673/440
f 399/662/435 405/680/442 410/681/445 404/663/436
f 404/664/436 410/682/445 406/683/446 400/665/437
f 400/666/437 406/684/446 408/685/444 402/667/438
f 405/680/442 411/686/447 416/687/448 410/681/445
f 410/682/445 416/688/448 412/689/449 406/683/446
f 406/684/446 412/690/449 414/691/450 408/685/444
f 407/674/441 413/692/451 411/693/447 405/675/442
f 409/676/443 415/694/452 413/695/451 407/677/441
f 408/678/444 414/696/450 415/697/452 409/679/443
f 413/692/451 419/698/453 417/699/454 411/693/447
f 415/694/452 421/700/455 419/701/453 413/695/451
f 414/696/450 420/702/456 421/703/455 415/697/452
f 411/686/447 417/704/454 422/705/457 416/687/448
f 416/688/448 422/706/457 418/707/458 412/689/449
f 412/690/449 418/708/458 420/709/456 414/691/450
f 417/704/454 423/710/459 428/711/460 422/705/457
f 422/706/457 428/711/460 424/712/461 418/707/458
f 418/708/458 424/712/461 426/713/462 420/709/456
f 419/698/453 425/714/463 423/710/459 417/699/454
f 421/700/455 427/715/464 425/714/463 419/701/453
f 420/702/456 426/713/462 427/715/464 421/703/455
f 346/716/370 344/717/94 440/718/194 433/719/465
f 434/720/466 435/304/198 439/303/197 438/721/467
f 438/721/467 439/303/197 343/306/99 345/722/375
f 433/719/465 440/718/194 437/723/200 436/724/468
f 431/725/469 433/719/465 436/724/468 432/726/470
f 429/727/471 438/721/467 345/722/375 341/728/377
f 430/729/472 434/720/466 438/721/467 429/727/471
f 342/730/372 346/716/370 433/719/465 431/725/469
f 441/731/473 370/732/402 342/730/372 431/725/469
f 442/733/474 441/731/473 431/725/469 432/726/470
f 430/729/472 429/727/471 441/731/473 442/733/474
f 429/727/471 341/728/377 370/732/402 441/731/473
f 450/734/475 443/735/476 444/320/209 447/319/208
f 449/736/477 445/737/478 263/459/312 264/466/319
f 436/738/468 449/736/477 264/466/319 432/739/470
f 434/740/466 450/734/475 447/319/208 435/327/198
f 430/741/472 261/455/308 450/734/475 434/740/466
f 437/742/200 448/743/213 449/736/477 436/738/468
f 448/743/213 446/744/214 445/737/478 449/736/477
f 261/455/308 260/467/320 443/735/476 450/734/475
f 442/745/474 432/739/470 264/466/319 265/469/305
f 430/741/472 442/746/474 265/452/305 261/455/308
f 346/747/370 456/748/479 454/749/215 344/750/94
f 341/751/377 451/752/480 457/753/481 370/754/402
f 345/755/375 455/756/482 451/752/480 341/751/377
f 370/754/402 457/753/481 452/757/483 342/758/372
f 343/346/99 453/347/221 455/756/482 345/755/375
f 342/758/372 452/757/483 456/748/479 346/747/370
f 474/759/484 463/760/485 459/761/486 473/762/487
f 473/762/487 459/761/486 462/763/488 475/764/489
f 475/764/489 462/763/488 460/765/229 476/766/228
f 477/767/490 458/768/491 463/760/485 474/759/484
f 478/769/492 461/770/493 458/768/491 477/767/490
f 458/768/491 464/771/494 468/772/495 463/760/485
f 461/770/493 464/771/494 458/768/491
f 463/760/485 468/772/495 465/773/496 459/761/486
f 459/761/486 465/773/496 467/774/497 462/763/488
f 462/763/488 467/774/497 466/775/238 460/765/229
f 464/771/494 472/776/498 468/772/495
f 468/772/495 472/776/498 469/777/499 465/773/496
f 465/773/496 469/777/499 471/778/500 467/774/497
f 467/774/497 471/778/500 470/779/242 466/775/238
f 455/756/482 478/769/492 477/767/490 451/752/480
f 451/752/480 477/767/490 474/759/484 457/753/481
f 456/748/479 475/764/489 476/766/228 454/749/215
f 452/757/483 473/762/487 475/764/489 456/748/479
f 457/753/481 474/759/484 473/762/487 452/757/483
f 427/715/464 428/711/460 423/710/459 425/714/463
f 424/712/461 428/711/460 427/715/464 426/713/462
f 445/780/478 483/781/501 480/782/502 263/783/312
f 260/784/320 481/785/503 485/786/504 482/787/505 443/788/476
f 262/789/309 479/790/506 481/785/503 260/784/320
f 446/791/214 484/792/249 483/781/501 445/780/478
f 444/793/209 443/788/476 482/787/505
f 263/783/312 480/782/502 479/790/506 262/789/309
f 484/794/249 490/795/251 489/796/507 483/797/501
f 479/798/506 486/799/508 488/800/509 481/801/503
f 481/801/503 488/800/509 491/802/510 485/803/504
f 480/804/502 487/805/511 486/799/508 479/798/506
f 483/797/501 489/796/507 487/805/511 480/804/502
f 488/800/509 494/806/512 497/807/513 491/802/510
f 490/795/251 496/808/259 495/809/514 489/796/507
f 487/805/511 493/810/515 492/811/516 486/799/508
f 489/796/507 495/809/514 493/810/515 487/805/511
f 486/799/508 492/811/516 494/806/512 488/800/509
f 494/806/512 500/812/517 503/813/518 497/807/513
f 496/808/259 502/814/265 501/815/519 495/809/514
f 493/810/515 499/816/520 498/817/521 492/811/516
f 495/809/514 501/815/519 499/816/520 493/810/515
f 492/811/516 498/817/521 500/812/517 494/806/512
f 503/813/518 505/408/269 504/407/268 497/807/513
f 498/817/521 499/816/520 506/409/270 500/812/517
f 506/409/270 505/408/269 503/813/518 500/812/517
f 499/816/520 501/815/519 502/814/265 506/409/270
f 497/807/513 509/818/522 508/819/523 491/802/510
f 491/802/510 508/819/523 507/820/524 485/803/504
f 504/407/268 510/413/274 509/818/522 497/807/513
f 482/821/505 485/803/504 507/820/524
f 507/822/524 508/823/523 511/824/525
f 508/823/523 509/825/522 511/824/525
f 509/825/522 510/419/274 511/824/525
f 368/591/403 353/565/380 514/595/407 517/598/405
f 353/565/380 355/564/379 515/582/397 514/595/407
f 354/572/387 368/601/403 517/593/405 513/567/382
f 360/569/384 367/826/414 516/581/396 512/570/385
f 367/826/414 359/596/408 515/582/397 516/581/396
f 354/572/387 513/567/382 512/570/385 356/573/388
f 366/590/394 523/600/404 521/571/386 364/575/390
f 361/578/393 518/566/381 523/592/404 366/579/394
f 363/576/391 519/574/389 522/584/399 372/585/400
f 372/585/400 522/584/399 520/563/378 362/577/392
f 364/575/390 521/571/386 519/574/389 363/576/391
f 362/577/392 520/563/378 518/566/381 361/578/393
f 444/421/209 482/827/505 525/422/276
f 511/824/525 510/419/274 524/424/277
f 511/824/525 524/424/277 525/422/276
f 525/422/276 482/827/505 511/824/525
f 507/822/524 511/824/525 482/827/505
f 529/828/526 556/829/527 563/830/528 534/831/529
f 526/832/530 530/833/531 535/834/532 531/835/533
f 528/836/534 526/832/530 531/835/533 533/837/535
f 530/833/531 527/838/536 532/839/537 535/834/532
f 555/840/538 528/836/534 533/837/535 562/841/539
f 527/838/536 529/828/526 534/831/529 532/839/537
f 549/842/540 548/843/541 537/844/542 540/845/543
f 548/843/541 550/846/544 539/847/545 537/844/542
f 550/846/544 585/848/546 569/849/547 539/847/545
f 551/850/548 549/842/540 540/845/543 536/851/549
f 552/852/550 551/850/548 536/851/549 538/853/551
f 536/851/549 540/845/543 544/854/552 541/855/553
f 538/853/551 536/851/549 541/855/553
f 540/845/543 537/844/542 542/856/554 544/854/552
f 537/844/542 539/847/545 543/857/555 542/856/554
f 539/847/545 569/849/547 575/858/556 543/857/555
f 541/855/553 544/854/552 547/859/557
f 544/854/552 542/856/554 545/860/558 547/859/557
f 542/856/554 543/857/555 546/861/559 545/860/558
f 543/857/555 575/858/556 579/862/560 546/861/559
f 533/837/535 531/835/533 551/850/548 552/852/550
f 531/835/533 535/834/532 549/842/540 551/850/548
f 534/831/529 563/830/528 585/848/546 550/846/544
f 532/839/537 534/831/529 550/846/544 548/843/541
f 535/834/532 532/839/537 548/843/541 549/842/540
f 558/863/561 565/864/562 563/865/528 556/866/527
f 553/867/563 560/868/564 566/869/565 559/870/566
f 557/871/567 564/872/568 560/868/564 553/867/563
f 559/870/566 566/869/565 561/873/569 554/874/570
f 555/840/538 562/841/539 564/872/568 557/871/567
f 554/874/570 561/873/569 565/864/562 558/863/561
f 583/875/571 572/876/572 568/877/573 582/878/574
f 582/878/574 568/877/573 571/879/575 584/880/576
f 584/880/576 571/879/575 569/881/547 585/882/546
f 586/883/577 567/884/578 572/876/572 583/875/571
f 587/885/579 570/886/580 567/884/578 586/883/577
f 567/884/578 573/887/581 577/888/582 572/876/572
f 570/886/580 573/887/581 567/884/578
f 572/876/572 577/888/582 574/889/583 568/877/573
f 568/877/573 574/889/583 576/890/584 571/879/575
f 571/879/575 576/890/584 575/891/556 569/881/547
f 573/887/581 581/892/585 577/888/582
f 577/888/582 581/892/585 578/893/586 574/889/583
f 574/889/583 578/893/586 580/894/587 576/890/584
f 576/890/584 580/894/587 579/895/560 575/891/556
f 564/872/568 587/885/579 586/883/577 560/868/564
f 560/868/564 586/883/577 583/875/571 566/869/565
f 565/864/562 584/880/576 585/882/546 563/865/528
f 561/873/569 582/878/574 584/880/576 565/864/562
f 566/869/565 583/875/571 582/878/574 561/873/569
