# Blender v2.77 (sub 0) OBJ File: 'PlayerCharacter14.blend'
# www.blender.org
mtllib testrun7.mtl
o Cube
v -1.984067 11.266846 -0.012169
v -2.684914 10.745715 1.525949
v -1.673830 10.673724 1.218010
v -3.059418 11.044437 0.994101
v -2.985819 11.341623 0.241950
v -1.563303 10.925630 0.523489
v -2.149101 10.172693 0.428399
v -1.972650 9.814589 -0.015198
v -2.357134 9.578632 -0.305735
v -3.304638 9.527670 0.030927
v -3.418168 9.743512 0.597127
v -1.870384 12.979944 2.460093
v -1.315552 11.339807 2.111660
v -2.089331 13.217157 1.621736
v -2.064544 13.427273 0.682082
v -1.726759 11.710838 0.237009
v -1.397673 11.310727 0.933553
v -2.265697 12.989080 0.627128
v -2.067609 12.449623 2.371301
v -1.501664 11.287411 1.717251
v -2.314104 12.956458 1.580649
v -1.456827 11.252000 0.823497
v -1.875510 11.832998 0.308986
v -1.616541 10.361902 1.797517
v -1.424164 9.759593 1.500571
v -1.703559 9.121619 1.442534
v -2.530181 8.987192 1.870268
v -2.698010 9.616486 2.186505
v -2.497777 10.225471 2.262551
v -1.556777 10.435833 1.805169
v -1.535432 10.181534 2.307918
v -2.243313 10.069744 2.690408
v -2.395685 9.590368 2.641474
v -2.267105 9.094818 2.378644
v -1.382951 9.711673 2.079792
v -1.606647 9.203327 2.031338
v -2.579248 8.905600 1.864643
v -1.332455 9.760773 1.474448
v -1.649998 9.051456 1.406419
v -2.787779 9.610648 2.218159
v -2.543548 10.297805 2.304610
v -2.356207 10.231071 2.804790
v -1.418640 10.379246 2.297816
v -2.568318 9.569343 2.734562
v -2.392686 8.898041 2.381976
v -1.208400 9.728370 1.979517
v -1.508725 9.043841 1.915508
v -1.191983 10.123388 3.069926
v -1.767805 10.032453 3.381062
v -1.768151 9.654541 3.267131
v -1.787161 9.239403 3.127458
v -1.203745 9.722145 2.954102
v -1.249912 9.327669 2.844944
v -1.277139 9.989499 3.744666
v -0.957438 10.082167 3.443538
v -1.277616 9.733775 3.664115
v -1.292832 9.451901 3.569252
v -0.964537 9.810042 3.363330
v -0.993394 9.540665 3.293461
v -0.908638 10.021037 3.900786
v -0.744301 10.102647 3.644829
v -0.832629 9.869477 3.885790
v -0.844744 9.671670 3.819598
v -0.671951 9.939275 3.630911
v -0.689905 9.749471 3.584157
v -1.348169 10.167290 2.726759
v -1.284829 9.734670 2.559583
v -1.412173 9.288125 2.478183
v -2.005761 9.190602 2.790324
v -2.054239 9.642510 2.986312
v -1.984377 10.066818 3.070522
v -0.918499 10.138937 2.677109
v -0.891021 10.025936 2.919236
v -0.889243 9.741313 2.830235
v -0.855717 9.828995 2.569224
v -0.588446 10.119696 2.710064
v -0.567545 10.033739 2.894242
v -0.566192 9.817235 2.826541
v -0.540692 9.883932 2.627998
v -3.152512 10.127639 0.816889
v -2.959962 10.241380 1.125854
v -3.182716 9.676214 1.010072
v -3.036319 9.109103 0.595265
v -2.161076 9.224048 0.183467
v -1.832016 9.773982 0.336050
v -2.025306 10.310851 0.682869
v -3.322386 10.168276 -0.084889
v -2.072438 9.961380 0.651597
v -3.418209 10.025913 0.555661
v -1.957666 10.008389 0.028336
v -2.359800 10.153018 -0.350100
v -3.095099 9.964719 0.960123
v -1.303768 7.296619 1.575254
v -1.209840 9.203072 -0.460339
v -0.554192 7.165329 1.481871
v -0.547036 9.147115 -0.549294
v -1.354787 7.148737 1.313903
v -1.273668 8.257181 -0.663507
v -0.615958 6.703348 1.072106
v -0.511997 7.776810 -0.925137
v -1.613438 4.715029 -1.126530
v -1.531581 5.433248 -2.329987
v -0.768536 4.698698 -1.119520
v -0.657783 5.419728 -2.320560
v -1.564966 3.971206 -1.739629
v -1.497350 4.759421 -3.153610
v -0.845847 3.943482 -1.708600
v -0.756455 4.736894 -3.132352
v -1.593999 5.549570 -0.078976
v -0.696355 5.570842 -0.023119
v -0.573117 6.602202 -1.661307
v -1.499336 6.599762 -1.702643
v -1.982725 6.076679 -0.900909
v -0.267923 4.339164 -2.427897
v -1.990436 5.085995 -1.729200
v -2.050389 4.372410 -2.442544
v -1.607435 8.365223 0.499094
v -0.236258 5.047599 -1.717441
v -0.135087 6.079240 -0.813505
v -1.692875 7.793588 0.386283
v -0.165515 7.072088 0.026142
v -1.630558 3.908449 -1.624817
v -1.551905 4.823994 -3.271332
v -0.793882 3.876205 -1.588660
v -0.689893 4.797775 -3.246597
v -0.121489 4.335889 -2.426226
v -2.195337 4.374785 -2.443487
v -1.637451 3.427307 -1.885472
v -1.558851 4.338012 -3.536680
v -0.800772 3.395252 -1.849277
v -0.696832 4.312095 -3.511957
v -0.128435 3.850830 -2.689425
v -2.202264 3.890391 -2.707416
v -1.559671 3.500625 -2.018273
v -1.494152 4.259715 -3.396380
v -0.862487 3.473940 -1.987914
v -0.775853 4.238119 -3.375779
v -0.302254 3.852612 -2.688995
v -2.030333 3.885350 -2.703712
v -1.587076 2.536735 -2.518403
v -1.517934 3.360320 -4.013549
v -0.865779 2.509935 -2.489382
v -0.774032 3.337953 -3.992213
v -0.284840 2.901267 -3.213032
v -2.074515 2.935172 -3.228273
v -1.540972 1.652041 -3.211007
v -1.450979 2.405417 -4.394999
v -0.992410 1.639261 -3.180325
v -0.883901 2.386747 -4.373333
v -0.526708 1.954324 -3.689281
v -1.889234 1.992280 -3.732474
v -1.605080 1.051527 -3.460106
v -1.424135 2.024356 -4.697312
v -1.088594 1.026705 -3.387930
v -0.890661 1.999449 -4.655293
v -0.593574 1.406807 -4.046654
v -1.875457 1.451040 -4.156339
v -1.738778 0.453206 -2.865191
v -1.439183 1.792680 -5.028137
v -1.144814 0.444376 -2.775550
v -0.824613 1.762910 -4.973487
v -0.477463 1.107887 -4.355141
v -1.953683 1.163624 -4.518240
v -1.730035 0.025201 -2.942430
v -1.398398 1.551701 -5.364918
v -1.136071 0.016371 -2.852789
v -0.785679 1.517042 -5.295053
v -0.451678 0.823224 -4.686596
v -1.927142 0.873070 -4.862532
v -1.658651 -0.044960 -3.222408
v -1.361194 1.330993 -5.403146
v -1.137131 -0.057821 -3.148914
v -0.824701 1.291013 -5.338211
v -0.536605 0.666424 -4.785530
v -1.832583 0.698937 -4.935837
v -1.449109 9.076481 2.251150
v -1.604065 10.542023 2.510300
v -1.365125 9.935020 -0.280985
v -1.621397 11.167729 -0.088621
v -0.657506 9.843869 -0.409997
v -0.821885 9.275082 2.581718
v -0.784465 11.127242 -0.365345
v -0.698374 8.816307 2.309808
v -1.760974 9.571467 0.993370
v -1.746866 10.890982 1.205484
v -0.768077 12.555038 2.855935
v -0.740371 13.308628 0.352518
v -0.920036 11.985977 -0.355704
v -0.946143 11.221240 3.125828
v -1.862151 6.279521 0.766728
v -1.791010 8.072688 -1.458741
v -0.162256 6.170301 0.676079
v -0.585854 8.554574 -2.181787
v -2.185233 7.352654 -0.517487
v -2.723102 4.402859 -0.756515
v -2.827536 6.402957 -3.675112
v -0.677870 4.333373 -0.788251
v -1.724076 6.789756 -4.369504
v -3.182422 5.294903 -1.994919
v -3.090891 3.688656 -1.375298
v -2.961511 5.786072 -4.110970
v -1.911565 6.209638 -4.852779
v -3.299046 4.696164 -2.460492
v -3.177223 4.993162 -4.664734
v -2.261628 5.524516 -5.294910
v -3.493191 3.857016 -3.056823
v -2.431304 7.259329 -2.632529
v -2.821025 6.328138 -1.203961
v -1.148687 7.684337 -3.391435
v -2.319615 5.354782 0.147943
v -0.362082 5.273650 0.109306
v -1.436145 14.113119 1.622002
v -1.371302 13.994159 1.013090
v -1.388364 14.009910 2.337015
v -0.418563 13.659243 2.932846
v -0.796806 13.933933 0.800176
v -0.597929 13.724105 2.822653
v -1.275979 14.550079 1.659612
v -1.211136 14.551258 1.146838
v -1.228199 14.454428 2.371965
v -0.811530 14.346904 0.942097
v -0.783050 14.336006 2.841315
v -1.071381 15.050372 1.700574
v -1.006538 15.028637 1.388772
v -1.023600 14.960386 2.409120
v -0.669452 14.826887 1.119218
v -0.512224 14.861741 3.109930
v -0.678551 15.561853 2.089447
v -0.613709 15.525372 1.934257
v -0.630771 15.472668 2.796285
v -0.497332 15.442659 1.644149
v -0.468562 15.387076 3.127088
v -0.499762 13.720501 2.764289
v -0.721944 14.369938 2.769208
v -0.489612 14.881621 3.006510
v -0.373580 14.193636 3.048304
v -0.682979 5.239676 -2.532795
v -1.522931 5.256170 -2.544111
v -1.600905 4.536186 -1.281452
v -0.788032 4.517093 -1.268163
v -0.244236 4.870523 -1.900917
v -2.005616 4.907674 -1.913392
v -1.608407 4.933677 -0.855485
v -0.635114 5.747609 -2.150261
v -0.750042 4.926666 -0.842182
v -1.522804 5.753118 -2.166307
v -0.209860 5.328019 -1.490230
v -1.988330 5.350777 -1.512278
v 1.698010 10.987015 2.201807
v 3.056542 12.004797 2.722298
v 2.066794 12.059517 3.004108
v 3.108997 11.456992 2.258419
v 2.675810 10.873652 1.895682
v 1.620658 11.520360 2.632417
v 2.511069 11.392883 3.765454
v 2.233743 10.958022 3.237988
v 2.294102 10.238890 3.003909
v 3.013370 9.851079 3.174663
v 3.215179 10.262836 3.817281
v 2.014467 13.259047 1.970346
v 1.661329 12.350859 2.481172
v 2.093334 13.131826 1.186749
v 1.867782 12.823338 0.342327
v 1.726760 11.710838 0.237009
v 1.471452 11.750324 2.025831
v 2.092659 12.503786 0.535773
v 2.297754 12.977882 1.962271
v 1.865504 12.431310 2.468364
v 2.322983 12.889538 1.169671
v 1.521096 11.719517 2.157883
v 1.684638 11.517059 1.201287
v 1.235133 11.215691 4.549807
v 1.057091 10.867115 3.971266
v 1.126512 10.209480 3.745119
v 1.534464 9.604564 4.338461
v 1.690644 9.982695 4.935753
v 1.667394 10.574408 5.192793
v 1.204516 11.304407 4.566795
v 0.854827 10.973364 4.860081
v 1.196820 10.454145 5.382954
v 1.205274 9.988091 5.187678
v 1.092270 9.692088 4.707300
v 0.712184 10.701683 4.410774
v 0.769499 10.177724 4.229156
v 1.553176 9.513810 4.315874
v 0.996868 10.917257 3.916918
v 1.081422 10.183740 3.665123
v 1.745103 9.928123 4.991889
v 1.703776 10.604139 5.275787
v 1.276112 10.510315 5.588886
v 0.823379 11.198194 4.896095
v 1.290592 9.866815 5.317777
v 1.134561 9.465646 4.669340
v 0.627751 10.821959 4.272175
v 0.703567 10.116515 4.028297
v 0.169142 10.894401 5.335051
v 0.447334 10.472044 5.760380
v 0.396089 10.179057 5.500922
v 0.362288 9.852151 5.210772
v 0.121284 10.576749 5.067947
v 0.099730 10.247190 4.821827
v -0.147942 10.573420 5.861263
v -0.224127 10.875648 5.538239
v -0.180645 10.375908 5.682944
v -0.201719 10.152876 5.486755
v -0.256441 10.661035 5.355408
v -0.275715 10.436069 5.190203
v -0.516315 10.732819 5.869030
v -0.493584 10.942174 5.634846
v -0.614080 10.643106 5.762432
v -0.627904 10.485830 5.625590
v -0.592392 10.840456 5.525277
v -0.609165 10.682434 5.410039
v 0.484320 10.944310 5.129486
v 0.393121 10.647680 4.779067
v 0.407630 10.229229 4.562441
v 0.697721 9.792763 4.992175
v 0.767739 10.105538 5.369308
v 0.791687 10.477662 5.599418
v 0.154907 11.132380 4.919701
v -0.024622 10.988993 5.058843
v -0.063221 10.770071 4.860066
v 0.069420 10.925005 4.672066
v -0.133933 11.261341 4.818039
v -0.270495 11.152270 4.923881
v -0.299856 10.985744 4.772677
v -0.198958 11.103598 4.629672
v 3.175596 10.877171 4.139891
v 2.700834 10.744583 4.469081
v 2.732570 10.136116 4.188274
v 2.587672 9.731947 3.574461
v 2.081279 10.281865 3.093015
v 1.983501 10.971546 3.328575
v 2.198220 11.352339 3.903483
v 3.072295 10.167186 2.772740
v 2.501424 11.479005 3.706855
v 3.449874 10.679617 3.203467
v 2.156726 10.995682 3.283771
v 2.194050 10.373495 2.917238
v 3.397748 11.217980 3.633037
v 1.233952 8.800042 1.511125
v 1.175472 8.327628 -0.842046
v -0.010550 7.931634 1.569839
v 0.003628 8.744455 -0.716735
v 0.531616 8.795881 1.653134
v 0.554875 8.391155 -0.859420
v 1.299552 8.365981 0.301824
v 1.311916 6.855398 -0.640722
v -0.014537 7.102026 0.963514
v 0.012289 7.313076 -0.795786
v 0.570065 8.070561 0.662902
v 0.552590 6.737038 -0.357475
v 1.655547 6.864224 3.179367
v 1.600880 6.405358 2.336235
v 0.811128 6.832877 3.192717
v 0.731399 6.301189 2.388014
v 1.654801 5.535049 3.190043
v 1.573293 5.804845 1.651544
v 0.936376 5.503842 3.231027
v 0.833082 5.770952 1.677520
v 1.573417 7.872973 1.812432
v 0.677050 7.709917 1.702198
v 0.651485 6.050117 1.228674
v 1.582029 6.051994 1.375031
v 0.000014 7.026744 0.015584
v 2.013694 6.985243 1.596879
v 0.353698 5.594509 2.495884
v 2.053361 6.509662 2.826562
v 2.134507 5.665889 2.447378
v 1.544238 8.558928 0.191902
v 0.300892 6.431018 2.864252
v 0.162891 6.812409 1.332566
v 1.680022 7.667912 -0.345372
v 0.165577 7.091132 0.052059
v 1.721918 5.496449 3.294637
v 1.625155 5.849854 1.491412
v 0.886088 5.459028 3.341971
v 0.763934 5.810454 1.521464
v 0.207258 5.583319 2.481371
v 2.279225 5.668121 2.430904
v 1.745095 4.865930 3.106297
v 1.642036 5.350075 1.264048
v 0.909430 4.825977 3.156587
v 0.781036 5.307913 1.299538
v 0.226043 5.036456 2.249011
v 2.298104 5.127594 2.217545
v 1.666511 4.862426 2.927856
v 1.579570 5.302445 1.418414
v 0.970302 4.825384 2.968262
v 0.862120 5.267313 1.447987
v 0.399568 5.027930 2.205154
v 2.126149 5.101259 2.172191
v 1.719114 3.814007 2.648461
v 1.626730 4.291472 1.010808
v 1.000837 3.775599 2.689759
v 0.883707 4.255088 1.041435
v 0.407013 3.985410 1.899999
v 2.195136 4.061353 1.865862
v 1.785774 2.868205 2.209566
v 1.580614 3.274127 0.823426
v 1.254393 2.846211 2.296278
v 1.016694 3.248140 0.860124
v 0.705699 3.022940 1.639812
v 2.050509 3.069987 1.532653
v 2.113217 2.274784 2.283949
v 1.512957 2.755828 0.566581
v 1.630704 2.266298 2.477546
v 0.999958 2.742477 0.684200
v 0.884866 2.527088 1.617506
v 2.093993 2.534202 1.227584
v 2.537217 1.662927 2.949166
v 1.499382 2.370426 0.373090
v 1.994529 1.657240 3.206777
v 0.912288 2.357816 0.530211
v 0.787775 2.128091 1.588983
v 2.167583 2.126449 1.057942
v 2.529975 1.228287 2.932264
v 1.410767 1.947830 0.265040
v 1.987287 1.222598 3.189875
v 0.837546 1.942408 0.475905
v 0.759428 1.716835 1.515098
v 2.130857 1.711278 0.944961
v 2.385924 1.119570 2.695973
v 1.396537 1.740389 0.382550
v 1.909376 1.114592 2.922180
v 0.898643 1.737533 0.580359
v 0.846567 1.540867 1.489697
v 2.047778 1.535916 0.978429
v 1.440261 9.138165 1.927337
v 1.604065 10.542023 2.510301
v 1.366530 9.755958 -0.434978
v 1.621397 11.167728 -0.088620
v 0.647748 9.685419 -0.429636
v 0.815481 9.323551 2.351964
v 0.010230 9.261512 2.504677
v 0.741772 11.046339 -0.212089
v -0.029142 11.072955 -0.375871
v 0.692499 8.912337 2.018812
v -0.004577 8.804204 2.143163
v -0.000945 9.711886 -0.449684
v 1.757577 9.484874 0.735216
v 1.746866 10.890981 1.205484
v 0.768077 12.555038 2.855936
v -0.000000 12.475519 2.928653
v 0.740371 13.308628 0.352518
v 0.000000 13.317286 0.269160
v 0.043386 11.278351 3.149475
v 0.000000 11.889805 -0.463825
v 0.920036 11.985977 -0.355704
v 0.946142 11.221240 3.125829
v 1.869864 8.160731 1.877563
v 1.796390 7.098192 -0.511362
v -0.010379 6.720780 1.289286
v 0.003647 7.594241 -1.704964
v 0.163126 8.062165 1.962723
v 0.593124 6.703557 -1.206471
v 2.110106 7.530601 0.468941
v 2.778232 6.637617 3.373955
v 2.799435 4.750977 0.633646
v 0.039760 5.464642 -2.164689
v 0.734543 6.555869 3.440923
v 1.739937 4.261119 0.083019
v 3.245196 5.831904 2.164232
v 3.154167 5.197274 3.921098
v 2.939853 4.317023 0.771377
v 0.046229 5.030946 -2.440026
v 1.933533 3.976590 0.047087
v 3.251524 4.970488 2.488917
v 3.282279 3.446877 1.160601
v 0.055563 4.366856 -2.453021
v 2.372860 3.240522 0.415944
v 3.580489 4.066021 2.888074
v 2.385916 5.698625 0.056800
v 2.862574 6.877456 1.197435
v 1.191488 5.008584 -0.510098
v 0.021785 6.314325 -1.945030
v 2.362835 7.980339 2.407433
v 0.408314 7.893958 2.516952
v 1.436145 14.113119 1.622002
v 1.371302 13.994159 1.013091
v 1.388364 14.009910 2.337015
v 0.418562 13.659243 2.932846
v 0.796807 13.933933 0.800176
v 0.000000 13.831394 0.773040
v 0.597929 13.724105 2.822653
v 1.275979 14.550079 1.659612
v 1.211137 14.551258 1.146839
v 1.228199 14.454428 2.371965
v 0.811530 14.346904 0.942097
v 0.000000 14.257545 0.789859
v 0.783049 14.336006 2.841315
v 1.071381 15.050372 1.700575
v 1.006538 15.028637 1.388772
v 1.023600 14.960386 2.409120
v 0.669452 14.826887 1.119218
v 0.000000 14.728486 1.034604
v 0.512224 14.861741 3.109930
v 0.678551 15.561853 2.089448
v 0.613709 15.525372 1.934258
v 0.630771 15.472668 2.796286
v 0.497332 15.442659 1.644149
v 0.000000 15.421426 1.517231
v 0.468562 15.387076 3.127088
v 0.005550 14.731002 3.400299
v -0.000000 15.348605 3.299561
v -0.000000 15.686968 2.262249
v 0.499762 13.720501 2.764289
v 0.721944 14.369938 2.769209
v 0.489612 14.881621 3.006511
v -0.000000 14.770332 3.179270
v 0.373580 14.193636 3.048305
v 0.749525 6.324606 2.152669
v 1.587235 6.384292 2.108379
v 1.664031 6.400083 3.356933
v 0.851893 6.364523 3.378152
v 0.315418 6.230397 2.854556
v 2.075166 6.306187 2.815114
v 1.628589 7.264768 2.825820
v 0.717271 6.172785 2.301292
v 0.770545 7.235310 2.829048
v 1.602012 6.260899 2.289845
v 0.265380 6.599306 2.585358
v 2.042544 6.670158 2.561248
v -0.000000 14.099574 3.176007
v -0.000000 13.289578 3.052580
v -1.232300 7.263103 1.385174
v -1.143435 9.066920 -0.541349
v -0.523314 7.140233 1.294541
v -0.516505 9.015159 -0.627572
v -1.519508 8.274252 0.366546
v -1.759344 6.300726 0.623519
v -1.692353 7.996495 -1.483295
v -0.151906 6.197186 0.535896
v -0.552502 8.452590 -2.167747
v -2.065218 7.315357 -0.592813
v -2.573295 4.522140 -0.812900
v -2.672051 6.413931 -3.573496
v -0.638946 4.456410 -0.842895
v -1.628406 6.779821 -4.230352
v -3.007708 5.365869 -1.984248
v -2.921145 3.846662 -1.398143
v -2.798763 5.830488 -3.985720
v -1.805733 6.231139 -4.687400
v -3.118007 4.799603 -2.424602
v -3.002968 5.079513 -4.507524
v -2.137003 5.582121 -5.103647
v -3.301817 4.004876 -2.986629
v -2.297303 7.223862 -2.587413
v -2.665908 6.343055 -1.236112
v -1.084204 7.625957 -3.305407
v -2.191688 5.422411 0.042601
v -0.340278 5.345711 0.006000
v 1.209591 8.744929 1.485508
v 1.152233 8.281683 -0.821746
v -0.009787 7.845399 1.435699
v 0.003570 8.614244 -0.729017
v 0.502387 8.643641 1.573537
v 0.524250 8.260125 -0.805135
v 1.513796 8.508708 0.192774
v 1.768214 8.050309 1.801231
v 1.698803 7.045122 -0.457437
v -0.009603 6.700323 1.171044
v 0.004111 7.529212 -1.652212
v 0.154093 7.956847 1.882563
v 0.560715 6.671688 -1.115557
v 2.068568 7.502895 0.469349
v 2.627950 6.624426 3.249739
v 2.744524 4.783292 0.642475
v 0.038860 5.520859 -2.066914
v 0.695059 6.547104 3.313065
v 1.705849 4.303070 0.102667
v 3.069592 5.862411 2.105619
v 2.983618 5.265635 3.785285
v 2.882224 4.359131 0.784109
v 0.045036 5.112419 -2.318141
v 1.895681 4.025398 0.074070
v 3.187771 4.999740 2.467870
v 3.104942 3.610066 1.180174
v 0.053857 4.483803 -2.326691
v 2.244818 3.414928 0.475960
v 3.386996 4.195603 2.813894
v 2.339105 5.710615 0.072778
v 2.707641 6.846620 1.179763
v 1.127116 5.079064 -0.435404
v 0.021819 6.322136 -1.865070
v 2.234999 7.889692 2.324135
v 0.386438 7.807996 2.427695
vt 0.1411 0.5697
vt 0.1173 0.5717
vt 0.1192 0.5293
vt 0.1411 0.5249
vt 0.1790 0.5728
vt 0.1795 0.5302
vt 0.1179 0.6009
vt 0.0932 0.6030
vt 0.0926 0.5899
vt 0.1166 0.5874
vt 0.0607 0.6051
vt 0.0351 0.6025
vt 0.0372 0.5891
vt 0.0618 0.5920
vt 0.1780 0.6032
vt 0.1407 0.6005
vt 0.1401 0.5862
vt 0.1785 0.5890
vt 0.1188 0.5269
vt 0.1412 0.5219
vt 0.0947 0.5314
vt 0.0943 0.5290
vt 0.0624 0.5348
vt 0.0373 0.5301
vt 0.0378 0.5272
vt 0.0623 0.5314
vt 0.1826 0.5272
vt 0.4961 0.6945
vt 0.5387 0.7226
vt 0.5166 0.7257
vt 0.4899 0.6966
vt 0.5390 0.8238
vt 0.5284 0.8586
vt 0.5095 0.8519
vt 0.5284 0.8191
vt 0.5405 0.7832
vt 0.4607 0.7887
vt 0.4721 0.7651
vt 0.4496 0.8737
vt 0.4286 0.8459
vt 0.4491 0.8154
vt 0.4601 0.8910
vt 0.5560 0.7961
vt 0.4081 0.8841
vt 0.4086 0.8776
vt 0.4818 0.7271
vt 0.4731 0.7008
vt 0.4037 0.8602
vt 0.0105 0.5255
vt 0.0088 0.5215
vt 0.0095 0.5980
vt 0.0118 0.5846
vt 0.0385 0.5084
vt 0.0632 0.5137
vt 0.0110 0.4962
vt 0.0972 0.5129
vt 0.1202 0.5072
vt 0.1398 0.5066
vt 0.1799 0.5009
vt 0.1393 0.4993
vt 0.1720 0.4925
vt 0.0961 0.5046
vt 0.1195 0.5008
vt 0.0409 0.5016
vt 0.0642 0.5060
vt 0.0202 0.4909
vt 0.0268 0.4371
vt 0.0334 0.4215
vt 0.0477 0.4247
vt 0.0408 0.4370
vt 0.0677 0.3339
vt 0.0689 0.3483
vt 0.0573 0.3502
vt 0.0554 0.3388
vt 0.0652 0.4263
vt 0.0597 0.4346
vt 0.0551 0.4111
vt 0.0712 0.4173
vt 0.0418 0.4730
vt 0.0297 0.4607
vt 0.0422 0.4567
vt 0.0531 0.4653
vt 0.0539 0.4828
vt 0.0639 0.4735
vt 0.0418 0.4069
vt 0.0509 0.3820
vt 0.0634 0.3881
vt 0.0772 0.4570
vt 0.0695 0.4530
vt 0.0798 0.4430
vt 0.0836 0.4460
vt 0.0615 0.4483
vt 0.0759 0.4333
vt 0.0747 0.4416
vt 0.0794 0.4028
vt 0.0824 0.4344
vt 0.0879 0.4369
vt 0.0879 0.4133
vt 0.0813 0.4218
vt 0.0800 0.4278
vt 0.0258 0.4023
vt 0.0359 0.3747
vt 0.0404 0.4926
vt 0.0263 0.4809
vt 0.0127 0.4652
vt 0.0091 0.4383
vt 0.0159 0.4193
vt 0.0549 0.3590
vt 0.0515 0.3694
vt 0.0417 0.3631
vt 0.0468 0.3569
vt 0.0636 0.3206
vt 0.0506 0.3298
vt 0.0689 0.3620
vt 0.0641 0.3770
vt 0.0371 0.3551
vt 0.0457 0.3504
vt 0.0436 0.3429
vt 0.0412 0.3364
vt 0.0928 0.5752
vt 0.0612 0.5769
vt 0.0374 0.5736
vt 0.0129 0.5690
vt 0.1437 0.6376
vt 0.1190 0.6377
vt 0.0301 0.6389
vt 0.0041 0.6338
vt 0.0913 0.6387
vt 0.0564 0.6411
vt 0.1826 0.6402
vt 0.2529 0.3464
vt 0.2565 0.3339
vt 0.3062 0.3342
vt 0.3016 0.3589
vt 0.2432 0.3589
vt 0.2638 0.3741
vt 0.4755 0.3347
vt 0.4790 0.3476
vt 0.4352 0.3605
vt 0.4300 0.3347
vt 0.4893 0.3619
vt 0.4679 0.3759
vt 0.3923 0.4452
vt 0.4158 0.4540
vt 0.4127 0.4635
vt 0.3895 0.4561
vt 0.3146 0.4759
vt 0.3384 0.4697
vt 0.3397 0.4910
vt 0.3219 0.4959
vt 0.3092 0.4587
vt 0.3355 0.4505
vt 0.3382 0.4617
vt 0.3114 0.4686
vt 0.3269 0.4183
vt 0.3009 0.4315
vt 0.4261 0.4281
vt 0.4031 0.4141
vt 0.4475 0.4476
vt 0.4873 0.4056
vt 0.3627 0.4638
vt 0.3635 0.4564
vt 0.3884 0.4632
vt 0.3634 0.4452
vt 0.3644 0.4111
vt 0.3686 0.3448
vt 0.3687 0.3345
vt 0.5055 0.3974
vt 0.2371 0.3998
vt 0.2226 0.3858
vt 0.2736 0.4456
vt 0.4348 0.4676
vt 0.4307 0.4753
vt 0.2974 0.4979
vt 0.2913 0.4801
vt 0.4100 0.4699
vt 0.4028 0.4878
vt 0.3857 0.4824
vt 0.4287 0.4816
vt 0.4235 0.5000
vt 0.2854 0.4661
vt 0.2887 0.4743
vt 0.1064 0.2829
vt 0.0814 0.2715
vt 0.0807 0.2675
vt 0.1098 0.2807
vt 0.0786 0.0255
vt 0.1025 0.0139
vt 0.1059 0.0161
vt 0.0782 0.0296
vt 0.0042 0.1582
vt 0.0042 0.1375
vt 0.0079 0.1357
vt 0.0079 0.1599
vt 0.2021 0.2869
vt 0.1761 0.2917
vt 0.1734 0.2888
vt 0.2036 0.2832
vt 0.3554 0.1412
vt 0.3550 0.1613
vt 0.3513 0.1629
vt 0.3517 0.1394
vt 0.1713 0.0035
vt 0.1991 0.0078
vt 0.2008 0.0115
vt 0.1685 0.0065
vt 0.0871 0.2534
vt 0.1162 0.2667
vt 0.0233 0.1357
vt 0.0233 0.1599
vt 0.3359 0.1626
vt 0.3363 0.1392
vt 0.1985 0.0267
vt 0.1662 0.0218
vt 0.1127 0.0299
vt 0.0849 0.0434
vt 0.1706 0.2736
vt 0.2008 0.2680
vt 0.1122 0.0348
vt 0.0891 0.0460
vt 0.1723 0.2691
vt 0.1975 0.2645
vt 0.0912 0.2509
vt 0.1155 0.2620
vt 0.0277 0.1378
vt 0.0277 0.1579
vt 0.3315 0.1606
vt 0.3318 0.1411
vt 0.1952 0.0303
vt 0.1683 0.0261
vt 0.0582 0.1375
vt 0.0582 0.1583
vt 0.3011 0.1604
vt 0.3014 0.1402
vt 0.1911 0.0604
vt 0.1632 0.0561
vt 0.1259 0.0619
vt 0.1003 0.0744
vt 0.1664 0.2393
vt 0.1925 0.2345
vt 0.1018 0.2223
vt 0.1285 0.2345
vt 0.1642 0.2102
vt 0.1863 0.2063
vt 0.1151 0.1966
vt 0.1379 0.2068
vt 0.0870 0.1400
vt 0.0870 0.1559
vt 0.2724 0.1575
vt 0.2726 0.1420
vt 0.1856 0.0887
vt 0.1621 0.0853
vt 0.1360 0.0893
vt 0.1141 0.0998
vt 0.2541 0.1563
vt 0.2543 0.1417
vt 0.1925 0.1057
vt 0.1605 0.1007
vt 0.1423 0.1035
vt 0.1187 0.1147
vt 0.1620 0.1949
vt 0.1928 0.1892
vt 0.1193 0.1816
vt 0.1438 0.1925
vt 0.1026 0.1405
vt 0.1026 0.1556
vt 0.1589 0.1832
vt 0.2136 0.1707
vt 0.1226 0.1701
vt 0.1497 0.1821
vt 0.1146 0.1394
vt 0.1146 0.1567
vt 0.2263 0.1560
vt 0.2266 0.1392
vt 0.2136 0.1239
vt 0.1577 0.1124
vt 0.1484 0.1138
vt 0.1223 0.1261
vt 0.2141 0.1557
vt 0.2144 0.1389
vt 0.2135 0.1360
vt 0.1553 0.1241
vt 0.1535 0.1246
vt 0.1274 0.1369
vt 0.1563 0.1716
vt 0.2132 0.1585
vt 0.1275 0.1592
vt 0.1545 0.1711
vt 0.1265 0.1394
vt 0.1265 0.1567
vt 0.1568 0.1661
vt 0.2058 0.1547
vt 0.1330 0.1556
vt 0.1330 0.1404
vt 0.2061 0.1400
vt 0.1559 0.1296
vt 0.7379 0.2719
vt 0.7037 0.2677
vt 0.7119 0.2449
vt 0.7448 0.2540
vt 0.6730 0.4081
vt 0.6904 0.4120
vt 0.6923 0.4365
vt 0.6758 0.4365
vt 0.7242 0.4174
vt 0.7261 0.4365
vt 0.6574 0.2577
vt 0.6681 0.2313
vt 0.6917 0.2897
vt 0.6437 0.2838
vt 0.6836 0.3854
vt 0.7202 0.3918
vt 0.6372 0.3758
vt 0.7285 0.2931
vt 0.6844 0.3380
vt 0.7211 0.3385
vt 0.6401 0.3292
vt 0.5858 0.7233
vt 0.6195 0.7182
vt 0.6195 0.7677
vt 0.5903 0.7705
vt 0.4933 0.9233
vt 0.5479 0.8949
vt 0.4629 0.9483
vt 0.4489 0.9179
vt 0.5885 0.6551
vt 0.6195 0.6511
vt 0.5555 0.6968
vt 0.4777 0.9763
vt 0.5094 0.9561
vt 0.5635 0.9198
vt 0.4042 0.8909
vt 0.5009 0.6883
vt 0.7521 0.2127
vt 0.7372 0.1998
vt 0.7716 0.1523
vt 0.7877 0.1661
vt 0.8093 0.3244
vt 0.7889 0.2732
vt 0.8401 0.2503
vt 0.8609 0.3054
vt 0.8135 0.3512
vt 0.8664 0.3647
vt 0.7658 0.2319
vt 0.8191 0.2099
vt 0.8155 0.3712
vt 0.8685 0.3712
vt 0.8866 0.2324
vt 0.8637 0.1791
vt 0.9010 0.1522
vt 0.9280 0.2140
vt 0.8317 0.1386
vt 0.8746 0.1166
vt 0.8002 0.1126
vt 0.8290 0.0759
vt 0.9031 0.2876
vt 0.9454 0.2664
vt 0.9120 0.3547
vt 0.9575 0.3383
vt 0.9519 0.2025
vt 0.9770 0.2487
vt 0.9233 0.1404
vt 0.8970 0.1026
vt 0.8464 0.0557
vt 0.9852 0.1863
vt 0.9537 0.1240
vt 0.9256 0.0908
vt 0.8654 0.0345
vt 0.9392 0.9594
vt 0.9133 0.9204
vt 0.9551 0.9075
vt 0.9663 0.9329
vt 0.9275 0.8361
vt 0.9410 0.7833
vt 0.9859 0.7991
vt 0.9827 0.8084
vt 0.9683 0.8493
vt 0.9206 0.8763
vt 0.9642 0.8810
vt 0.9593 0.9860
vt 0.9859 0.9630
vt 0.9599 0.7543
vt 0.3559 0.6510
vt 0.3908 0.7125
vt 0.3599 0.7365
vt 0.3252 0.6744
vt 0.3992 0.8213
vt 0.3921 0.8850
vt 0.3508 0.8800
vt 0.3582 0.8192
vt 0.3843 0.9751
vt 0.3292 0.9448
vt 0.4107 0.7647
vt 0.3615 0.7771
vt 0.2583 0.9396
vt 0.3054 0.8710
vt 0.3191 0.7543
vt 0.2891 0.7058
vt 0.3158 0.8146
vt 0.3200 0.7913
vt 0.2338 0.8975
vt 0.2477 0.8773
vt 0.2675 0.7926
vt 0.2377 0.7615
vt 0.2622 0.8304
vt 0.2631 0.8174
vt 0.2050 0.9369
vt 0.2050 0.9040
vt 0.2050 0.8246
vt 0.3248 0.9535
vt 0.2603 0.9512
vt 0.3824 0.9861
vt 0.2050 0.9547
vt 0.4015 0.9881
vt 0.4267 0.5549
vt 0.4534 0.6068
vt 0.4062 0.6228
vt 0.4393 0.6775
vt 0.4941 0.6670
vt 0.3614 0.4837
vt 0.4941 0.4380
vt 0.4941 0.5178
vt 0.4468 0.5513
vt 0.4941 0.5992
vt 0.2399 0.5688
vt 0.2417 0.5240
vt 0.2634 0.5293
vt 0.2635 0.5717
vt 0.2018 0.5702
vt 0.2032 0.5276
vt 0.2617 0.6009
vt 0.2635 0.5874
vt 0.2874 0.5910
vt 0.2863 0.6040
vt 0.3187 0.6075
vt 0.3181 0.5943
vt 0.3428 0.5925
vt 0.3444 0.6060
vt 0.2015 0.6007
vt 0.2017 0.5864
vt 0.2401 0.5852
vt 0.2389 0.5995
vt 0.2418 0.5210
vt 0.2639 0.5269
vt 0.2883 0.5300
vt 0.2878 0.5324
vt 0.3199 0.5372
vt 0.3202 0.5337
vt 0.3448 0.5306
vt 0.3452 0.5335
vt 0.2002 0.5245
vt 0.7429 0.6946
vt 0.7490 0.6967
vt 0.7224 0.7258
vt 0.7002 0.7226
vt 0.6999 0.8239
vt 0.7105 0.8191
vt 0.7294 0.8520
vt 0.7105 0.8587
vt 0.6985 0.7832
vt 0.7668 0.7652
vt 0.7782 0.7888
vt 0.7898 0.8155
vt 0.8103 0.8460
vt 0.7892 0.8738
vt 0.7788 0.8911
vt 0.6829 0.7961
vt 0.8303 0.8777
vt 0.8307 0.8842
vt 0.7571 0.7272
vt 0.7659 0.7009
vt 0.8352 0.8603
vt 0.3740 0.5261
vt 0.3722 0.5301
vt 0.3684 0.5891
vt 0.3701 0.6025
vt 0.3200 0.5160
vt 0.3449 0.5118
vt 0.3729 0.5008
vt 0.2633 0.5072
vt 0.2861 0.5138
vt 0.2438 0.5057
vt 0.2040 0.4984
vt 0.2446 0.4985
vt 0.2122 0.4903
vt 0.2875 0.5055
vt 0.2643 0.5008
vt 0.3428 0.5048
vt 0.3193 0.5083
vt 0.3639 0.4951
vt 0.1645 0.4599
vt 0.1646 0.4458
vt 0.1770 0.4390
vt 0.1802 0.4532
vt 0.1803 0.3793
vt 0.1679 0.3744
vt 0.1699 0.3630
vt 0.1814 0.3649
vt 0.1670 0.4270
vt 0.1753 0.4214
vt 0.1844 0.4154
vt 0.1905 0.4315
vt 0.1286 0.4449
vt 0.1364 0.4335
vt 0.1450 0.4445
vt 0.1409 0.4569
vt 0.1188 0.4328
vt 0.1281 0.4227
vt 0.1948 0.4449
vt 0.2136 0.4233
vt 0.2196 0.4357
vt 0.1446 0.4094
vt 0.1556 0.4030
vt 0.1586 0.4068
vt 0.1486 0.4171
vt 0.1533 0.4251
vt 0.1600 0.4120
vt 0.1683 0.4107
vt 0.1988 0.4072
vt 0.1672 0.4042
vt 0.1648 0.3988
vt 0.1798 0.4053
vt 0.1884 0.3988
vt 0.1738 0.4066
vt 0.1993 0.4608
vt 0.2269 0.4507
vt 0.1090 0.4462
vt 0.1207 0.4603
vt 0.1364 0.4739
vt 0.1634 0.4775
vt 0.1824 0.4708
vt 0.1675 0.3542
vt 0.1593 0.3563
vt 0.1543 0.3501
vt 0.1641 0.3438
vt 0.1762 0.3926
vt 0.1632 0.3834
vt 0.1814 0.3512
vt 0.1766 0.3362
vt 0.1583 0.3629
vt 0.1496 0.3581
vt 0.1562 0.3703
vt 0.1538 0.3768
vt 0.2879 0.5762
vt 0.3193 0.5793
vt 0.3433 0.5770
vt 0.3680 0.5735
vt 0.2343 0.6364
vt 0.2591 0.6376
vt 0.3478 0.6426
vt 0.3740 0.6385
vt 0.2867 0.6398
vt 0.3215 0.6437
vt 0.1954 0.6374
vt 0.2530 0.3214
vt 0.3019 0.3094
vt 0.2435 0.3089
vt 0.2643 0.2938
vt 0.4353 0.3088
vt 0.4790 0.3219
vt 0.4680 0.2936
vt 0.4893 0.3077
vt 0.3931 0.2241
vt 0.3904 0.2133
vt 0.4136 0.2061
vt 0.4166 0.2155
vt 0.3161 0.1927
vt 0.3236 0.1728
vt 0.3413 0.1780
vt 0.3397 0.1992
vt 0.3104 0.2098
vt 0.3128 0.2000
vt 0.3395 0.2072
vt 0.3367 0.2182
vt 0.3018 0.2369
vt 0.3277 0.2503
vt 0.4036 0.2552
vt 0.4267 0.2414
vt 0.4480 0.2221
vt 0.4874 0.2641
vt 0.3639 0.2053
vt 0.3894 0.2062
vt 0.3646 0.2127
vt 0.3644 0.2238
vt 0.3651 0.2579
vt 0.3687 0.3241
vt 0.5055 0.2723
vt 0.2232 0.2817
vt 0.2378 0.2678
vt 0.2747 0.2225
vt 0.4315 0.1945
vt 0.4355 0.2022
vt 0.2928 0.1883
vt 0.2992 0.1705
vt 0.4109 0.1997
vt 0.3869 0.1870
vt 0.4040 0.1818
vt 0.4296 0.1882
vt 0.4246 0.1699
vt 0.2867 0.2022
vt 0.2902 0.1940
vt 0.6107 0.2858
vt 0.6073 0.2836
vt 0.6367 0.2708
vt 0.6359 0.2748
vt 0.6429 0.0289
vt 0.6432 0.0330
vt 0.6157 0.0190
vt 0.6192 0.0169
vt 0.7150 0.1629
vt 0.7113 0.1645
vt 0.7117 0.1404
vt 0.7154 0.1421
vt 0.5149 0.2882
vt 0.5135 0.2844
vt 0.5436 0.2905
vt 0.5409 0.2935
vt 0.3642 0.1398
vt 0.3679 0.1382
vt 0.3679 0.1616
vt 0.3642 0.1600
vt 0.5506 0.0054
vt 0.5533 0.0084
vt 0.5209 0.0128
vt 0.5227 0.0091
vt 0.6012 0.2695
vt 0.6305 0.2567
vt 0.6959 0.1642
vt 0.6963 0.1401
vt 0.3833 0.1382
vt 0.3833 0.1616
vt 0.5554 0.0237
vt 0.5230 0.0281
vt 0.6362 0.0467
vt 0.6087 0.0328
vt 0.5166 0.2693
vt 0.5467 0.2754
vt 0.6321 0.0493
vt 0.6092 0.0376
vt 0.5199 0.2658
vt 0.5450 0.2709
vt 0.6020 0.2647
vt 0.6264 0.2541
vt 0.6915 0.1622
vt 0.6918 0.1421
vt 0.3877 0.1402
vt 0.3877 0.1597
vt 0.5532 0.0280
vt 0.5262 0.0317
vt 0.6610 0.1620
vt 0.6613 0.1412
vt 0.4181 0.1398
vt 0.4181 0.1600
vt 0.5578 0.0581
vt 0.5298 0.0619
vt 0.6204 0.0774
vt 0.5950 0.0645
vt 0.5255 0.2360
vt 0.5515 0.2412
vt 0.5894 0.2371
vt 0.6164 0.2252
vt 0.5321 0.2078
vt 0.5542 0.2121
vt 0.5805 0.2092
vt 0.6035 0.1994
vt 0.6322 0.1592
vt 0.6325 0.1433
vt 0.4469 0.1421
vt 0.4469 0.1576
vt 0.5583 0.0873
vt 0.5348 0.0903
vt 0.6061 0.1026
vt 0.5844 0.0918
vt 0.4652 0.1421
vt 0.4652 0.1567
vt 0.5597 0.1027
vt 0.5277 0.1072
vt 0.6013 0.1174
vt 0.5779 0.1058
vt 0.5259 0.1906
vt 0.5566 0.1969
vt 0.5749 0.1948
vt 0.5995 0.1843
vt 0.6167 0.1585
vt 0.6169 0.1435
vt 0.5054 0.1718
vt 0.5599 0.1853
vt 0.5692 0.1842
vt 0.5964 0.1727
vt 0.6047 0.1595
vt 0.6050 0.1422
vt 0.4930 0.1401
vt 0.4930 0.1569
vt 0.5624 0.1144
vt 0.5062 0.1250
vt 0.5975 0.1288
vt 0.5716 0.1160
vt 0.5052 0.1400
vt 0.5052 0.1568
vt 0.5646 0.1262
vt 0.5062 0.1371
vt 0.5922 0.1395
vt 0.5663 0.1267
vt 0.5060 0.1596
vt 0.5627 0.1737
vt 0.5645 0.1733
vt 0.5918 0.1617
vt 0.5928 0.1593
vt 0.5931 0.1420
vt 0.5135 0.1560
vt 0.5623 0.1682
vt 0.5863 0.1581
vt 0.5865 0.1429
vt 0.5135 0.1412
vt 0.5638 0.1317
vt 0.7379 0.6011
vt 0.7449 0.6190
vt 0.7119 0.6281
vt 0.7037 0.6053
vt 0.6730 0.4649
vt 0.6904 0.4610
vt 0.7242 0.4556
vt 0.6681 0.6417
vt 0.6574 0.6153
vt 0.6917 0.5833
vt 0.6438 0.5892
vt 0.6836 0.4876
vt 0.7202 0.4812
vt 0.6372 0.4972
vt 0.7285 0.5799
vt 0.6844 0.5350
vt 0.7211 0.5345
vt 0.6401 0.5438
vt 0.6532 0.7233
vt 0.6487 0.7705
vt 0.7455 0.9234
vt 0.6910 0.8949
vt 0.7759 0.9484
vt 0.7899 0.9180
vt 0.6505 0.6551
vt 0.6835 0.6969
vt 0.7612 0.9764
vt 0.7294 0.9561
vt 0.6754 0.9198
vt 0.8347 0.8911
vt 0.7381 0.6884
vt 0.7520 0.5296
vt 0.7876 0.5762
vt 0.7716 0.5900
vt 0.7372 0.5425
vt 0.8093 0.4179
vt 0.8609 0.4369
vt 0.8401 0.4920
vt 0.7889 0.4691
vt 0.8135 0.3912
vt 0.8664 0.3777
vt 0.8191 0.5324
vt 0.7658 0.5105
vt 0.8866 0.5100
vt 0.9280 0.5284
vt 0.9009 0.5901
vt 0.8637 0.5633
vt 0.8746 0.6257
vt 0.8316 0.6038
vt 0.8290 0.6664
vt 0.8001 0.6298
vt 0.9031 0.4547
vt 0.9454 0.4760
vt 0.9120 0.3876
vt 0.9575 0.4040
vt 0.9770 0.4937
vt 0.9519 0.5398
vt 0.9233 0.6020
vt 0.8970 0.6398
vt 0.8464 0.6866
vt 0.9852 0.5561
vt 0.9537 0.6184
vt 0.9256 0.6516
vt 0.8653 0.7079
vt 0.8770 0.9583
vt 0.8499 0.9318
vt 0.8611 0.9064
vt 0.9029 0.9192
vt 0.8887 0.8350
vt 0.8479 0.8482
vt 0.8335 0.8073
vt 0.8303 0.7980
vt 0.8752 0.7821
vt 0.8956 0.8751
vt 0.8520 0.8798
vt 0.8569 0.9848
vt 0.8303 0.9619
vt 0.8563 0.7531
vt 0.0542 0.6510
vt 0.0849 0.6744
vt 0.0502 0.7365
vt 0.0193 0.7125
vt 0.0109 0.8213
vt 0.0519 0.8192
vt 0.0593 0.8800
vt 0.0180 0.8850
vt 0.0809 0.9448
vt 0.0258 0.9751
vt -0.0006 0.7647
vt 0.0486 0.7771
vt 0.1047 0.8710
vt 0.1518 0.9396
vt 0.1210 0.7058
vt 0.0910 0.7543
vt 0.0901 0.7913
vt 0.0943 0.8146
vt 0.1624 0.8773
vt 0.1763 0.8975
vt 0.1724 0.7615
vt 0.1426 0.7926
vt 0.1470 0.8174
vt 0.1479 0.8304
vt 0.1498 0.9512
vt 0.0853 0.9535
vt 0.0277 0.9861
vt 0.0086 0.9881
vt 0.5615 0.5549
vt 0.5820 0.6228
vt 0.5348 0.6068
vt 0.5489 0.6775
vt 0.3628 0.1856
vt 0.5414 0.5513
vt 0.2945 0.0894
vt 0.2899 0.0946
vt 0.2732 0.0825
vt 0.2780 0.0768
vt 0.3339 0.0692
vt 0.3158 0.0764
vt 0.3078 0.0583
vt 0.3272 0.0510
vt 0.3434 0.0677
vt 0.3481 0.0490
vt 0.3012 0.0845
vt 0.2935 0.0657
vt 0.3504 0.0670
vt 0.3504 0.0483
vt 0.3014 0.0419
vt 0.2826 0.0500
vt 0.2731 0.0368
vt 0.2949 0.0273
vt 0.2683 0.0613
vt 0.2606 0.0462
vt 0.2591 0.0724
vt 0.2462 0.0622
vt 0.3209 0.0361
vt 0.3134 0.0212
vt 0.3446 0.0329
vt 0.3388 0.0169
vt 0.2909 0.0189
vt 0.3072 0.0100
vt 0.2690 0.0289
vt 0.2556 0.0382
vt 0.2391 0.0561
vt 0.2852 0.0071
vt 0.2632 0.0182
vt 0.2515 0.0281
vt 0.2316 0.0494
vt 0.4063 0.0894
vt 0.4228 0.0768
vt 0.4276 0.0825
vt 0.4109 0.0946
vt 0.3669 0.0692
vt 0.3736 0.0510
vt 0.3930 0.0583
vt 0.3850 0.0764
vt 0.3575 0.0677
vt 0.3527 0.0490
vt 0.4073 0.0658
vt 0.3996 0.0845
vt 0.3994 0.0419
vt 0.4059 0.0273
vt 0.4277 0.0369
vt 0.4182 0.0500
vt 0.4402 0.0462
vt 0.4325 0.0613
vt 0.4546 0.0622
vt 0.4417 0.0724
vt 0.3799 0.0361
vt 0.3874 0.0212
vt 0.3562 0.0329
vt 0.3620 0.0169
vt 0.3936 0.0100
vt 0.4099 0.0189
vt 0.4319 0.0290
vt 0.4452 0.0382
vt 0.4617 0.0561
vt 0.4157 0.0071
vt 0.4376 0.0182
vt 0.4494 0.0282
vt 0.4692 0.0494
vn -0.5916 0.7954 0.1315
vn -0.9207 -0.1150 0.3728
vn -0.8539 0.2088 -0.4766
vn -0.5847 0.5579 -0.5889
vn 0.3684 0.8854 -0.2834
vn -0.1441 0.6663 -0.7316
vn -0.9693 -0.0027 0.2459
vn -0.7446 0.1496 -0.6505
vn -0.6959 -0.4873 -0.5275
vn -0.9445 -0.2357 0.2286
vn 0.1929 0.0727 -0.9785
vn 0.6655 -0.5039 -0.5506
vn 0.7289 -0.2063 -0.6528
vn 0.2080 -0.4499 -0.8685
vn 0.3382 -0.9342 0.1129
vn -0.6158 -0.6266 0.4777
vn -0.9728 0.0849 0.2155
vn 0.0770 0.2438 -0.9667
vn -0.9575 0.0862 -0.2751
vn -0.6607 0.7207 -0.2098
vn -0.6772 -0.2004 -0.7079
vn -0.6149 -0.6194 -0.4880
vn 0.0010 -0.2980 -0.9546
vn 0.3203 0.2826 -0.9042
vn 0.5664 0.1537 -0.8096
vn 0.2359 -0.5214 -0.8200
vn 0.2405 0.8048 -0.5426
vn -0.7213 -0.6923 0.0218
vn -0.7417 -0.0478 0.6690
vn 0.2801 -0.7857 0.5516
vn 0.7277 -0.5701 -0.3813
vn -0.8324 0.5226 0.1842
vn -0.6421 0.5819 -0.4990
vn -0.6965 0.4277 -0.5761
vn -0.8957 0.3702 0.2460
vn -0.6399 -0.1379 0.7559
vn -0.9324 0.2129 0.2919
vn -0.4107 -0.3461 0.8435
vn 0.0283 0.1251 -0.9917
vn 0.3807 0.2405 -0.8928
vn -0.7060 0.4272 -0.5648
vn -0.6197 -0.0666 -0.7820
vn -0.7201 0.2034 0.6633
vn 0.6599 -0.5755 0.4830
vn 0.9347 -0.1546 -0.3200
vn 0.9543 -0.1030 0.2805
vn 0.6540 -0.7085 0.2652
vn 0.6381 0.5837 0.5020
vn -0.1602 -0.7906 0.5910
vn -0.4036 -0.2183 0.8885
vn -0.1732 0.4731 0.8638
vn 0.1149 0.1124 0.9870
vn 0.7278 0.2037 0.6549
vn 0.2946 -0.5606 0.7739
vn -0.0529 -0.3207 0.9457
vn 0.8613 -0.2239 0.4560
vn 0.6062 -0.5409 0.5830
vn 0.6782 -0.7237 -0.1277
vn 0.8301 -0.1394 -0.5398
vn 0.9255 -0.3421 -0.1624
vn 0.7074 -0.6920 -0.1437
vn 0.3898 0.8988 0.2004
vn 0.2579 -0.8755 0.4087
vn 0.2527 0.4316 0.8659
vn 0.7511 0.1352 -0.6462
vn 0.7615 -0.5900 -0.2682
vn 0.4071 0.8523 -0.3285
vn -0.7518 -0.1536 0.6412
vn -0.3198 -0.8426 0.4333
vn -0.3135 -0.7962 0.5175
vn -0.6737 -0.2012 0.7111
vn -0.5635 0.6591 0.4981
vn -0.5445 0.5380 0.6434
vn 0.1994 0.9614 -0.1894
vn -0.4369 0.4743 0.7642
vn -0.4767 -0.2585 0.8402
vn 0.3813 -0.1198 0.9167
vn 0.0464 0.5061 0.8612
vn -0.1175 -0.7548 0.6453
vn 0.9062 -0.3789 -0.1876
vn 0.3244 -0.6207 0.7137
vn 0.9814 0.1662 -0.0959
vn 0.6047 0.7956 -0.0370
vn 0.1426 -0.4373 -0.8879
vn 0.0870 0.8709 -0.4837
vn 0.5521 0.7866 -0.2762
vn 0.7124 -0.2670 -0.6489
vn 0.5943 0.3529 0.7227
vn 0.6528 -0.6441 0.3987
vn -0.4921 -0.8669 -0.0793
vn 0.4139 -0.7926 -0.4477
vn 0.8973 0.0798 -0.4340
vn -0.0330 0.4204 -0.9067
vn 0.3013 0.3091 -0.9020
vn -0.2251 -0.5197 -0.8241
vn 0.2002 0.2388 -0.9502
vn -0.6695 0.3768 -0.6401
vn -0.6264 0.3404 -0.7012
vn 0.1726 -0.4515 0.8754
vn 0.1155 -0.5705 0.8131
vn 0.3169 -0.7240 0.6127
vn 0.6609 -0.6730 0.3319
vn -0.5646 -0.3938 0.7253
vn -0.6798 -0.4186 0.6022
vn 0.4476 -0.6964 0.5609
vn -0.5423 -0.6358 0.5492
vn -0.5437 -0.5922 0.5947
vn 0.4431 -0.6522 0.6150
vn -0.4460 0.6830 -0.5784
vn 0.5019 0.6354 -0.5868
vn 0.2108 0.9742 0.0802
vn -0.1644 0.9823 0.0896
vn -0.4845 0.4444 -0.7534
vn 0.5233 0.3984 -0.7533
vn 0.5379 0.5071 -0.6734
vn -0.4975 0.5595 -0.6628
vn 0.5655 0.4198 -0.7099
vn -0.5197 0.4824 -0.7051
vn -0.5862 -0.5516 0.5934
vn 0.4619 -0.6484 0.6051
vn -0.9987 0.0498 -0.0068
vn -0.9942 0.0859 0.0637
vn 0.9984 -0.0534 0.0189
vn 0.9921 -0.1247 0.0131
vn 0.4273 -0.6034 0.6732
vn 0.9899 -0.1384 -0.0287
vn 0.9938 -0.1109 0.0097
vn 0.6228 -0.7741 -0.1132
vn 0.0112 -0.9927 -0.1196
vn -0.9935 0.1108 0.0256
vn -0.9982 -0.0063 -0.0590
vn -0.9996 0.0091 -0.0263
vn -0.4891 0.7909 0.3677
vn -0.9978 0.0653 -0.0088
vn -0.5181 -0.5520 0.6533
vn -0.3151 0.4361 0.8429
vn 0.2800 0.4114 0.8674
vn -0.3477 0.8800 -0.3236
vn -0.7893 0.5492 0.2747
vn 0.5334 0.7526 0.3860
vn 0.8051 0.5061 0.3093
vn 0.4097 0.8600 -0.3040
vn -0.3997 0.2184 0.8903
vn 0.3518 0.1897 0.9166
vn -0.3629 -0.1932 -0.9116
vn -0.8048 -0.5083 -0.3064
vn 0.3938 -0.2160 -0.8934
vn -0.4157 -0.8596 0.2970
vn 0.3369 -0.8832 0.3263
vn 0.7904 -0.5499 -0.2698
vn 0.5264 -0.7559 -0.3892
vn 0.2995 -0.4740 -0.8280
vn -0.5520 -0.7248 -0.4123
vn -0.3047 -0.9520 0.0284
vn -0.2834 -0.4624 -0.8401
vn 0.2346 -0.9713 0.0381
vn 0.5260 0.3657 -0.7678
vn -0.4627 0.4006 -0.7908
vn -0.5147 -0.4683 0.7181
vn 0.4321 -0.5058 0.7466
vn 0.9944 -0.1052 0.0055
vn -0.9987 -0.0361 -0.0370
vn -0.9983 -0.0487 -0.0326
vn -0.5633 -0.4245 0.7088
vn -0.4925 0.3999 -0.7729
vn 0.5717 0.3435 -0.7450
vn 0.4446 -0.5026 0.7414
vn 0.9839 -0.1750 0.0365
vn -0.7006 0.2080 0.6825
vn 0.5143 0.1360 0.8467
vn 0.9702 0.1371 0.1994
vn 0.6054 0.5915 -0.5325
vn -0.9663 0.2552 0.0333
vn -0.4725 0.6464 -0.5991
vn -0.9654 0.2487 -0.0782
vn -0.6528 0.2029 0.7298
vn -0.4605 0.7185 -0.5213
vn 0.6053 0.6821 -0.4102
vn 0.4379 0.1777 0.8813
vn 0.9711 0.1861 0.1491
vn -0.6225 -0.5874 0.5171
vn 0.4423 -0.6127 0.6549
vn 0.9874 -0.1031 -0.1201
vn 0.5871 0.4231 -0.6901
vn -0.9310 -0.0438 -0.3624
vn -0.3681 0.4644 -0.8055
vn -0.5195 -0.6165 -0.5916
vn -0.4437 -0.8885 -0.1171
vn -0.2140 -0.1960 -0.9569
vn 0.4270 -0.2314 -0.8741
vn 0.4158 -0.9094 -0.0106
vn 0.6094 -0.6449 -0.4612
vn -0.1149 0.1269 -0.9852
vn 0.0087 0.1747 -0.9846
vn -0.1935 -0.3368 0.9214
vn 0.0181 -0.4553 0.8901
vn 0.3051 -0.5750 0.7591
vn 0.1178 -0.4621 0.8790
vn -0.2042 0.0375 -0.9782
vn 0.0472 -0.0138 -0.9988
vn -0.6871 0.0355 -0.7257
vn -0.7869 0.1018 -0.6085
vn -0.7200 -0.2768 0.6364
vn -0.8610 0.0455 0.5065
vn -0.9952 -0.0833 -0.0501
vn -0.9796 0.1922 0.0586
vn -0.3716 -0.0616 0.9263
vn 0.0345 -0.0526 0.9980
vn 0.0001 0.0744 0.9972
vn -0.3511 0.0511 0.9349
vn -0.2701 0.2364 -0.9333
vn -0.1663 0.5102 -0.8438
vn 0.0262 0.1696 -0.9851
vn 0.0000 0.5543 -0.8323
vn 0.7537 0.2860 -0.5917
vn 0.2876 0.7645 -0.5768
vn -0.9066 0.3568 0.2252
vn -0.5788 -0.2457 0.7776
vn -0.0086 -0.5619 0.8271
vn -0.7073 0.6869 -0.1671
vn -0.1425 -0.4154 0.8983
vn -0.9304 0.2827 0.2330
vn -0.7465 0.6422 -0.1741
vn -0.8005 0.5276 -0.2841
vn -0.9680 0.1831 0.1717
vn 0.2411 0.6863 -0.6862
vn 0.1549 0.6550 -0.7395
vn 0.8068 0.1204 -0.5785
vn 0.8246 0.2429 -0.5109
vn -0.5750 -0.3228 0.7517
vn -0.5960 -0.3921 0.7007
vn -0.0052 -0.6112 0.7914
vn -0.0126 -0.6808 0.7323
vn -0.9790 0.1593 0.1268
vn -0.8381 -0.1585 0.5219
vn -0.8435 0.4443 -0.3018
vn 0.1705 0.5086 -0.8439
vn 0.8124 0.1875 -0.5520
vn -0.9803 0.1782 0.0847
vn -0.8660 0.4302 -0.2551
vn -0.1500 0.5494 -0.8220
vn 0.7942 0.0704 -0.6036
vn -0.5849 0.5960 -0.5501
vn -0.1457 0.4457 -0.8832
vn -0.4878 0.0510 0.8715
vn -0.0861 0.3211 0.9431
vn -0.7751 0.2755 0.5686
vn -0.8856 0.4619 0.0471
vn 0.0000 0.4449 -0.8955
vn -0.2050 0.3403 -0.9177
vn 0.0000 0.2916 -0.9565
vn -0.8701 0.2116 0.4451
vn -0.9310 0.3646 -0.0186
vn -0.1306 -0.0389 0.9907
vn -0.6814 0.4356 -0.5881
vn -0.4523 -0.4995 0.7388
vn -0.8725 0.3490 0.3420
vn -0.1846 0.5436 -0.8188
vn 0.0000 0.5083 -0.8612
vn -0.8315 0.5501 -0.0770
vn -0.5942 0.6334 -0.4957
vn -0.4758 0.5642 0.6747
vn -0.5867 0.7110 0.3875
vn -0.1588 0.8050 -0.5715
vn 0.0000 0.7903 -0.6127
vn -0.5469 0.8370 0.0180
vn -0.3389 0.8990 -0.2771
vn 0.0051 -0.6825 0.7308
vn -0.0003 0.5610 0.8278
vn 0.0000 1.0000 -0.0071
vn 0.2379 -0.2791 0.9303
vn 0.1126 -0.7787 0.6171
vn -0.2270 0.4946 0.8389
vn -0.0019 -0.8190 0.5737
vn -0.5171 -0.1040 0.8496
vn 0.0000 -0.1545 0.9880
vn 0.0000 -0.0874 0.9962
vn 0.5165 0.2542 0.8177
vn 0.9407 0.3389 0.0108
vn 0.9938 -0.1093 0.0214
vn 0.5531 -0.5872 0.5910
vn -0.0577 0.9961 0.0665
vn 0.6637 0.7008 -0.2614
vn 0.9801 -0.1569 -0.1214
vn 0.7960 -0.4781 0.3712
vn 0.3925 -0.8822 -0.2602
vn 0.4598 -0.6865 -0.5633
vn -0.6505 -0.7561 0.0716
vn -0.4161 -0.6850 -0.5980
vn -0.9803 0.1933 0.0389
vn -0.7448 -0.2237 0.6287
vn -0.2276 0.4946 0.8388
vn -0.0623 0.7659 0.6399
vn 0.6689 0.2405 0.7033
vn 0.8100 0.4476 0.3788
vn 0.8509 0.3572 0.3851
vn 0.9391 -0.3037 0.1609
vn 0.5665 -0.6911 -0.4488
vn 0.8556 -0.3115 -0.4133
vn 0.4133 0.0205 -0.9103
vn 0.0792 -0.1296 -0.9884
vn 0.0038 0.5951 -0.8036
vn 0.3074 0.5935 -0.7438
vn 0.3193 0.9305 -0.1794
vn 0.4669 -0.7951 0.3871
vn -0.8979 -0.2107 0.3866
vn -0.1297 0.5075 0.8518
vn 0.3090 0.0654 0.9488
vn 0.7712 0.5988 -0.2159
vn 0.8501 0.3928 -0.3507
vn 0.8684 -0.0776 -0.4898
vn 0.6540 0.3617 -0.6644
vn 0.6561 0.6828 0.3212
vn 0.7155 0.6589 0.2319
vn 0.9242 0.0866 -0.3720
vn 0.4086 -0.5867 -0.6991
vn -0.7373 -0.6380 -0.2220
vn -0.4854 -0.7435 -0.4600
vn 0.8371 0.0033 -0.5471
vn 0.6957 0.5379 0.4760
vn -0.4053 0.5739 0.7115
vn -0.9248 -0.0230 0.3797
vn -0.8704 -0.3638 -0.3318
vn -0.9441 0.2866 -0.1627
vn -0.6028 0.6681 0.4361
vn -0.1946 -0.5938 0.7807
vn -0.4048 -0.8931 0.1962
vn -0.1663 0.1069 0.9802
vn -0.5672 -0.0961 0.8179
vn -0.8644 0.3488 0.3620
vn -0.7987 -0.5316 0.2817
vn -0.5368 -0.5320 0.6548
vn -0.9946 0.0970 -0.0378
vn -0.9463 -0.3225 0.0201
vn -0.6923 -0.2679 -0.6700
vn -0.6984 -0.2234 -0.6799
vn -0.7629 0.1800 -0.6209
vn -0.4329 0.4016 -0.8070
vn -0.1556 0.8953 0.4174
vn -0.5232 0.2692 0.8085
vn -0.6732 -0.7255 -0.1431
vn -0.6484 -0.0806 -0.7570
vn -0.2345 0.6247 -0.7448
vn 0.0887 0.9951 -0.0435
vn 0.2323 -0.6394 0.7329
vn 0.1194 -0.6609 0.7409
vn -0.2450 -0.9508 0.1893
vn -0.2101 -0.9723 0.1021
vn 0.3907 0.1743 0.9039
vn 0.2654 0.0442 0.9631
vn 0.2165 0.9567 0.1942
vn 0.0979 0.0101 0.9951
vn -0.3326 0.2378 0.9126
vn -0.8136 -0.1521 0.5611
vn -0.1225 -0.6500 0.7500
vn -0.4567 -0.8563 0.2409
vn -0.8094 -0.5538 0.1950
vn -0.7451 0.1460 -0.6507
vn -0.6941 0.6214 -0.3634
vn -0.2371 0.9664 0.0988
vn 0.2138 -0.0847 -0.9732
vn -0.3190 0.2656 -0.9097
vn -0.0743 0.9938 -0.0823
vn 0.4321 0.9006 -0.0462
vn -0.9192 -0.3428 -0.1935
vn -0.7481 0.3967 0.5319
vn 0.1158 -0.9898 -0.0823
vn -0.4427 -0.2678 -0.8557
vn -0.4187 0.5715 -0.7057
vn 0.2068 0.1158 -0.9715
vn -0.3252 -0.7387 -0.5904
vn 0.4819 0.1202 -0.8679
vn 0.4336 -0.5069 -0.7450
vn 0.2192 -0.0548 0.9741
vn 0.3754 -0.4989 0.7811
vn 0.8387 -0.1133 0.5326
vn 0.7100 -0.3490 0.6115
vn -0.4655 0.7087 0.5301
vn -0.3806 0.4654 0.7991
vn 0.4341 0.4925 0.7543
vn 0.4400 0.7349 0.5160
vn 0.3630 0.7682 -0.5274
vn 0.1133 0.9819 -0.1519
vn -0.2131 0.9650 -0.1529
vn -0.4978 0.7130 -0.4937
vn 0.4887 -0.8133 0.3157
vn 0.9680 0.2504 -0.0183
vn -0.9890 0.0970 0.1111
vn -0.3828 -0.8646 0.3254
vn 0.5105 -0.8482 -0.1411
vn -0.4035 -0.9064 -0.1245
vn -0.5811 0.7481 0.3202
vn 0.4514 0.8419 0.2957
vn 0.9991 0.0100 -0.0396
vn 0.9386 0.0573 -0.3401
vn -0.9604 0.1722 0.2190
vn -0.3506 0.0262 0.9361
vn -0.9042 0.1930 0.3811
vn -0.9622 -0.1057 0.2508
vn -0.9923 -0.1086 0.0592
vn -0.4723 -0.8814 0.0024
vn 0.9963 -0.0106 -0.0853
vn 0.9369 0.2488 0.2454
vn 0.9819 -0.1166 0.1492
vn 0.9624 0.2408 0.1257
vn 0.4682 0.8725 0.1396
vn 0.4371 0.0700 0.8967
vn -0.2671 0.6095 0.7464
vn 0.2835 0.6423 0.7121
vn 0.7851 0.5962 0.1675
vn 0.3294 0.8158 -0.4753
vn -0.4351 0.7796 -0.4504
vn -0.8240 0.5171 0.2313
vn -0.5550 0.8119 0.1809
vn 0.4003 0.4097 0.8197
vn -0.3575 0.3682 0.8582
vn 0.8592 -0.4869 -0.1567
vn 0.3894 -0.3119 -0.8666
vn -0.4135 -0.3535 -0.8390
vn -0.3160 -0.7480 0.5835
vn 0.4435 -0.7120 0.5443
vn -0.8162 -0.5679 -0.1057
vn -0.3200 -0.6329 -0.7049
vn -0.5917 -0.7912 -0.1545
vn 0.3891 -0.8411 0.3756
vn 0.6596 -0.7230 -0.2052
vn 0.3335 -0.6008 -0.7264
vn -0.2636 -0.8773 0.4011
vn 0.4483 0.2429 -0.8603
vn -0.5425 0.1765 -0.8213
vn -0.4227 -0.3456 0.8378
vn 0.5394 -0.2655 0.7991
vn -0.9888 -0.1444 0.0376
vn 0.9992 0.0010 -0.0395
vn 0.6724 0.0426 0.7389
vn 0.9868 0.1135 -0.1152
vn 0.4485 0.2577 -0.8558
vn -0.6087 0.1140 -0.7852
vn -0.4405 -0.2958 0.8476
vn -0.9653 -0.2528 0.0647
vn -0.3037 0.4139 0.8581
vn 0.7265 0.5610 0.3968
vn -0.9618 0.0099 0.2736
vn -0.6947 0.3063 -0.6508
vn 0.8983 0.3476 -0.2686
vn 0.3290 0.4133 -0.8491
vn 0.8161 0.3292 0.4749
vn 0.8918 0.2092 -0.4011
vn 0.2921 0.3083 -0.9053
vn -0.7317 0.3116 -0.6062
vn -0.1767 0.3202 0.9307
vn -0.9386 0.1622 0.3044
vn -0.2097 -0.4959 0.8427
vn 0.7794 -0.4887 0.3919
vn -0.9594 -0.1885 0.2097
vn -0.7658 -0.1147 -0.6328
vn 0.8220 -0.2136 -0.5278
vn 0.1579 -0.1258 -0.9794
vn 0.4310 -0.8960 -0.1068
vn 0.4289 -0.7900 -0.4381
vn 0.0723 -0.7299 -0.6797
vn -0.5467 -0.7209 -0.4259
vn -0.3580 -0.9000 0.2488
vn -0.6264 -0.7794 0.0146
vn 0.0457 0.2233 -0.9737
vn 0.2971 -0.4546 0.8397
vn 0.3201 -0.7000 0.6384
vn 0.1726 0.0485 -0.9838
vn 0.6167 0.1306 -0.7763
vn 0.7417 0.0761 -0.6664
vn 0.7134 -0.5065 0.4842
vn 0.8435 -0.1496 0.5158
vn 0.9845 -0.1729 -0.0282
vn 0.9999 0.0087 -0.0005
vn 0.3168 -0.0903 0.9442
vn 0.2947 0.1455 0.9444
vn 0.2635 0.1922 -0.9453
vn 0.1620 0.5188 -0.8394
vn 0.6326 0.0608 -0.7721
vn 0.4826 0.8567 0.1817
vn 0.8348 0.4425 -0.3275
vn -0.5685 0.5705 0.5927
vn 0.6878 0.1259 -0.7149
vn 0.8972 0.3542 -0.2637
vn 0.9787 0.1877 -0.0832
vn 0.8013 -0.0037 -0.5982
vn 0.7400 -0.0373 -0.6716
vn 0.6906 0.1083 -0.7150
vn 0.7151 -0.0025 -0.6990
vn 0.5273 0.7769 0.3439
vn 0.5893 0.4856 0.6456
vn -0.0129 0.8264 0.5628
vn 0.0129 0.5256 0.8506
vn 0.8528 0.3455 0.3914
vn 0.9745 0.2048 -0.0910
vn 0.8089 0.0714 -0.5835
vn 0.7105 0.1278 -0.6920
vn 0.9467 0.2889 -0.1425
vn 0.8549 0.1193 -0.5049
vn 0.6685 -0.0268 -0.7432
vn 0.1662 0.4308 -0.8870
vn 0.6145 0.5108 -0.6012
vn 0.7962 0.2326 0.5585
vn 0.1773 0.2829 0.9426
vn 0.5256 0.0275 0.8503
vn 0.8898 0.4532 -0.0530
vn 0.2050 0.3403 -0.9177
vn 0.9310 0.3646 -0.0186
vn 0.8701 0.2116 0.4451
vn 0.1306 -0.0389 0.9907
vn 0.6814 0.4356 -0.5881
vn 0.8725 0.3490 0.3420
vn 0.4545 -0.5002 0.7371
vn 0.1846 0.5436 -0.8188
vn 0.5942 0.6334 -0.4957
vn 0.8315 0.5501 -0.0770
vn 0.5867 0.7110 0.3875
vn 0.4765 0.5651 0.6735
vn 0.1588 0.8050 -0.5715
vn 0.3389 0.8990 -0.2771
vn 0.5469 0.8370 0.0180
vn -0.1131 -0.7797 0.6159
vn -0.2379 -0.2791 0.9303
vn 0.2270 0.4946 0.8389
vn 0.5171 -0.1040 0.8496
vn 0.1300 0.8529 -0.5056
vn 0.7500 0.4635 -0.4718
vn 0.7803 0.2679 -0.5650
vn 0.3031 0.7574 -0.5783
vn -0.5559 -0.3238 0.7656
vn -0.9240 0.3213 0.2073
vn -0.9067 0.3568 0.2246
vn -0.5781 -0.2427 0.7790
vn -0.0939 -0.5451 0.8330
vn -0.0296 -0.5609 0.8273
vn -0.6568 0.7086 -0.2576
vn -0.7081 0.6857 -0.1686
vn -0.8863 0.0674 0.4580
vn -0.2875 -0.4145 0.8634
vn -0.9305 0.2824 0.2332
vn -0.7471 0.6413 -0.1747
vn -0.9680 0.1832 0.1716
vn 0.2504 0.6828 -0.6863
vn 0.1623 0.6528 -0.7399
vn 0.8205 0.1220 -0.5584
vn 0.8305 0.2467 -0.4993
vn -0.5742 -0.3217 0.7528
vn -0.0047 -0.6086 0.7934
vn -0.9790 0.1594 0.1268
vn -0.8381 -0.1584 0.5220
vn -0.8435 0.4440 -0.3023
vn 0.1780 0.5049 -0.8446
vn 0.8176 0.1687 -0.5505
vn -0.9803 0.1781 0.0850
vn -0.8663 0.4292 -0.2553
vn -0.1480 0.5482 -0.8231
vn 0.7929 0.0253 -0.6087
vn 0.5366 0.2163 -0.8156
vn 0.6456 0.0526 -0.7618
vn 0.4841 0.5948 0.6417
vn 0.4923 0.8441 0.2126
vn 0.8483 0.4265 -0.3138
vn 0.8737 0.4344 -0.2188
vn -0.1798 0.4183 0.8903
vn -0.5860 0.5796 0.5663
vn 0.6756 0.1033 -0.7299
vn 0.5944 0.1661 -0.7868
vn 0.9008 0.3595 -0.2434
vn 0.9715 0.2254 -0.0731
vn 0.8013 0.0253 -0.5977
vn 0.7392 -0.0264 -0.6730
vn 0.6866 0.1123 -0.7183
vn 0.7143 0.0156 -0.6997
vn 0.5265 0.7745 0.3504
vn 0.5806 0.5019 0.6411
vn -0.0143 0.8368 0.5472
vn 0.0124 0.5330 0.8460
vn 0.8355 0.3544 0.4198
vn 0.9779 0.2003 -0.0596
vn 0.8200 0.0305 -0.5715
vn 0.7140 0.0736 -0.6962
vn 0.9736 0.2089 -0.0914
vn 0.8794 0.0165 -0.4758
vn 0.6706 -0.1339 -0.7296
usemtl Material
s 1
f 81/1/1 82/2/2 28/3/3 29/4/4
f 86/5/5 81/1/1 29/4/4 24/6/6
f 89/7/7 87/8/8 10/9/9 11/10/10
f 91/11/11 90/12/12 8/13/13 9/14/14
f 88/15/15 92/16/16 80/17/17 7/18/18
f 87/8/8 91/11/11 9/14/14 10/9/9
f 29/4/4 28/3/3 40/19/19 41/20/20
f 28/3/3 27/21/21 37/22/22 40/19/19
f 26/23/23 25/24/24 38/25/25 39/26/26
f 24/6/6 29/4/4 41/20/20 30/27/27
f 17/28/28 13/29/29 20/30/30 22/31/31
f 14/32/32 15/33/33 18/34/34 21/35/35
f 19/36/36 21/35/35 4/37/37 2/38/38
f 18/34/34 23/39/39 1/40/40 5/41/41
f 15/33/33 16/42/42 23/39/39 18/34/34
f 13/29/29 12/43/43 19/36/36 20/30/30
f 12/43/43 14/32/32 21/35/35 19/36/36
f 16/42/42 17/44/28 22/45/31 23/39/39
f 20/30/30 19/36/36 2/38/38 3/46/44
f 22/31/31 20/30/30 3/46/44 6/47/45
f 23/39/39 22/45/31 6/48/45 1/40/40
f 21/35/35 18/34/34 5/41/41 4/37/37
f 27/21/21 26/23/23 39/26/26 37/22/22
f 25/24/24 24/49/6 30/50/27 38/25/25
f 90/12/12 88/51/15 7/52/18 8/13/13
f 92/16/16 89/7/7 11/10/10 80/17/17
f 39/26/26 38/25/25 46/53/46 47/54/47
f 38/25/25 30/50/27 43/55/48 46/53/46
f 40/19/19 37/22/22 45/56/49 44/57/50
f 37/22/22 39/26/26 47/54/47 45/56/49
f 41/20/20 40/19/19 44/57/50 42/58/51
f 30/27/27 41/20/20 42/58/51 43/59/48
f 32/60/52 31/61/53 43/59/48 42/58/51
f 34/62/54 33/63/55 44/57/50 45/56/49
f 33/63/55 32/60/52 42/58/51 44/57/50
f 35/64/56 36/65/57 47/54/47 46/53/46
f 36/65/57 34/62/54 45/56/49 47/54/47
f 31/66/53 35/64/56 46/53/46 43/55/48
f 68/67/58 67/68/59 52/69/60 53/70/61
f 48/71/62 52/72/60 74/73/63 73/74/64
f 53/70/61 52/69/60 58/75/65 59/76/66
f 52/69/60 48/77/62 55/78/67 58/75/65
f 70/79/68 69/80/69 51/81/70 50/82/71
f 69/80/69 68/67/58 53/70/61 51/81/70
f 71/83/72 70/79/68 50/82/71 49/84/73
f 66/85/74 71/86/72 49/87/73 48/77/62
f 54/88/75 56/89/76 62/90/77 60/91/78
f 57/92/79 59/76/66 65/93/80 63/94/81
f 50/82/71 51/81/70 57/92/79 56/89/76
f 51/81/70 53/70/61 59/76/66 57/92/79
f 49/84/73 50/82/71 56/89/76 54/88/75
f 48/77/62 49/87/73 54/95/75 55/78/67
f 63/94/81 65/93/80 64/96/82 62/90/77
f 61/97/83 60/91/78 62/90/77 64/96/82
f 55/78/67 54/95/75 60/98/78 61/99/83
f 58/75/65 55/78/67 61/99/83 64/100/82
f 59/76/66 58/75/65 64/100/82 65/93/80
f 56/89/76 57/92/79 63/94/81 62/90/77
f 31/101/53 32/102/52 71/86/72 66/85/74
f 32/103/52 33/104/55 70/79/68 71/83/72
f 34/105/54 36/106/57 68/67/58 69/80/69
f 33/104/55 34/105/54 69/80/69 70/79/68
f 35/107/56 31/101/53 66/85/74 67/68/59
f 36/106/57 35/107/56 67/68/59 68/67/58
f 75/108/84 72/109/85 76/110/86 79/111/87
f 66/112/74 48/71/62 73/74/64 72/113/85
f 52/72/60 67/114/59 75/108/84 74/73/63
f 67/114/59 66/115/74 72/109/85 75/108/84
f 79/111/87 76/110/86 77/116/88 78/117/89
f 73/74/64 74/73/63 78/117/89 77/118/88
f 74/73/63 75/108/84 79/111/87 78/117/89
f 72/113/85 73/74/64 77/118/88 76/119/86
f 83/120/90 84/121/91 26/23/23 27/21/21
f 82/2/2 83/120/90 27/21/21 28/3/3
f 85/122/92 86/123/5 24/49/6 25/24/24
f 84/121/91 85/122/92 25/24/24 26/23/23
f 9/14/14 8/13/13 85/122/92 84/121/91
f 8/13/13 7/52/18 86/123/5 85/122/92
f 11/10/10 10/9/9 83/120/90 82/2/2
f 10/9/9 9/14/14 84/121/91 83/120/90
f 7/18/18 80/17/17 81/1/1 86/5/5
f 80/17/17 11/10/10 82/2/2 81/1/1
f 2/124/38 4/125/37 89/7/7 92/16/16
f 6/126/45 3/127/44 88/51/15 90/12/12
f 5/128/41 1/129/40 91/11/11 87/8/8
f 3/130/44 2/124/38 92/16/16 88/15/15
f 1/129/40 6/126/45 90/12/12 91/11/11
f 4/125/37 5/128/41 87/8/8 89/7/7
f 96/131/93 344/132/94 350/133/95 100/134/96
f 94/135/97 96/131/93 100/134/96 98/136/98
f 343/137/99 95/138/100 99/139/101 349/140/102
f 95/138/100 93/141/103 97/142/104 99/139/101
f 245/143/105 243/144/106 101/145/107 103/146/108
f 238/147/109 237/148/110 108/149/111 106/150/112
f 246/151/113 244/152/114 104/153/115 102/154/116
f 98/136/98 100/134/96 111/155/117 112/156/118
f 99/139/101 97/142/104 109/157/119 110/158/120
f 113/159/121 109/157/119 97/142/104 120/160/122
f 241/161/123 118/162/124 103/146/108 240/163/125
f 247/164/126 245/143/105 103/146/108 118/162/124
f 119/165/127 111/155/117 100/134/96 121/166/128
f 365/167/129 121/166/128 100/134/96 350/133/95
f 117/168/130 120/160/122 97/142/104 93/141/103
f 94/135/97 98/136/98 120/169/122 117/170/130
f 349/140/102 99/139/101 121/166/128 365/167/129
f 110/158/120 119/165/127 121/166/128 99/139/101
f 244/152/114 247/164/126 118/162/124 104/153/115
f 237/148/110 104/153/115 118/162/124 241/161/123
f 112/156/118 113/171/121 120/169/122 98/136/98
f 243/144/106 248/172/131 115/173/132 101/145/107
f 238/147/109 106/150/112 116/174/133 242/175/134
f 239/176/135 105/177/136 107/178/137 240/163/125
f 242/179/134 116/180/133 105/177/136 239/176/135
f 248/181/131 246/151/113 102/154/116 115/182/132
f 116/183/133 106/184/112 123/185/138 127/186/139
f 108/187/111 114/188/140 126/189/141 125/190/142
f 106/191/112 108/192/111 125/193/142 123/194/138
f 105/195/136 116/196/133 127/197/139 122/198/143
f 107/199/137 105/200/136 122/201/143 124/202/144
f 114/203/140 107/204/137 124/205/144 126/206/141
f 127/186/139 123/185/138 129/207/145 133/208/146
f 123/194/138 125/193/142 131/209/147 129/210/145
f 124/202/144 122/201/143 128/211/148 130/212/149
f 126/206/141 124/205/144 130/213/149 132/214/150
f 125/190/142 126/189/141 132/215/150 131/216/147
f 122/198/143 127/197/139 133/217/146 128/218/148
f 131/216/147 132/215/150 138/219/151 137/220/152
f 128/218/148 133/217/146 139/221/153 134/222/154
f 133/208/146 129/207/145 135/223/155 139/224/153
f 129/210/145 131/209/147 137/225/152 135/226/155
f 130/212/149 128/211/148 134/227/154 136/228/156
f 132/214/150 130/213/149 136/229/156 138/230/151
f 135/226/155 137/225/152 143/231/157 141/232/158
f 136/228/156 134/227/154 140/233/159 142/234/160
f 138/230/151 136/229/156 142/235/160 144/236/161
f 137/220/152 138/219/151 144/237/161 143/238/157
f 134/222/154 139/221/153 145/239/162 140/240/159
f 139/224/153 135/223/155 141/241/158 145/242/162
f 140/240/159 145/239/162 151/243/163 146/244/164
f 145/242/162 141/241/158 147/245/165 151/246/163
f 141/232/158 143/231/157 149/247/166 147/248/165
f 142/234/160 140/233/159 146/249/164 148/250/167
f 144/236/161 142/235/160 148/251/167 150/252/168
f 143/238/157 144/237/161 150/253/168 149/254/166
f 148/250/167 146/249/164 152/255/169 154/256/170
f 150/252/168 148/251/167 154/257/170 156/258/171
f 149/254/166 150/253/168 156/259/171 155/260/172
f 146/244/164 151/243/163 157/261/173 152/262/169
f 151/246/163 147/245/165 153/263/174 157/264/173
f 147/248/165 149/247/166 155/265/172 153/266/174
f 152/262/169 157/261/173 163/267/175 158/268/176
f 157/264/173 153/263/174 159/269/177 163/270/175
f 153/266/174 155/265/172 161/271/178 159/272/177
f 154/256/170 152/255/169 158/273/176 160/274/179
f 156/258/171 154/257/170 160/275/179 162/276/180
f 155/260/172 156/259/171 162/277/180 161/278/178
f 160/274/179 158/273/176 164/279/181 166/280/182
f 162/276/180 160/275/179 166/281/182 168/282/183
f 161/278/178 162/277/180 168/283/183 167/284/184
f 158/268/176 163/267/175 169/285/185 164/286/181
f 163/270/175 159/269/177 165/287/186 169/288/185
f 159/272/177 161/271/178 167/289/184 165/290/186
f 164/286/181 169/285/185 175/291/187 170/292/188
f 169/288/185 165/287/186 171/293/189 175/291/187
f 165/290/186 167/289/184 173/294/190 171/293/189
f 166/280/182 164/279/181 170/292/188 172/295/191
f 168/282/183 166/281/182 172/295/191 174/296/192
f 167/284/184 168/283/183 174/296/192 173/294/190
f 96/297/93 180/298/193 440/299/194 344/300/94
f 181/301/195 183/302/196 439/303/197 435/304/198
f 183/302/196 95/305/100 343/306/99 439/303/197
f 180/298/193 182/307/199 437/308/200 440/299/194
f 178/309/201 179/310/202 182/307/199 180/298/193
f 176/311/203 93/312/103 95/305/100 183/302/196
f 177/313/204 176/311/203 183/302/196 181/301/195
f 94/314/97 178/309/201 180/298/193 96/297/93
f 184/315/205 178/309/201 94/314/97 117/316/130
f 185/317/206 179/310/202 178/309/201 184/315/205
f 177/313/204 185/317/206 184/315/205 176/311/203
f 176/311/203 184/315/205 117/316/130 93/312/103
f 189/318/207 447/319/208 444/320/209 186/321/210
f 188/322/211 16/42/42 15/33/33 187/323/212
f 182/324/199 179/325/202 16/42/42 188/322/211
f 181/326/195 435/327/198 447/319/208 189/318/207
f 177/328/204 181/326/195 189/318/207 13/29/29
f 437/329/200 182/324/199 188/322/211 448/330/213
f 448/330/213 188/322/211 187/323/212 446/331/214
f 13/29/29 189/318/207 186/321/210 12/43/43
f 185/332/206 17/44/28 16/42/42 179/325/202
f 177/328/204 13/29/29 17/28/28 185/333/206
f 96/334/93 344/335/94 454/336/215 193/337/216
f 93/338/103 117/339/130 194/340/217 190/341/218
f 95/342/100 93/338/103 190/341/218 192/343/219
f 117/339/130 94/344/97 191/345/220 194/340/217
f 343/346/99 95/342/100 192/343/219 453/347/221
f 94/344/97 96/334/93 193/337/216 191/345/220
f 208/348/222 207/349/223 196/350/224 199/351/225
f 207/349/223 209/352/226 198/353/227 196/350/224
f 209/352/226 476/354/228 460/355/229 198/353/227
f 210/356/230 208/348/222 199/351/225 195/357/231
f 211/358/232 210/356/230 195/357/231 197/359/233
f 195/357/231 199/351/225 203/360/234 200/361/235
f 197/359/233 195/357/231 200/361/235
f 199/351/225 196/350/224 201/362/236 203/360/234
f 196/350/224 198/353/227 202/363/237 201/362/236
f 198/353/227 460/355/229 466/364/238 202/363/237
f 200/361/235 203/360/234 206/365/239
f 203/360/234 201/362/236 204/366/240 206/365/239
f 201/362/236 202/363/237 205/367/241 204/366/240
f 202/363/237 466/364/238 470/368/242 205/367/241
f 192/343/219 190/341/218 210/356/230 211/358/232
f 190/341/218 194/340/217 208/348/222 210/356/230
f 193/337/216 454/336/215 476/354/228 209/352/226
f 191/345/220 193/337/216 209/352/226 207/349/223
f 194/340/217 191/345/220 207/349/223 208/348/222
f 174/296/192 172/295/191 170/292/188 175/291/187
f 171/293/189 173/294/190 174/296/192 175/291/187
f 187/369/212 15/370/33 213/371/243 216/372/244
f 12/373/43 186/374/210 215/375/245 217/376/246 214/377/247
f 14/378/32 12/373/43 214/377/247 212/379/248
f 446/380/214 187/369/212 216/372/244 484/381/249
f 444/382/209 215/375/245 186/374/210
f 15/370/33 14/378/32 212/379/248 213/371/243
f 484/383/249 216/384/244 221/385/250 490/386/251
f 212/387/248 214/388/247 220/389/252 218/390/253
f 214/388/247 217/391/246 222/392/254 220/389/252
f 213/393/243 212/387/248 218/390/253 219/394/255
f 216/384/244 213/393/243 219/394/255 221/385/250
f 220/389/252 222/392/254 227/395/256 225/396/257
f 490/386/251 221/385/250 226/397/258 496/398/259
f 219/394/255 218/390/253 223/399/260 224/400/261
f 221/385/250 219/394/255 224/400/261 226/397/258
f 218/390/253 220/389/252 225/396/257 223/399/260
f 225/396/257 227/395/256 232/401/262 230/402/263
f 496/398/259 226/397/258 231/403/264 502/404/265
f 224/400/261 223/399/260 228/405/266 229/406/267
f 226/397/258 224/400/261 229/406/267 231/403/264
f 223/399/260 225/396/257 230/402/263 228/405/266
f 232/401/262 227/395/256 504/407/268 505/408/269
f 228/405/266 230/402/263 506/409/270 229/406/267
f 506/409/270 230/402/263 232/401/262 505/408/269
f 229/406/267 506/409/270 502/404/265 231/403/264
f 227/395/256 222/392/254 234/410/271 235/411/272
f 222/392/254 217/391/246 233/412/273 234/410/271
f 504/407/268 227/395/256 235/411/272 510/413/274
f 215/414/245 233/412/273 217/391/246
f 233/415/273 236/416/275 234/417/271
f 234/417/271 236/416/275 235/418/272
f 235/418/272 236/416/275 510/419/274
f 115/173/132 242/179/134 239/176/135 101/145/107
f 101/145/107 239/176/135 240/163/125 103/146/108
f 102/154/116 238/147/109 242/175/134 115/182/132
f 108/149/111 237/148/110 241/161/123 114/420/140
f 114/420/140 241/161/123 240/163/125 107/178/137
f 102/154/116 104/153/115 237/148/110 238/147/109
f 113/171/121 112/156/118 246/151/113 248/181/131
f 109/157/119 113/159/121 248/172/131 243/144/106
f 111/155/117 119/165/127 247/164/126 244/152/114
f 119/165/127 110/158/120 245/143/105 247/164/126
f 112/156/118 111/155/117 244/152/114 246/151/113
f 110/158/120 109/157/119 243/144/106 245/143/105
f 444/421/209 525/422/276 215/423/245
f 236/416/275 524/424/277 510/419/274
f 236/416/275 525/422/276 524/424/277
f 525/422/276 236/416/275 215/423/245
f 233/415/273 215/423/245 236/416/275
f 329/425/278 277/426/279 276/427/280 330/428/281
f 334/429/282 272/430/283 277/426/279 329/425/278
f 337/431/284 259/432/285 258/433/286 335/434/287
f 339/435/288 257/436/289 256/437/290 338/438/291
f 336/439/292 255/440/293 328/441/294 340/442/295
f 335/434/287 258/433/286 257/436/289 339/435/288
f 277/426/279 289/443/296 288/444/297 276/427/280
f 276/427/280 288/444/297 285/445/298 275/446/299
f 274/447/300 287/448/301 286/449/302 273/450/303
f 272/430/283 278/451/304 289/443/296 277/426/279
f 265/452/305 270/453/306 268/454/307 261/455/308
f 262/456/309 269/457/310 266/458/311 263/459/312
f 267/460/313 250/461/314 252/462/315 269/457/310
f 266/458/311 253/463/316 249/464/317 271/465/318
f 263/459/312 266/458/311 271/465/318 264/466/319
f 261/455/308 268/454/307 267/460/313 260/467/320
f 260/467/320 267/460/313 269/457/310 262/456/309
f 264/466/319 271/465/318 270/468/306 265/469/305
f 268/454/307 251/470/321 250/461/314 267/460/313
f 270/453/306 254/471/322 251/470/321 268/454/307
f 271/465/318 249/464/317 254/472/322 270/468/306
f 269/457/310 252/462/315 253/463/316 266/458/311
f 275/446/299 285/445/298 287/448/301 274/447/300
f 273/450/303 286/449/302 278/473/304 272/474/283
f 338/438/291 256/437/290 255/475/293 336/476/292
f 340/442/295 328/441/294 259/432/285 337/431/284
f 287/448/301 295/477/323 294/478/324 286/449/302
f 286/449/302 294/478/324 291/479/325 278/473/304
f 288/444/297 292/480/326 293/481/327 285/445/298
f 285/445/298 293/481/327 295/477/323 287/448/301
f 289/443/296 290/482/328 292/480/326 288/444/297
f 278/451/304 291/483/325 290/482/328 289/443/296
f 280/484/329 290/482/328 291/483/325 279/485/330
f 282/486/331 293/481/327 292/480/326 281/487/332
f 281/487/332 292/480/326 290/482/328 280/484/329
f 283/488/333 294/478/324 295/477/323 284/489/334
f 284/489/334 295/477/323 293/481/327 282/486/331
f 279/490/330 291/479/325 294/478/324 283/488/333
f 316/491/335 301/492/336 300/493/337 315/494/338
f 296/495/339 321/496/340 322/497/341 300/498/337
f 301/492/336 307/499/342 306/500/343 300/493/337
f 300/493/337 306/500/343 303/501/344 296/502/339
f 318/503/345 298/504/346 299/505/347 317/506/348
f 317/506/348 299/505/347 301/492/336 316/491/335
f 319/507/349 297/508/350 298/504/346 318/503/345
f 314/509/351 296/502/339 297/510/350 319/511/349
f 302/512/352 308/513/353 310/514/354 304/515/355
f 305/516/356 311/517/357 313/518/358 307/499/342
f 298/504/346 304/515/355 305/516/356 299/505/347
f 299/505/347 305/516/356 307/499/342 301/492/336
f 297/508/350 302/512/352 304/515/355 298/504/346
f 296/502/339 303/501/344 302/519/352 297/510/350
f 311/517/357 310/514/354 312/520/359 313/518/358
f 309/521/360 312/520/359 310/514/354 308/513/353
f 303/501/344 309/522/360 308/523/353 302/519/352
f 306/500/343 312/524/359 309/522/360 303/501/344
f 307/499/342 313/518/358 312/524/359 306/500/343
f 304/515/355 310/514/354 311/517/357 305/516/356
f 279/525/330 314/509/351 319/511/349 280/526/329
f 280/527/329 319/507/349 318/503/345 281/528/332
f 282/529/331 317/506/348 316/491/335 284/530/334
f 281/528/332 318/503/345 317/506/348 282/529/331
f 283/531/333 315/494/338 314/509/351 279/525/330
f 284/530/334 316/491/335 315/494/338 283/531/333
f 323/532/361 327/533/362 324/534/363 320/535/364
f 314/536/351 320/537/364 321/496/340 296/495/339
f 300/498/337 322/497/341 323/532/361 315/538/338
f 315/538/338 323/532/361 320/535/364 314/539/351
f 327/533/362 326/540/365 325/541/366 324/534/363
f 321/496/340 325/542/366 326/540/365 322/497/341
f 322/497/341 326/540/365 327/533/362 323/532/361
f 320/537/364 324/543/363 325/542/366 321/496/340
f 331/544/367 275/446/299 274/447/300 332/545/368
f 330/428/281 276/427/280 275/446/299 331/544/367
f 333/546/369 273/450/303 272/474/283 334/547/282
f 332/545/368 274/447/300 273/450/303 333/546/369
f 257/436/289 332/545/368 333/546/369 256/437/290
f 256/437/290 333/546/369 334/547/282 255/475/293
f 259/432/285 330/428/281 331/544/367 258/433/286
f 258/433/286 331/544/367 332/545/368 257/436/289
f 255/440/293 334/429/282 329/425/278 328/441/294
f 328/441/294 329/425/278 330/428/281 259/432/285
f 250/548/314 340/442/295 337/431/284 252/549/315
f 254/550/322 338/438/291 336/476/292 251/551/321
f 253/552/316 335/434/287 339/435/288 249/553/317
f 251/554/321 336/439/292 340/442/295 250/548/314
f 249/553/317 339/435/288 338/438/291 254/550/322
f 252/549/315 337/431/284 335/434/287 253/552/316
f 346/555/370 352/556/371 350/133/95 344/132/94
f 342/557/372 348/558/373 352/556/371 346/555/370
f 343/137/99 349/140/102 351/559/374 345/560/375
f 345/560/375 351/559/374 347/561/376 341/562/377
f 520/563/378 355/564/379 353/565/380 518/566/381
f 513/567/382 358/568/383 360/569/384 512/570/385
f 521/571/386 354/572/387 356/573/388 519/574/389
f 348/558/373 364/575/390 363/576/391 352/556/371
f 351/559/374 362/577/392 361/578/393 347/561/376
f 366/579/394 373/580/395 347/561/376 361/578/393
f 516/581/396 515/582/397 355/564/379 371/583/398
f 522/584/399 371/583/398 355/564/379 520/563/378
f 372/585/400 374/586/401 352/556/371 363/576/391
f 365/167/129 350/133/95 352/556/371 374/586/401
f 370/587/402 341/562/377 347/561/376 373/580/395
f 342/557/372 370/588/402 373/589/395 348/558/373
f 349/140/102 365/167/129 374/586/401 351/559/374
f 362/577/392 351/559/374 374/586/401 372/585/400
f 519/574/389 356/573/388 371/583/398 522/584/399
f 512/570/385 516/581/396 371/583/398 356/573/388
f 364/575/390 348/558/373 373/589/395 366/590/394
f 518/566/381 353/565/380 368/591/403 523/592/404
f 513/567/382 517/593/405 369/594/406 358/568/383
f 514/595/407 515/582/397 359/596/408 357/597/409
f 517/598/405 514/595/407 357/597/409 369/599/406
f 523/600/404 368/601/403 354/572/387 521/571/386
f 369/602/406 380/603/410 376/604/411 358/605/383
f 360/606/384 378/607/412 379/608/413 367/609/414
f 358/610/383 376/611/411 378/612/412 360/613/384
f 357/614/409 375/615/415 380/616/410 369/617/406
f 359/618/408 377/619/416 375/620/415 357/621/409
f 367/622/414 379/623/413 377/624/416 359/625/408
f 380/603/410 386/626/417 382/627/418 376/604/411
f 376/611/411 382/628/418 384/629/419 378/612/412
f 377/619/416 383/630/420 381/631/421 375/620/415
f 379/623/413 385/632/422 383/633/420 377/624/416
f 378/607/412 384/634/419 385/635/422 379/608/413
f 375/615/415 381/636/421 386/637/417 380/616/410
f 384/634/419 390/638/423 391/639/424 385/635/422
f 381/636/421 387/640/425 392/641/426 386/637/417
f 386/626/417 392/642/426 388/643/427 382/627/418
f 382/628/418 388/644/427 390/645/423 384/629/419
f 383/630/420 389/646/428 387/647/425 381/631/421
f 385/632/422 391/648/424 389/649/428 383/633/420
f 388/644/427 394/650/429 396/651/430 390/645/423
f 389/646/428 395/652/431 393/653/432 387/647/425
f 391/648/424 397/654/433 395/655/431 389/649/428
f 390/638/423 396/656/430 397/657/433 391/639/424
f 387/640/425 393/658/432 398/659/434 392/641/426
f 392/642/426 398/660/434 394/661/429 388/643/427
f 393/658/432 399/662/435 404/663/436 398/659/434
f 398/660/434 404/664/436 400/665/437 394/661/429
f 394/650/429 400/666/437 402/667/438 396/651/430
f 395/652/431 401/668/439 399/669/435 393/653/432
f 397/654/433 403/670/440 401/671/439 395/655/431
f 396/656/430 402/672/438 403/673/440 397/657/433
f 401/668/439 407/674/441 405/675/442 399/669/435
f 403/670/440 409/676/443 407/677/441 401/671/439
f 402/672/438 408/678/444 409/679/443 403/673/440
f 399/662/435 405/680/442 410/681/445 404/663/436
f 404/664/436 410/682/445 406/683/446 400/665/437
f 400/666/437 406/684/446 408/685/444 402/667/438
f 405/680/442 411/686/447 416/687/448 410/681/445
f 410/682/445 416/688/448 412/689/449 406/683/446
f 406/684/446 412/690/449 414/691/450 408/685/444
f 407/674/441 413/692/451 411/693/447 405/675/442
f 409/676/443 415/694/452 413/695/451 407/677/441
f 408/678/444 414/696/450 415/697/452 409/679/443
f 413/692/451 419/698/453 417/699/454 411/693/447
f 415/694/452 421/700/455 419/701/453 413/695/451
f 414/696/450 420/702/456 421/703/455 415/697/452
f 411/686/447 417/704/454 422/705/457 416/687/448
f 416/688/448 422/706/457 418/707/458 412/689/449
f 412/690/449 418/708/458 420/709/456 414/691/450
f 417/704/454 423/710/459 428/711/460 422/705/457
f 422/706/457 428/711/460 424/712/461 418/707/458
f 418/708/458 424/712/461 426/713/462 420/709/456
f 419/698/453 425/714/463 423/710/459 417/699/454
f 421/700/455 427/715/464 425/714/463 419/701/453
f 420/702/456 426/713/462 427/715/464 421/703/455
f 346/716/370 344/717/94 440/718/194 433/719/465
f 434/720/466 435/304/198 439/303/197 438/721/467
f 438/721/467 439/303/197 343/306/99 345/722/375
f 433/719/465 440/718/194 437/723/200 436/724/468
f 431/725/469 433/719/465 436/724/468 432/726/470
f 429/727/471 438/721/467 345/722/375 341/728/377
f 430/729/472 434/720/466 438/721/467 429/727/471
f 342/730/372 346/716/370 433/719/465 431/725/469
f 441/731/473 370/732/402 342/730/372 431/725/469
f 442/733/474 441/731/473 431/725/469 432/726/470
f 430/729/472 429/727/471 441/731/473 442/733/474
f 429/727/471 341/728/377 370/732/402 441/731/473
f 450/734/475 443/735/476 444/320/209 447/319/208
f 449/736/477 445/737/478 263/459/312 264/466/319
f 436/738/468 449/736/477 264/466/319 432/739/470
f 434/740/466 450/734/475 447/319/208 435/327/198
f 430/741/472 261/455/308 450/734/475 434/740/466
f 437/742/200 448/743/213 449/736/477 436/738/468
f 448/743/213 446/744/214 445/737/478 449/736/477
f 261/455/308 260/467/320 443/735/476 450/734/475
f 442/745/474 432/739/470 264/466/319 265/469/305
f 430/741/472 442/746/474 265/452/305 261/455/308
f 346/747/370 456/748/479 454/749/215 344/750/94
f 341/751/377 451/752/480 457/753/481 370/754/402
f 345/755/375 455/756/482 451/752/480 341/751/377
f 370/754/402 457/753/481 452/757/483 342/758/372
f 343/346/99 453/347/221 455/756/482 345/755/375
f 342/758/372 452/757/483 456/748/479 346/747/370
f 474/759/484 463/760/485 459/761/486 473/762/487
f 473/762/487 459/761/486 462/763/488 475/764/489
f 475/764/489 462/763/488 460/765/229 476/766/228
f 477/767/490 458/768/491 463/760/485 474/759/484
f 478/769/492 461/770/493 458/768/491 477/767/490
f 458/768/491 464/771/494 468/772/495 463/760/485
f 461/770/493 464/771/494 458/768/491
f 463/760/485 468/772/495 465/773/496 459/761/486
f 459/761/486 465/773/496 467/774/497 462/763/488
f 462/763/488 467/774/497 466/775/238 460/765/229
f 464/771/494 472/776/498 468/772/495
f 468/772/495 472/776/498 469/777/499 465/773/496
f 465/773/496 469/777/499 471/778/500 467/774/497
f 467/774/497 471/778/500 470/779/242 466/775/238
f 455/756/482 478/769/492 477/767/490 451/752/480
f 451/752/480 477/767/490 474/759/484 457/753/481
f 456/748/479 475/764/489 476/766/228 454/749/215
f 452/757/483 473/762/487 475/764/489 456/748/479
f 457/753/481 474/759/484 473/762/487 452/757/483
f 427/715/464 428/711/460 423/710/459 425/714/463
f 424/712/461 428/711/460 427/715/464 426/713/462
f 445/780/478 483/781/501 480/782/502 263/783/312
f 260/784/320 481/785/503 485/786/504 482/787/505 443/788/476
f 262/789/309 479/790/506 481/785/503 260/784/320
f 446/791/214 484/792/249 483/781/501 445/780/478
f 444/793/209 443/788/476 482/787/505
f 263/783/312 480/782/502 479/790/506 262/789/309
f 484/794/249 490/795/251 489/796/507 483/797/501
f 479/798/506 486/799/508 488/800/509 481/801/503
f 481/801/503 488/800/509 491/802/510 485/803/504
f 480/804/502 487/805/511 486/799/508 479/798/506
f 483/797/501 489/796/507 487/805/511 480/804/502
f 488/800/509 494/806/512 497/807/513 491/802/510
f 490/795/251 496/808/259 495/809/514 489/796/507
f 487/805/511 493/810/515 492/811/516 486/799/508
f 489/796/507 495/809/514 493/810/515 487/805/511
f 486/799/508 492/811/516 494/806/512 488/800/509
f 494/806/512 500/812/517 503/813/518 497/807/513
f 496/808/259 502/814/265 501/815/519 495/809/514
f 493/810/515 499/816/520 498/817/521 492/811/516
f 495/809/514 501/815/519 499/816/520 493/810/515
f 492/811/516 498/817/521 500/812/517 494/806/512
f 503/813/518 505/408/269 504/407/268 497/807/513
f 498/817/521 499/816/520 506/409/270 500/812/517
f 506/409/270 505/408/269 503/813/518 500/812/517
f 499/816/520 501/815/519 502/814/265 506/409/270
f 497/807/513 509/818/522 508/819/523 491/802/510
f 491/802/510 508/819/523 507/820/524 485/803/504
f 504/407/268 510/413/274 509/818/522 497/807/513
f 482/821/505 485/803/504 507/820/524
f 507/822/524 508/823/523 511/824/525
f 508/823/523 509/825/522 511/824/525
f 509/825/522 510/419/274 511/824/525
f 368/591/403 353/565/380 514/595/407 517/598/405
f 353/565/380 355/564/379 515/582/397 514/595/407
f 354/572/387 368/601/403 517/593/405 513/567/382
f 360/569/384 367/826/414 516/581/396 512/570/385
f 367/826/414 359/596/408 515/582/397 516/581/396
f 354/572/387 513/567/382 512/570/385 356/573/388
f 366/590/394 523/600/404 521/571/386 364/575/390
f 361/578/393 518/566/381 523/592/404 366/579/394
f 363/576/391 519/574/389 522/584/399 372/585/400
f 372/585/400 522/584/399 520/563/378 362/577/392
f 364/575/390 521/571/386 519/574/389 363/576/391
f 362/577/392 520/563/378 518/566/381 361/578/393
f 444/421/209 482/827/505 525/422/276
f 511/824/525 510/419/274 524/424/277
f 511/824/525 524/424/277 525/422/276
f 525/422/276 482/827/505 511/824/525
f 507/822/524 511/824/525 482/827/505
f 529/828/526 556/829/527 563/830/528 534/831/529
f 526/832/530 530/833/531 535/834/532 531/835/533
f 528/836/534 526/832/530 531/835/533 533/837/535
f 530/833/531 527/838/536 532/839/537 535/834/532
f 555/840/538 528/836/534 533/837/535 562/841/539
f 527/838/536 529/828/526 534/831/529 532/839/537
f 549/842/540 548/843/541 537/844/224 540/845/542
f 548/843/541 550/846/543 539/847/544 537/844/224
f 550/846/543 585/848/545 569/849/546 539/847/544
f 551/850/547 549/842/540 540/845/542 536/851/231
f 552/852/548 551/850/547 536/851/231 538/853/233
f 536/851/231 540/845/542 544/854/549 541/855/550
f 538/853/233 536/851/231 541/855/550
f 540/845/542 537/844/224 542/856/551 544/854/549
f 537/844/224 539/847/544 543/857/552 542/856/551
f 539/847/544 569/849/546 575/858/553 543/857/552
f 541/855/550 544/854/549 547/859/554
f 544/854/549 542/856/551 545/860/555 547/859/554
f 542/856/551 543/857/552 546/861/556 545/860/555
f 543/857/552 575/858/553 579/862/557 546/861/556
f 533/837/535 531/835/533 551/850/547 552/852/548
f 531/835/533 535/834/532 549/842/540 551/850/547
f 534/831/529 563/830/528 585/848/545 550/846/543
f 532/839/537 534/831/529 550/846/543 548/843/541
f 535/834/532 532/839/537 548/843/541 549/842/540
f 558/863/558 565/864/559 563/865/528 556/866/527
f 553/867/560 560/868/561 566/869/562 559/870/563
f 557/871/564 564/872/565 560/868/561 553/867/560
f 559/870/563 566/869/562 561/873/566 554/874/567
f 555/840/538 562/841/539 564/872/565 557/871/564
f 554/874/567 561/873/566 565/864/559 558/863/558
f 583/875/568 572/876/569 568/877/570 582/878/571
f 582/878/571 568/877/570 571/879/572 584/880/573
f 584/880/573 571/879/572 569/881/546 585/882/545
f 586/883/574 567/884/575 572/876/569 583/875/568
f 587/885/576 570/886/577 567/884/575 586/883/574
f 567/884/575 573/887/578 577/888/579 572/876/569
f 570/886/577 573/887/578 567/884/575
f 572/876/569 577/888/579 574/889/580 568/877/570
f 568/877/570 574/889/580 576/890/581 571/879/572
f 571/879/572 576/890/581 575/891/553 569/881/546
f 573/887/578 581/892/582 577/888/579
f 577/888/579 581/892/582 578/893/583 574/889/580
f 574/889/580 578/893/583 580/894/584 576/890/581
f 576/890/581 580/894/584 579/895/557 575/891/553
f 564/872/565 587/885/576 586/883/574 560/868/561
f 560/868/561 586/883/574 583/875/568 566/869/562
f 565/864/559 584/880/573 585/882/545 563/865/528
f 561/873/566 582/878/571 584/880/573 565/864/559
f 566/869/562 583/875/568 582/878/571 561/873/566
