# Blender v2.77 (sub 0) OBJ File: 'PlayerCharacter14.blend'
# www.blender.org
mtllib testrun1.mtl
o Cube
v -2.026198 11.110878 0.429278
v -2.514644 10.543226 2.031705
v -1.563951 10.449260 1.573823
v -2.950207 10.880211 1.574452
v -2.975474 11.209839 0.832712
v -1.546185 10.729616 0.881639
v -2.171362 10.003790 0.843755
v -2.077679 9.660940 0.364352
v -2.510519 9.453127 0.124817
v -3.399429 9.420691 0.596503
v -3.418987 9.613438 1.181757
v -1.476334 12.699642 2.925897
v -1.061246 11.056711 2.418270
v -1.805953 12.984107 2.140093
v -1.910798 13.237474 1.216768
v -1.709282 11.520320 0.611637
v -1.309126 11.083838 1.258925
v -2.136465 12.809969 1.174275
v -1.707057 12.181632 2.845568
v -1.298641 11.030397 2.059108
v -2.045302 12.733976 2.122182
v -1.384834 11.033557 1.160842
v -1.846889 11.654103 0.743817
v -1.435394 10.108452 2.124886
v -1.314860 9.514307 1.777867
v -1.626871 8.890360 1.735702
v -2.386503 8.765905 2.275889
v -2.478780 9.385183 2.639428
v -2.243587 9.982211 2.709979
v -1.372038 10.179720 2.126608
v -1.287832 9.901276 2.609578
v -1.935817 9.797252 3.088310
v -2.114162 9.326580 3.042788
v -2.047067 8.839702 2.743409
v -1.190907 9.437528 2.341988
v -1.440903 8.940504 2.306367
v -2.439318 8.686506 2.274259
v -1.228032 9.513394 1.738442
v -1.582272 8.820090 1.689130
v -2.563076 9.381114 2.683836
v -2.279520 10.054085 2.761353
v -2.023612 9.956969 3.224829
v -1.165426 10.094874 2.590394
v -2.271949 9.307446 3.159609
v -2.179116 8.647675 2.757252
v -1.032468 9.452612 2.217603
v -1.368038 8.783237 2.170725
v -0.838744 9.794659 3.308827
v -1.365844 9.710040 3.698251
v -1.399177 9.338214 3.570068
v -1.456340 8.931125 3.417691
v -0.884638 9.400046 3.179507
v -0.963258 9.013123 3.062182
v -0.829289 9.632124 3.982583
v -0.553732 9.727293 3.641284
v -0.852593 9.380692 3.892466
v -0.893692 9.104367 3.789321
v -0.584234 9.459712 3.551813
v -0.634596 9.195173 3.475912
v -0.440806 9.642834 4.083221
v -0.312599 9.730462 3.809241
v -0.374409 9.489496 4.050794
v -0.404615 9.295618 3.979000
v -0.250165 9.565415 3.777934
v -0.282935 9.378817 3.726547
v -1.041727 9.860413 2.994883
v -1.022314 9.434187 2.802338
v -1.179298 8.996918 2.722373
v -1.724089 8.906322 3.115164
v -1.723745 9.349895 3.334760
v -1.624103 9.766921 3.425145
v -0.625666 9.818869 2.880630
v -0.567712 9.693598 3.111061
v -0.591272 9.413634 3.011061
v -0.592813 9.512313 2.751833
v -0.295491 9.786121 2.863208
v -0.251408 9.690831 3.038490
v -0.269329 9.477872 2.962424
v -0.270502 9.552934 2.765236
v -3.107634 9.976824 1.375220
v -2.866988 10.068732 1.656493
v -3.128406 9.518145 1.551857
v -3.069153 8.966389 1.096707
v -2.259965 9.068876 0.564210
v -1.888734 9.598657 0.688732
v -2.005635 10.125149 1.082446
v -3.406532 10.066287 0.511294
v -2.071809 9.779493 1.044079
v -3.413015 9.897302 1.152510
v -2.048147 9.851789 0.413167
v -2.495039 10.028687 0.105206
v -3.036801 9.805323 1.501419
v -1.248656 7.385772 1.855116
v -1.116203 8.855099 -0.488014
v -0.514472 7.206882 1.782362
v -0.487930 8.756582 -0.572650
v -1.503690 7.159193 1.355816
v -0.964395 7.906120 -0.708998
v -0.895335 6.508811 1.234746
v -0.379436 7.250570 -0.838379
v -2.480192 4.458702 -0.924339
v -1.949977 5.310816 -1.643861
v -1.704457 4.156675 -0.778674
v -1.152198 4.967355 -1.535272
v -2.351285 4.060697 -2.130149
v -1.677985 5.485394 -2.510577
v -1.702469 3.776634 -1.998796
v -1.003443 5.206046 -2.381091
v -2.214173 5.591218 0.171429
v -1.337047 5.313220 0.338185
v -0.737883 5.919350 -1.353129
v -1.600148 6.211149 -1.534486
v -2.311389 6.055684 -0.766362
v -0.867955 4.282606 -2.113369
v -2.607928 4.971749 -1.439608
v -2.499816 4.932367 -2.419178
v -1.512911 8.246152 0.602286
v -0.999082 4.335533 -1.146895
v -0.551396 5.475601 -0.441027
v -1.557108 7.755499 0.311144
v -0.177042 6.810428 0.042870
v -2.454883 3.975924 -2.123463
v -1.670971 5.646114 -2.542270
v -1.699839 3.645494 -1.971370
v -0.886118 5.321205 -2.391611
v -0.728893 4.239576 -2.093253
v -2.629122 4.992245 -2.447435
v -2.388295 3.862299 -2.725761
v -1.603750 5.571373 -3.065361
v -1.633808 3.529818 -2.575012
v -0.820053 5.242917 -2.915979
v -0.657185 4.162087 -2.646500
v -2.562554 4.904296 -2.995054
v -2.248513 3.989019 -2.769480
v -1.603648 5.402420 -3.027158
v -1.619187 3.712402 -2.646362
v -0.950612 5.128726 -2.902683
v -0.805571 4.246590 -2.689369
v -2.391420 4.868722 -2.982039
v -2.170424 3.730352 -3.821525
v -1.472581 5.264471 -4.101413
v -1.516112 3.440154 -3.698465
v -0.796268 4.981020 -3.972501
v -0.676049 3.997103 -3.738559
v -2.318424 4.641411 -4.041661
v -1.817424 3.430944 -5.036520
v -1.353630 4.877999 -5.053116
v -1.300621 3.263641 -4.962187
v -0.835246 4.672389 -4.956906
v -0.732802 3.823777 -4.838067
v -2.004578 4.239357 -5.051325
v -1.470859 3.051857 -6.128227
v -1.341009 4.794660 -5.477269
v -0.964184 3.004116 -6.072454
v -0.830865 4.684031 -5.405813
v -0.560366 3.915131 -5.586823
v -1.822978 4.024193 -5.734509
v -1.336294 2.460826 -7.086569
v -1.346316 4.940837 -5.821866
v -0.737653 2.439885 -7.040784
v -0.754088 4.834876 -5.742904
v -0.389896 4.120464 -5.992706
v -1.857493 4.168842 -6.154555
v -1.296672 2.595381 -7.498336
v -1.363858 5.129064 -6.110711
v -0.698031 2.574440 -7.452551
v -0.757785 5.073952 -6.045817
v -0.334312 4.359129 -6.386120
v -1.808884 4.375234 -6.540884
v -1.254410 2.888443 -7.525461
v -1.330665 5.089613 -6.292614
v -0.728733 2.870061 -7.485242
v -0.794062 5.047465 -6.241588
v -0.401117 4.426795 -6.572496
v -1.700090 4.425688 -6.702864
v -1.315524 8.817695 2.361901
v -1.358144 10.246286 2.785548
v -1.323425 9.715212 -0.142537
v -1.657729 10.984847 0.241348
v -0.639094 9.608377 -0.305161
v -0.665683 8.975108 2.679535
v -0.868294 10.934530 -0.129009
v -0.582906 8.529040 2.380454
v -1.660318 9.341688 1.126968
v -1.638857 10.654493 1.521703
v -0.348234 12.216772 3.134735
v -0.655906 13.086599 0.688933
v -0.986007 11.802105 -0.051136
v -0.573735 10.879612 3.361075
v -1.877681 6.062490 1.144585
v -1.811009 7.628569 -1.213146
v -0.182260 5.881941 1.043634
v -0.632323 7.993262 -2.014030
v -2.191404 7.023362 -0.197967
v -2.887388 3.853413 -1.250625
v -3.006600 6.574028 -3.423311
v -0.864453 3.732702 -1.374651
v -1.921606 7.107912 -4.007100
v -3.346482 5.059838 -2.145779
v -3.312336 3.699316 -1.705265
v -3.186691 5.998291 -4.140848
v -2.154543 6.442772 -4.852813
v -3.509792 4.792426 -2.642408
v -3.469738 5.036375 -4.730973
v -2.548496 5.438220 -5.421095
v -3.814308 4.089324 -3.029714
v -2.530437 6.975493 -2.272752
v -2.906102 5.889630 -1.009760
v -1.269707 7.448962 -2.991343
v -2.405274 4.739886 0.143822
v -0.468978 4.587869 0.025886
v -1.122009 13.854752 2.080183
v -1.152694 13.762505 1.464003
v -0.973944 13.716108 2.775190
v 0.057068 13.302635 3.204795
v -0.618929 13.691625 1.165547
v -0.133618 13.379112 3.125347
v -0.939450 14.283339 2.111597
v -0.950825 14.306458 1.595381
v -0.791453 14.152365 2.804290
v -0.594860 14.097668 1.325082
v -0.287544 13.995758 3.196747
v -0.709773 14.773371 2.142328
v -0.692540 14.764095 1.823714
v -0.562093 14.648235 2.831495
v -0.407788 14.563245 1.498807
v 0.042188 14.497995 3.443578
v -0.242386 15.251254 2.489199
v -0.202726 15.219839 2.324701
v -0.094923 15.126999 3.176711
v -0.133991 15.146798 2.017312
v 0.110402 15.019997 3.475811
v -0.045361 13.374718 3.052907
v -0.236322 14.030828 3.117810
v 0.050158 14.521921 3.338859
v 0.141449 13.828969 3.334325
v -1.111786 5.079469 -1.655279
v -1.876575 5.402843 -1.785898
v -2.481970 4.238839 -1.295766
v -1.738467 3.940381 -1.156356
v -0.987366 4.273866 -1.377975
v -2.602251 4.912818 -1.674571
v -2.421530 4.773014 -0.555322
v -1.085455 5.101087 -1.506963
v -1.630671 4.475680 -0.402855
v -1.905291 5.420344 -1.628931
v -0.912082 4.597150 -0.926368
v -2.546702 5.227527 -1.234033
v 1.926296 10.592993 2.056332
v 3.389066 11.534990 2.410335
v 2.454869 11.612180 2.838506
v 3.349092 11.008240 1.921502
v 2.842589 10.458850 1.603487
v 1.936148 11.107790 2.515407
v 2.977383 10.894531 3.496840
v 2.607014 10.495506 2.999010
v 2.601335 9.786558 2.728928
v 3.320593 9.365242 2.774365
v 3.632304 9.738488 3.396254
v 2.302422 12.860456 1.874733
v 1.980922 11.947280 2.408375
v 2.259520 12.767734 1.083537
v 1.899066 12.507996 0.270093
v 1.711476 11.415489 0.176682
v 1.709593 11.376505 1.966610
v 2.136054 12.171686 0.414449
v 2.569104 12.569897 1.812881
v 2.189984 12.018543 2.362757
v 2.473541 12.518353 1.022397
v 1.777381 11.336490 2.084191
v 1.790875 11.172069 1.100561
v 1.824427 10.726795 4.454533
v 1.548350 10.412719 3.895028
v 1.555432 9.764453 3.633983
v 2.019964 9.117692 4.134306
v 2.278468 9.461177 4.716820
v 2.318730 10.040498 4.998773
v 1.800481 10.815660 4.479559
v 1.483906 10.484000 4.807693
v 1.876561 9.928518 5.251776
v 1.836165 9.472240 5.038262
v 1.641065 9.203631 4.568228
v 1.265138 10.239273 4.373781
v 1.272549 9.722774 4.164075
v 2.031235 9.027492 4.105438
v 1.482988 10.467534 3.852387
v 1.497993 9.744186 3.560601
v 2.338206 9.402065 4.761901
v 2.368177 10.064923 5.076578
v 1.987647 9.971951 5.445745
v 1.467780 10.707864 4.857284
v 1.934425 9.341919 5.149052
v 1.667550 8.977857 4.515030
v 1.166457 10.368967 4.254419
v 1.175197 9.673586 3.972920
v 0.872879 10.407557 5.375845
v 1.192282 9.955701 5.737085
v 1.090869 9.677392 5.476233
v 1.000719 9.366045 5.181055
v 0.772629 10.104866 5.105913
v 0.700950 9.788340 4.852298
v 0.623253 10.073721 5.929661
v 0.513376 10.393482 5.634411
v 0.556205 9.886199 5.750170
v 0.496924 9.673626 5.550232
v 0.445315 10.189089 5.449697
v 0.392291 9.973051 5.280019
v 0.267222 10.245838 5.998838
v 0.264187 10.465092 5.772768
v 0.151068 10.164885 5.904371
v 0.110510 10.014875 5.764712
v 0.146049 10.372333 5.675023
v 0.105727 10.220663 5.557117
v 1.156203 10.455679 5.127859
v 1.001759 10.179493 4.782945
v 0.966244 9.771526 4.549408
v 1.297448 9.304947 4.912641
v 1.435589 9.596751 5.287775
v 1.509102 9.956439 5.526980
v 0.807868 10.665310 4.977485
v 0.644798 10.522100 5.135758
v 0.567994 10.314390 4.936045
v 0.678033 10.473143 4.736969
v 0.513011 10.809342 4.925436
v 0.388968 10.700408 5.045829
v 0.330547 10.542409 4.893914
v 0.414251 10.663167 4.742484
v 3.667051 10.337875 3.746359
v 3.240686 10.207157 4.136834
v 3.204592 9.611930 3.829441
v 2.953686 9.242827 3.227843
v 2.405993 9.832959 2.850458
v 2.373650 10.513796 3.126357
v 2.686819 10.858873 3.678144
v 3.333207 9.697692 2.381608
v 2.962920 10.983626 3.443955
v 3.791728 10.175095 2.772141
v 2.539265 10.533725 3.057281
v 2.495481 9.928661 2.663792
v 3.826571 10.694035 3.226637
v 1.309236 7.666800 1.483084
v 1.146480 8.535034 -0.808771
v 0.048169 7.315303 1.685529
v 0.011516 8.632036 -0.691450
v 0.613540 7.566042 1.607164
v 0.528779 8.591913 -0.784219
v 1.318922 7.936790 0.875419
v 1.277195 7.071236 -1.017658
v -0.100644 6.660691 1.168686
v 0.014905 7.007602 -0.886396
v 0.606155 7.435163 1.086902
v 0.533353 6.693691 -0.812312
v 1.785796 5.177615 2.124201
v 1.755322 4.283761 1.042076
v 0.943313 5.117531 2.152268
v 0.883764 4.224802 1.068667
v 1.803447 4.347957 2.616993
v 1.798130 3.281030 1.397598
v 1.085281 4.315690 2.662372
v 1.058684 3.239764 1.435047
v 1.668662 6.419777 1.672397
v 0.766173 6.327656 1.592199
v 0.704742 5.270442 0.082946
v 1.641047 5.263423 0.157453
v -0.002935 6.779025 0.009735
v 2.090655 5.874896 0.915101
v 0.540705 3.731814 2.053678
v 2.186991 4.764059 1.566551
v 2.318102 3.858300 1.995649
v 1.561924 8.171071 0.210384
v 0.438175 4.635175 1.628101
v 0.227298 5.786910 0.759705
v 1.663675 7.640380 -0.185621
v 0.166229 6.830970 0.034855
v 1.863773 4.439360 2.714100
v 1.857748 3.196204 1.296330
v 1.028201 4.401875 2.766906
v 0.997422 3.148192 1.339910
v 0.394676 3.721679 2.059116
v 2.462634 3.868708 1.991324
v 1.904638 4.033076 3.078426
v 1.899139 2.783883 1.663623
v 1.069054 3.995691 3.131067
v 1.038797 2.735960 1.706915
v 0.435898 3.311687 2.426269
v 2.503859 3.458253 2.357603
v 1.832927 3.927462 2.965444
v 1.828455 2.884549 1.785571
v 1.136642 3.896504 3.009351
v 1.111552 2.844616 1.821645
v 0.609156 3.325276 2.422614
v 2.332336 3.447588 2.365704
v 1.926942 3.135215 3.702612
v 1.924024 2.003881 2.422486
v 1.206225 3.102841 3.747714
v 1.181569 1.962524 2.459846
v 0.659551 2.511565 3.140433
v 2.444152 2.638237 3.081494
v 1.953066 2.280281 4.282631
v 1.910958 1.306370 3.182891
v 1.407138 2.265625 4.338451
v 1.344712 1.277585 3.216986
v 0.959362 1.770368 3.831492
v 2.317031 1.849802 3.752053
v 2.123651 2.079321 4.832441
v 1.909756 0.837500 3.468683
v 1.612279 2.088062 4.936513
v 1.379369 0.826308 3.534559
v 1.092621 1.374671 4.250922
v 2.364055 1.396081 4.060174
v 2.376049 2.422455 5.694005
v 1.975989 0.465056 3.664993
v 1.790393 2.439566 5.826746
v 1.365403 0.456346 3.749571
v 1.054063 1.057186 4.546818
v 2.517752 1.064077 4.292521
v 2.446452 2.183787 6.050826
v 2.005677 0.128293 3.923286
v 1.860795 2.200898 6.183566
v 1.398031 0.130065 4.030339
v 1.111077 0.731555 4.826238
v 2.573792 0.730991 4.554405
v 2.398601 1.892884 6.012215
v 2.006387 0.095476 4.155404
v 1.884441 1.906726 6.129542
v 1.473783 0.099142 4.256535
v 1.231656 0.632124 4.958581
v 2.514124 0.630758 4.714431
v 1.545084 8.862398 2.015512
v 1.823122 10.157950 2.416624
v 1.341078 9.602754 -0.422487
v 1.556694 10.892474 -0.143533
v 0.631110 9.521823 -0.381396
v 0.954959 9.020588 2.439938
v 0.158436 8.951461 2.602931
v 0.663090 10.801532 -0.167930
v -0.119651 10.858093 -0.234249
v 0.798604 8.629867 2.144588
v 0.101802 8.510227 2.245466
v -0.010120 9.501982 -0.372063
v 1.798501 9.281517 0.772060
v 1.825611 10.558271 1.119854
v 1.169824 12.161215 2.906599
v 0.412320 12.106874 3.089362
v 0.807318 13.032858 0.468286
v 0.063804 13.072321 0.496614
v 0.406539 10.904096 3.254617
v -0.092178 11.679698 -0.290104
v 0.834236 11.740239 -0.306228
v 1.299119 10.818421 3.108184
v 1.939700 7.093436 1.307243
v 1.761960 7.278742 -1.248927
v -0.004151 6.026741 1.152678
v -0.057848 7.584703 -2.021868
v 0.233108 7.042157 1.392641
v 0.526817 7.258959 -1.991830
v 2.117758 7.215929 -0.209956
v 2.803459 5.511045 2.056398
v 2.679362 4.441080 -1.241863
v -0.144018 5.565880 -2.994744
v 0.761289 5.456237 2.171987
v 1.587919 4.139649 -1.897875
v 3.206743 5.055704 0.591108
v 3.172324 4.590828 2.242814
v 2.812027 3.750019 -1.023850
v -0.166539 4.858543 -3.332270
v 1.770064 3.432312 -1.737375
v 3.207063 4.386744 0.750624
v 3.162544 2.711745 -0.674373
v -0.178330 3.904832 -3.422308
v 2.220668 2.515388 -1.433475
v 3.541187 3.346344 1.159582
v 2.304082 5.737251 -1.284767
v 2.841059 6.303166 0.253911
v 1.076589 5.390759 -2.065845
v -0.102228 6.382526 -2.539717
v 2.400550 6.799824 1.852583
v 0.446302 6.733736 1.970856
v 1.716300 13.750504 1.652180
v 1.557464 13.662964 1.055326
v 1.769935 13.615329 2.361427
v 0.884289 13.272251 3.080055
v 0.955831 13.633785 0.928082
v 0.160056 13.561635 1.015753
v 1.048092 13.335711 2.947151
v 1.582317 14.190716 1.731327
v 1.442791 14.218544 1.234436
v 1.635884 14.063212 2.438260
v 1.008997 14.038761 1.083228
v 0.180818 13.986227 1.050043
v 1.260027 13.938917 2.963381
v 1.407638 14.695602 1.823033
v 1.296720 14.691032 1.523744
v 1.460888 14.573934 2.526439
v 0.915276 14.514650 1.299296
v 0.237063 14.444733 1.311374
v 1.054516 14.460814 3.290924
v 1.098662 15.202000 2.286976
v 1.010171 15.175290 2.141802
v 1.151695 15.081212 2.988728
v 0.848906 15.110697 1.869096
v 0.337859 15.113565 1.816934
v 1.036439 14.985985 3.336170
v 0.590981 14.334938 3.647876
v 0.597165 14.956416 3.574793
v 0.458950 15.343330 2.563998
v 0.942338 13.338441 2.903967
v 1.190483 13.978422 2.902655
v 1.017797 14.486382 3.192944
v 0.554639 14.384874 3.431966
v 0.879770 13.801851 3.222991
v 0.928952 3.966708 1.165906
v 1.766768 4.022447 1.136289
v 1.789644 4.971025 2.240145
v 0.978801 4.918223 2.272546
v 0.464243 4.403846 1.732476
v 2.220333 4.532159 1.671766
v 1.755570 5.505374 2.010344
v 0.838461 4.493514 0.818137
v 0.898922 5.453362 2.031939
v 1.724585 4.544564 0.796668
v 0.387220 4.941050 1.441545
v 2.161484 5.056765 1.390925
v 0.525376 13.715466 3.400923
v 0.472446 12.912764 3.245387
v -1.186865 7.313334 1.673297
v -1.061236 8.703689 -0.543837
v -0.491878 7.145287 1.602684
v -0.466352 8.611876 -0.625711
v -1.436740 8.127044 0.488008
v -1.780268 6.064883 0.997416
v -1.717058 7.546651 -1.233529
v -0.176646 5.894649 0.901003
v -0.602035 7.892070 -1.991636
v -2.076937 6.974030 -0.273104
v -2.735127 3.976950 -1.274716
v -2.847779 6.550269 -3.329917
v -0.821871 3.862772 -1.391996
v -1.821559 7.055310 -3.882209
v -3.169298 5.118035 -2.121445
v -3.137037 3.847004 -1.716369
v -3.018108 6.021855 -4.020440
v -2.041879 6.442361 -4.693956
v -3.323744 4.881199 -2.603030
v -3.286859 5.123597 -4.585622
v -2.415514 5.503859 -5.238557
v -3.612815 4.227604 -2.976278
v -2.397442 6.929641 -2.238954
v -2.752822 5.902476 -1.044195
v -1.204960 7.377654 -2.918888
v -2.279181 4.814999 0.046957
v -0.447836 4.671276 -0.064660
v 1.282948 7.632858 1.432205
v 1.123389 8.484256 -0.815284
v 0.042090 7.245041 1.520628
v 0.007598 8.491561 -0.730091
v 0.578829 7.478923 1.457108
v 0.498352 8.450081 -0.807600
v 1.530820 8.127175 0.184785
v 1.832239 7.032775 1.196023
v 1.664261 7.209805 -1.222019
v -0.007358 6.025999 1.017420
v -0.057832 7.502886 -1.976963
v 0.218298 6.985984 1.276457
v 0.495973 7.191578 -1.925687
v 2.075363 7.192089 -0.220446
v 2.649305 5.538216 1.933656
v 2.625900 4.472032 -1.221601
v -0.139365 5.593716 -2.884455
v 0.717849 5.486367 2.042984
v 1.555905 4.176559 -1.864754
v 3.030721 5.107620 0.547755
v 2.998178 4.667882 2.109982
v 2.755958 3.794553 -1.007872
v -0.160668 4.932807 -3.209632
v 1.734472 3.483119 -1.707401
v 3.143234 4.418724 0.731761
v 2.989558 2.888624 -0.646369
v -0.171993 4.035669 -3.297112
v 2.098730 2.703007 -1.364414
v 3.347693 3.488686 1.088294
v 2.257999 5.742716 -1.263653
v 2.684876 6.287394 0.228907
v 1.015999 5.424820 -1.965479
v -0.099832 6.366025 -2.452831
v 2.268245 6.757065 1.740944
v 0.419938 6.694610 1.852755
vt 0.1411 0.5697
vt 0.1173 0.5717
vt 0.1192 0.5293
vt 0.1411 0.5249
vt 0.1790 0.5728
vt 0.1795 0.5302
vt 0.1179 0.6009
vt 0.0932 0.6030
vt 0.0926 0.5899
vt 0.1166 0.5874
vt 0.0607 0.6051
vt 0.0351 0.6025
vt 0.0372 0.5891
vt 0.0618 0.5920
vt 0.1780 0.6032
vt 0.1407 0.6005
vt 0.1401 0.5862
vt 0.1785 0.5890
vt 0.1188 0.5269
vt 0.1412 0.5219
vt 0.0947 0.5314
vt 0.0943 0.5290
vt 0.0624 0.5348
vt 0.0373 0.5301
vt 0.0378 0.5272
vt 0.0623 0.5314
vt 0.1826 0.5272
vt 0.4961 0.6945
vt 0.5387 0.7226
vt 0.5166 0.7257
vt 0.4899 0.6966
vt 0.5390 0.8238
vt 0.5284 0.8586
vt 0.5095 0.8519
vt 0.5284 0.8191
vt 0.5405 0.7832
vt 0.4607 0.7887
vt 0.4721 0.7651
vt 0.4496 0.8737
vt 0.4286 0.8459
vt 0.4491 0.8154
vt 0.4601 0.8910
vt 0.5560 0.7961
vt 0.4081 0.8841
vt 0.4086 0.8776
vt 0.4818 0.7271
vt 0.4731 0.7008
vt 0.4037 0.8602
vt 0.0105 0.5255
vt 0.0088 0.5215
vt 0.0095 0.5980
vt 0.0118 0.5846
vt 0.0385 0.5084
vt 0.0632 0.5137
vt 0.0110 0.4962
vt 0.0972 0.5129
vt 0.1202 0.5072
vt 0.1398 0.5066
vt 0.1799 0.5009
vt 0.1393 0.4993
vt 0.1720 0.4925
vt 0.0961 0.5046
vt 0.1195 0.5008
vt 0.0409 0.5016
vt 0.0642 0.5060
vt 0.0202 0.4909
vt 0.0268 0.4371
vt 0.0334 0.4215
vt 0.0477 0.4247
vt 0.0408 0.4370
vt 0.0677 0.3339
vt 0.0689 0.3483
vt 0.0573 0.3502
vt 0.0554 0.3388
vt 0.0652 0.4263
vt 0.0597 0.4346
vt 0.0551 0.4111
vt 0.0712 0.4173
vt 0.0418 0.4730
vt 0.0297 0.4607
vt 0.0422 0.4567
vt 0.0531 0.4653
vt 0.0539 0.4828
vt 0.0639 0.4735
vt 0.0418 0.4069
vt 0.0509 0.3820
vt 0.0634 0.3881
vt 0.0772 0.4570
vt 0.0695 0.4530
vt 0.0798 0.4430
vt 0.0836 0.4460
vt 0.0615 0.4483
vt 0.0759 0.4333
vt 0.0747 0.4416
vt 0.0794 0.4028
vt 0.0824 0.4344
vt 0.0879 0.4369
vt 0.0879 0.4133
vt 0.0813 0.4218
vt 0.0800 0.4278
vt 0.0258 0.4023
vt 0.0359 0.3747
vt 0.0404 0.4926
vt 0.0263 0.4809
vt 0.0127 0.4652
vt 0.0091 0.4383
vt 0.0159 0.4193
vt 0.0549 0.3590
vt 0.0515 0.3694
vt 0.0417 0.3631
vt 0.0468 0.3569
vt 0.0636 0.3206
vt 0.0506 0.3298
vt 0.0689 0.3620
vt 0.0641 0.3770
vt 0.0371 0.3551
vt 0.0457 0.3504
vt 0.0436 0.3429
vt 0.0412 0.3364
vt 0.0928 0.5752
vt 0.0612 0.5769
vt 0.0374 0.5736
vt 0.0129 0.5690
vt 0.1437 0.6376
vt 0.1190 0.6377
vt 0.0301 0.6389
vt 0.0041 0.6338
vt 0.0913 0.6387
vt 0.0564 0.6411
vt 0.1826 0.6402
vt 0.2529 0.3464
vt 0.2565 0.3339
vt 0.3062 0.3342
vt 0.3016 0.3589
vt 0.2432 0.3589
vt 0.2638 0.3741
vt 0.4755 0.3347
vt 0.4790 0.3476
vt 0.4352 0.3605
vt 0.4300 0.3347
vt 0.4893 0.3619
vt 0.4679 0.3759
vt 0.3923 0.4452
vt 0.4158 0.4540
vt 0.4127 0.4635
vt 0.3895 0.4561
vt 0.3146 0.4759
vt 0.3384 0.4697
vt 0.3397 0.4910
vt 0.3219 0.4959
vt 0.3092 0.4587
vt 0.3355 0.4505
vt 0.3382 0.4617
vt 0.3114 0.4686
vt 0.3269 0.4183
vt 0.3009 0.4315
vt 0.4261 0.4281
vt 0.4031 0.4141
vt 0.4475 0.4476
vt 0.4873 0.4056
vt 0.3627 0.4638
vt 0.3635 0.4564
vt 0.3884 0.4632
vt 0.3634 0.4452
vt 0.3644 0.4111
vt 0.3686 0.3448
vt 0.3687 0.3345
vt 0.5055 0.3974
vt 0.2371 0.3998
vt 0.2226 0.3858
vt 0.2736 0.4456
vt 0.4348 0.4676
vt 0.4307 0.4753
vt 0.2974 0.4979
vt 0.2913 0.4801
vt 0.4100 0.4699
vt 0.4028 0.4878
vt 0.3857 0.4824
vt 0.4287 0.4816
vt 0.4235 0.5000
vt 0.2854 0.4661
vt 0.2887 0.4743
vt 0.1064 0.2829
vt 0.0814 0.2715
vt 0.0807 0.2675
vt 0.1098 0.2807
vt 0.0786 0.0255
vt 0.1025 0.0139
vt 0.1059 0.0161
vt 0.0782 0.0296
vt 0.0042 0.1582
vt 0.0042 0.1375
vt 0.0079 0.1357
vt 0.0079 0.1599
vt 0.2021 0.2869
vt 0.1761 0.2917
vt 0.1734 0.2888
vt 0.2036 0.2832
vt 0.3554 0.1412
vt 0.3550 0.1613
vt 0.3513 0.1629
vt 0.3517 0.1394
vt 0.1713 0.0035
vt 0.1991 0.0078
vt 0.2008 0.0115
vt 0.1685 0.0065
vt 0.0871 0.2534
vt 0.1162 0.2667
vt 0.0233 0.1357
vt 0.0233 0.1599
vt 0.3359 0.1626
vt 0.3363 0.1392
vt 0.1985 0.0267
vt 0.1662 0.0218
vt 0.1127 0.0299
vt 0.0849 0.0434
vt 0.1706 0.2736
vt 0.2008 0.2680
vt 0.1122 0.0348
vt 0.0891 0.0460
vt 0.1723 0.2691
vt 0.1975 0.2645
vt 0.0912 0.2509
vt 0.1155 0.2620
vt 0.0277 0.1378
vt 0.0277 0.1579
vt 0.3315 0.1606
vt 0.3318 0.1411
vt 0.1952 0.0303
vt 0.1683 0.0261
vt 0.0582 0.1375
vt 0.0582 0.1583
vt 0.3011 0.1604
vt 0.3014 0.1402
vt 0.1911 0.0604
vt 0.1632 0.0561
vt 0.1259 0.0619
vt 0.1003 0.0744
vt 0.1664 0.2393
vt 0.1925 0.2345
vt 0.1018 0.2223
vt 0.1285 0.2345
vt 0.1642 0.2102
vt 0.1863 0.2063
vt 0.1151 0.1966
vt 0.1379 0.2068
vt 0.0870 0.1400
vt 0.0870 0.1559
vt 0.2724 0.1575
vt 0.2726 0.1420
vt 0.1856 0.0887
vt 0.1621 0.0853
vt 0.1360 0.0893
vt 0.1141 0.0998
vt 0.2541 0.1563
vt 0.2543 0.1417
vt 0.1925 0.1057
vt 0.1605 0.1007
vt 0.1423 0.1035
vt 0.1187 0.1147
vt 0.1620 0.1949
vt 0.1928 0.1892
vt 0.1193 0.1816
vt 0.1438 0.1925
vt 0.1026 0.1405
vt 0.1026 0.1556
vt 0.1589 0.1832
vt 0.2136 0.1707
vt 0.1226 0.1701
vt 0.1497 0.1821
vt 0.1146 0.1394
vt 0.1146 0.1567
vt 0.2263 0.1560
vt 0.2266 0.1392
vt 0.2136 0.1239
vt 0.1577 0.1124
vt 0.1484 0.1138
vt 0.1223 0.1261
vt 0.2141 0.1557
vt 0.2144 0.1389
vt 0.2135 0.1360
vt 0.1553 0.1241
vt 0.1535 0.1246
vt 0.1274 0.1369
vt 0.1563 0.1716
vt 0.2132 0.1585
vt 0.1275 0.1592
vt 0.1545 0.1711
vt 0.1265 0.1394
vt 0.1265 0.1567
vt 0.1568 0.1661
vt 0.2058 0.1547
vt 0.1330 0.1556
vt 0.1330 0.1404
vt 0.2061 0.1400
vt 0.1559 0.1296
vt 0.7379 0.2719
vt 0.7037 0.2677
vt 0.7119 0.2449
vt 0.7448 0.2540
vt 0.6730 0.4081
vt 0.6904 0.4120
vt 0.6923 0.4365
vt 0.6758 0.4365
vt 0.7242 0.4174
vt 0.7261 0.4365
vt 0.6574 0.2577
vt 0.6681 0.2313
vt 0.6917 0.2897
vt 0.6437 0.2838
vt 0.6836 0.3854
vt 0.7202 0.3918
vt 0.6372 0.3758
vt 0.7285 0.2931
vt 0.6844 0.3380
vt 0.7211 0.3385
vt 0.6401 0.3292
vt 0.5858 0.7233
vt 0.6195 0.7182
vt 0.6195 0.7677
vt 0.5903 0.7705
vt 0.4933 0.9233
vt 0.5479 0.8949
vt 0.4629 0.9483
vt 0.4489 0.9179
vt 0.5885 0.6551
vt 0.6195 0.6511
vt 0.5555 0.6968
vt 0.4777 0.9763
vt 0.5094 0.9561
vt 0.5635 0.9198
vt 0.4042 0.8909
vt 0.5009 0.6883
vt 0.7521 0.2127
vt 0.7372 0.1998
vt 0.7716 0.1523
vt 0.7877 0.1661
vt 0.8093 0.3244
vt 0.7889 0.2732
vt 0.8401 0.2503
vt 0.8609 0.3054
vt 0.8135 0.3512
vt 0.8664 0.3647
vt 0.7658 0.2319
vt 0.8191 0.2099
vt 0.8155 0.3712
vt 0.8685 0.3712
vt 0.8866 0.2324
vt 0.8637 0.1791
vt 0.9010 0.1522
vt 0.9280 0.2140
vt 0.8317 0.1386
vt 0.8746 0.1166
vt 0.8002 0.1126
vt 0.8290 0.0759
vt 0.9031 0.2876
vt 0.9454 0.2664
vt 0.9120 0.3547
vt 0.9575 0.3383
vt 0.9519 0.2025
vt 0.9770 0.2487
vt 0.9233 0.1404
vt 0.8970 0.1026
vt 0.8464 0.0557
vt 0.9852 0.1863
vt 0.9537 0.1240
vt 0.9256 0.0908
vt 0.8654 0.0345
vt 0.9392 0.9594
vt 0.9133 0.9204
vt 0.9551 0.9075
vt 0.9663 0.9329
vt 0.9275 0.8361
vt 0.9410 0.7833
vt 0.9859 0.7991
vt 0.9827 0.8084
vt 0.9683 0.8493
vt 0.9206 0.8763
vt 0.9642 0.8810
vt 0.9593 0.9860
vt 0.9859 0.9630
vt 0.9599 0.7543
vt 0.3559 0.6510
vt 0.3908 0.7125
vt 0.3599 0.7365
vt 0.3252 0.6744
vt 0.3992 0.8213
vt 0.3921 0.8850
vt 0.3508 0.8800
vt 0.3582 0.8192
vt 0.3843 0.9751
vt 0.3292 0.9448
vt 0.4107 0.7647
vt 0.3615 0.7771
vt 0.2583 0.9396
vt 0.3054 0.8710
vt 0.3191 0.7543
vt 0.2891 0.7058
vt 0.3158 0.8146
vt 0.3200 0.7913
vt 0.2338 0.8975
vt 0.2477 0.8773
vt 0.2675 0.7926
vt 0.2377 0.7615
vt 0.2622 0.8304
vt 0.2631 0.8174
vt 0.2050 0.9369
vt 0.2050 0.9040
vt 0.2050 0.8246
vt 0.3248 0.9535
vt 0.2603 0.9512
vt 0.3824 0.9861
vt 0.2050 0.9547
vt 0.4015 0.9881
vt 0.4267 0.5549
vt 0.4534 0.6068
vt 0.4062 0.6228
vt 0.4393 0.6775
vt 0.4941 0.6670
vt 0.3614 0.4837
vt 0.4941 0.4380
vt 0.4941 0.5178
vt 0.4468 0.5513
vt 0.4941 0.5992
vt 0.2399 0.5688
vt 0.2417 0.5240
vt 0.2634 0.5293
vt 0.2635 0.5717
vt 0.2018 0.5702
vt 0.2032 0.5276
vt 0.2617 0.6009
vt 0.2635 0.5874
vt 0.2874 0.5910
vt 0.2863 0.6040
vt 0.3187 0.6075
vt 0.3181 0.5943
vt 0.3428 0.5925
vt 0.3444 0.6060
vt 0.2015 0.6007
vt 0.2017 0.5864
vt 0.2401 0.5852
vt 0.2389 0.5995
vt 0.2418 0.5210
vt 0.2639 0.5269
vt 0.2883 0.5300
vt 0.2878 0.5324
vt 0.3199 0.5372
vt 0.3202 0.5337
vt 0.3448 0.5306
vt 0.3452 0.5335
vt 0.2002 0.5245
vt 0.7429 0.6946
vt 0.7490 0.6967
vt 0.7224 0.7258
vt 0.7002 0.7226
vt 0.6999 0.8239
vt 0.7105 0.8191
vt 0.7294 0.8520
vt 0.7105 0.8587
vt 0.6985 0.7832
vt 0.7668 0.7652
vt 0.7782 0.7888
vt 0.7898 0.8155
vt 0.8103 0.8460
vt 0.7892 0.8738
vt 0.7788 0.8911
vt 0.6829 0.7961
vt 0.8303 0.8777
vt 0.8307 0.8842
vt 0.7571 0.7272
vt 0.7659 0.7009
vt 0.8352 0.8603
vt 0.3740 0.5261
vt 0.3722 0.5301
vt 0.3684 0.5891
vt 0.3701 0.6025
vt 0.3200 0.5160
vt 0.3449 0.5118
vt 0.3729 0.5008
vt 0.2633 0.5072
vt 0.2861 0.5138
vt 0.2438 0.5057
vt 0.2040 0.4984
vt 0.2446 0.4985
vt 0.2122 0.4903
vt 0.2875 0.5055
vt 0.2643 0.5008
vt 0.3428 0.5048
vt 0.3193 0.5083
vt 0.3639 0.4951
vt 0.1645 0.4599
vt 0.1646 0.4458
vt 0.1770 0.4390
vt 0.1802 0.4532
vt 0.1803 0.3793
vt 0.1679 0.3744
vt 0.1699 0.3630
vt 0.1814 0.3649
vt 0.1670 0.4270
vt 0.1753 0.4214
vt 0.1844 0.4154
vt 0.1905 0.4315
vt 0.1286 0.4449
vt 0.1364 0.4335
vt 0.1450 0.4445
vt 0.1409 0.4569
vt 0.1188 0.4328
vt 0.1281 0.4227
vt 0.1948 0.4449
vt 0.2136 0.4233
vt 0.2196 0.4357
vt 0.1446 0.4094
vt 0.1556 0.4030
vt 0.1586 0.4068
vt 0.1486 0.4171
vt 0.1533 0.4251
vt 0.1600 0.4120
vt 0.1683 0.4107
vt 0.1988 0.4072
vt 0.1672 0.4042
vt 0.1648 0.3988
vt 0.1798 0.4053
vt 0.1884 0.3988
vt 0.1738 0.4066
vt 0.1993 0.4608
vt 0.2269 0.4507
vt 0.1090 0.4462
vt 0.1207 0.4603
vt 0.1364 0.4739
vt 0.1634 0.4775
vt 0.1824 0.4708
vt 0.1675 0.3542
vt 0.1593 0.3563
vt 0.1543 0.3501
vt 0.1641 0.3438
vt 0.1762 0.3926
vt 0.1632 0.3834
vt 0.1814 0.3512
vt 0.1766 0.3362
vt 0.1583 0.3629
vt 0.1496 0.3581
vt 0.1562 0.3703
vt 0.1538 0.3768
vt 0.2879 0.5762
vt 0.3193 0.5793
vt 0.3433 0.5770
vt 0.3680 0.5735
vt 0.2343 0.6364
vt 0.2591 0.6376
vt 0.3478 0.6426
vt 0.3740 0.6385
vt 0.2867 0.6398
vt 0.3215 0.6437
vt 0.1954 0.6374
vt 0.2530 0.3214
vt 0.3019 0.3094
vt 0.2435 0.3089
vt 0.2643 0.2938
vt 0.4353 0.3088
vt 0.4790 0.3219
vt 0.4680 0.2936
vt 0.4893 0.3077
vt 0.3931 0.2241
vt 0.3904 0.2133
vt 0.4136 0.2061
vt 0.4166 0.2155
vt 0.3161 0.1927
vt 0.3236 0.1728
vt 0.3413 0.1780
vt 0.3397 0.1992
vt 0.3104 0.2098
vt 0.3128 0.2000
vt 0.3395 0.2072
vt 0.3367 0.2182
vt 0.3018 0.2369
vt 0.3277 0.2503
vt 0.4036 0.2552
vt 0.4267 0.2414
vt 0.4480 0.2221
vt 0.4874 0.2641
vt 0.3639 0.2053
vt 0.3894 0.2062
vt 0.3646 0.2127
vt 0.3644 0.2238
vt 0.3651 0.2579
vt 0.3687 0.3241
vt 0.5055 0.2723
vt 0.2232 0.2817
vt 0.2378 0.2678
vt 0.2747 0.2225
vt 0.4315 0.1945
vt 0.4355 0.2022
vt 0.2928 0.1883
vt 0.2992 0.1705
vt 0.4109 0.1997
vt 0.3869 0.1870
vt 0.4040 0.1818
vt 0.4296 0.1882
vt 0.4246 0.1699
vt 0.2867 0.2022
vt 0.2902 0.1940
vt 0.6107 0.2858
vt 0.6073 0.2836
vt 0.6367 0.2708
vt 0.6359 0.2748
vt 0.6429 0.0289
vt 0.6432 0.0330
vt 0.6157 0.0190
vt 0.6192 0.0169
vt 0.7150 0.1629
vt 0.7113 0.1645
vt 0.7117 0.1404
vt 0.7154 0.1421
vt 0.5149 0.2882
vt 0.5135 0.2844
vt 0.5436 0.2905
vt 0.5409 0.2935
vt 0.3642 0.1398
vt 0.3679 0.1382
vt 0.3679 0.1616
vt 0.3642 0.1600
vt 0.5506 0.0054
vt 0.5533 0.0084
vt 0.5209 0.0128
vt 0.5227 0.0091
vt 0.6012 0.2695
vt 0.6305 0.2567
vt 0.6959 0.1642
vt 0.6963 0.1401
vt 0.3833 0.1382
vt 0.3833 0.1616
vt 0.5554 0.0237
vt 0.5230 0.0281
vt 0.6362 0.0467
vt 0.6087 0.0328
vt 0.5166 0.2693
vt 0.5467 0.2754
vt 0.6321 0.0493
vt 0.6092 0.0376
vt 0.5199 0.2658
vt 0.5450 0.2709
vt 0.6020 0.2647
vt 0.6264 0.2541
vt 0.6915 0.1622
vt 0.6918 0.1421
vt 0.3877 0.1402
vt 0.3877 0.1597
vt 0.5532 0.0280
vt 0.5262 0.0317
vt 0.6610 0.1620
vt 0.6613 0.1412
vt 0.4181 0.1398
vt 0.4181 0.1600
vt 0.5578 0.0581
vt 0.5298 0.0619
vt 0.6204 0.0774
vt 0.5950 0.0645
vt 0.5255 0.2360
vt 0.5515 0.2412
vt 0.5894 0.2371
vt 0.6164 0.2252
vt 0.5321 0.2078
vt 0.5542 0.2121
vt 0.5805 0.2092
vt 0.6035 0.1994
vt 0.6322 0.1592
vt 0.6325 0.1433
vt 0.4469 0.1421
vt 0.4469 0.1576
vt 0.5583 0.0873
vt 0.5348 0.0903
vt 0.6061 0.1026
vt 0.5844 0.0918
vt 0.4652 0.1421
vt 0.4652 0.1567
vt 0.5597 0.1027
vt 0.5277 0.1072
vt 0.6013 0.1174
vt 0.5779 0.1058
vt 0.5259 0.1906
vt 0.5566 0.1969
vt 0.5749 0.1948
vt 0.5995 0.1843
vt 0.6167 0.1585
vt 0.6169 0.1435
vt 0.5054 0.1718
vt 0.5599 0.1853
vt 0.5692 0.1842
vt 0.5964 0.1727
vt 0.6047 0.1595
vt 0.6050 0.1422
vt 0.4930 0.1401
vt 0.4930 0.1569
vt 0.5624 0.1144
vt 0.5062 0.1250
vt 0.5975 0.1288
vt 0.5716 0.1160
vt 0.5052 0.1400
vt 0.5052 0.1568
vt 0.5646 0.1262
vt 0.5062 0.1371
vt 0.5922 0.1395
vt 0.5663 0.1267
vt 0.5060 0.1596
vt 0.5627 0.1737
vt 0.5645 0.1733
vt 0.5918 0.1617
vt 0.5928 0.1593
vt 0.5931 0.1420
vt 0.5135 0.1560
vt 0.5623 0.1682
vt 0.5863 0.1581
vt 0.5865 0.1429
vt 0.5135 0.1412
vt 0.5638 0.1317
vt 0.7379 0.6011
vt 0.7449 0.6190
vt 0.7119 0.6281
vt 0.7037 0.6053
vt 0.6730 0.4649
vt 0.6904 0.4610
vt 0.7242 0.4556
vt 0.6681 0.6417
vt 0.6574 0.6153
vt 0.6917 0.5833
vt 0.6438 0.5892
vt 0.6836 0.4876
vt 0.7202 0.4812
vt 0.6372 0.4972
vt 0.7285 0.5799
vt 0.6844 0.5350
vt 0.7211 0.5345
vt 0.6401 0.5438
vt 0.6532 0.7233
vt 0.6487 0.7705
vt 0.7455 0.9234
vt 0.6910 0.8949
vt 0.7759 0.9484
vt 0.7899 0.9180
vt 0.6505 0.6551
vt 0.6835 0.6969
vt 0.7612 0.9764
vt 0.7294 0.9561
vt 0.6754 0.9198
vt 0.8347 0.8911
vt 0.7381 0.6884
vt 0.7520 0.5296
vt 0.7876 0.5762
vt 0.7716 0.5900
vt 0.7372 0.5425
vt 0.8093 0.4179
vt 0.8609 0.4369
vt 0.8401 0.4920
vt 0.7889 0.4691
vt 0.8135 0.3912
vt 0.8664 0.3777
vt 0.8191 0.5324
vt 0.7658 0.5105
vt 0.8866 0.5100
vt 0.9280 0.5284
vt 0.9009 0.5901
vt 0.8637 0.5633
vt 0.8746 0.6257
vt 0.8316 0.6038
vt 0.8290 0.6664
vt 0.8001 0.6298
vt 0.9031 0.4547
vt 0.9454 0.4760
vt 0.9120 0.3876
vt 0.9575 0.4040
vt 0.9770 0.4937
vt 0.9519 0.5398
vt 0.9233 0.6020
vt 0.8970 0.6398
vt 0.8464 0.6866
vt 0.9852 0.5561
vt 0.9537 0.6184
vt 0.9256 0.6516
vt 0.8653 0.7079
vt 0.8770 0.9583
vt 0.8499 0.9318
vt 0.8611 0.9064
vt 0.9029 0.9192
vt 0.8887 0.8350
vt 0.8479 0.8482
vt 0.8335 0.8073
vt 0.8303 0.7980
vt 0.8752 0.7821
vt 0.8956 0.8751
vt 0.8520 0.8798
vt 0.8569 0.9848
vt 0.8303 0.9619
vt 0.8563 0.7531
vt 0.0542 0.6510
vt 0.0849 0.6744
vt 0.0502 0.7365
vt 0.0193 0.7125
vt 0.0109 0.8213
vt 0.0519 0.8192
vt 0.0593 0.8800
vt 0.0180 0.8850
vt 0.0809 0.9448
vt 0.0258 0.9751
vt -0.0006 0.7647
vt 0.0486 0.7771
vt 0.1047 0.8710
vt 0.1518 0.9396
vt 0.1210 0.7058
vt 0.0910 0.7543
vt 0.0901 0.7913
vt 0.0943 0.8146
vt 0.1624 0.8773
vt 0.1763 0.8975
vt 0.1724 0.7615
vt 0.1426 0.7926
vt 0.1470 0.8174
vt 0.1479 0.8304
vt 0.1498 0.9512
vt 0.0853 0.9535
vt 0.0277 0.9861
vt 0.0086 0.9881
vt 0.5615 0.5549
vt 0.5820 0.6228
vt 0.5348 0.6068
vt 0.5489 0.6775
vt 0.3628 0.1856
vt 0.5414 0.5513
vt 0.2945 0.0894
vt 0.2899 0.0946
vt 0.2732 0.0825
vt 0.2780 0.0768
vt 0.3339 0.0692
vt 0.3158 0.0764
vt 0.3078 0.0583
vt 0.3272 0.0510
vt 0.3434 0.0677
vt 0.3481 0.0490
vt 0.3012 0.0845
vt 0.2935 0.0657
vt 0.3504 0.0670
vt 0.3504 0.0483
vt 0.3014 0.0419
vt 0.2826 0.0500
vt 0.2731 0.0368
vt 0.2949 0.0273
vt 0.2683 0.0613
vt 0.2606 0.0462
vt 0.2591 0.0724
vt 0.2462 0.0622
vt 0.3209 0.0361
vt 0.3134 0.0212
vt 0.3446 0.0329
vt 0.3388 0.0169
vt 0.2909 0.0189
vt 0.3072 0.0100
vt 0.2690 0.0289
vt 0.2556 0.0382
vt 0.2391 0.0561
vt 0.2852 0.0071
vt 0.2632 0.0182
vt 0.2515 0.0281
vt 0.2316 0.0494
vt 0.4063 0.0894
vt 0.4228 0.0768
vt 0.4276 0.0825
vt 0.4109 0.0946
vt 0.3669 0.0692
vt 0.3736 0.0510
vt 0.3930 0.0583
vt 0.3850 0.0764
vt 0.3575 0.0677
vt 0.3527 0.0490
vt 0.4073 0.0658
vt 0.3996 0.0845
vt 0.3994 0.0419
vt 0.4059 0.0273
vt 0.4277 0.0369
vt 0.4182 0.0500
vt 0.4402 0.0462
vt 0.4325 0.0613
vt 0.4546 0.0622
vt 0.4417 0.0724
vt 0.3799 0.0361
vt 0.3874 0.0212
vt 0.3562 0.0329
vt 0.3620 0.0169
vt 0.3936 0.0100
vt 0.4099 0.0189
vt 0.4319 0.0290
vt 0.4452 0.0382
vt 0.4617 0.0561
vt 0.4157 0.0071
vt 0.4376 0.0182
vt 0.4494 0.0282
vt 0.4692 0.0494
vn -0.5311 0.8093 0.2511
vn -0.8599 -0.0991 0.5007
vn -0.9050 0.2620 -0.3350
vn -0.6406 0.6060 -0.4716
vn 0.3604 0.8838 -0.2981
vn -0.2216 0.7051 -0.6736
vn -0.9217 0.0208 0.3872
vn -0.8251 0.2072 -0.5255
vn -0.7862 -0.4362 -0.4377
vn -0.9098 -0.2118 0.3568
vn 0.0497 0.1119 -0.9925
vn 0.5549 -0.5011 -0.6641
vn 0.6153 -0.2015 -0.7621
vn 0.0583 -0.4155 -0.9077
vn 0.3108 -0.9502 0.0224
vn -0.5650 -0.6258 0.5377
vn -0.9259 0.1098 0.3614
vn -0.0558 0.2864 -0.9565
vn -0.9830 0.1338 -0.1255
vn -0.6529 0.7533 -0.0789
vn -0.7821 -0.1419 -0.6068
vn -0.7061 -0.5729 -0.4162
vn -0.1523 -0.2522 -0.9556
vn 0.1955 0.3133 -0.9293
vn 0.4471 0.1712 -0.8779
vn 0.0900 -0.4902 -0.8669
vn 0.1923 0.8204 -0.5385
vn -0.7625 -0.6384 0.1046
vn -0.6406 -0.0598 0.7655
vn 0.3260 -0.8196 0.4711
vn 0.6146 -0.6159 -0.4928
vn -0.7730 0.5431 0.3277
vn -0.6858 0.6273 -0.3690
vn -0.7720 0.4695 -0.4285
vn -0.8330 0.3904 0.3919
vn -0.5243 -0.1512 0.8379
vn -0.8693 0.2325 0.4362
vn -0.2953 -0.3706 0.8806
vn -0.1712 0.1536 -0.9732
vn 0.2519 0.2657 -0.9306
vn -0.7634 0.4781 -0.4343
vn -0.7686 0.0047 -0.6396
vn -0.6057 0.1981 0.7706
vn 0.6989 -0.6205 0.3556
vn 0.8689 -0.1774 -0.4620
vn 0.9799 -0.1507 0.1306
vn 0.6549 -0.7435 0.1352
vn 0.7295 0.5358 0.4251
vn -0.1052 -0.8114 0.5749
vn -0.2773 -0.2453 0.9289
vn -0.0237 0.4377 0.8988
vn 0.2636 0.0613 0.9626
vn 0.8243 0.1458 0.5470
vn 0.3810 -0.6070 0.6974
vn 0.0732 -0.3630 0.9289
vn 0.9087 -0.2764 0.3129
vn 0.6617 -0.5896 0.4632
vn 0.6203 -0.7410 -0.2573
vn 0.7348 -0.1437 -0.6628
vn 0.8760 -0.3674 -0.3125
vn 0.6481 -0.7097 -0.2761
vn 0.4533 0.8736 0.1771
vn 0.2775 -0.9026 0.3290
vn 0.3958 0.3806 0.8357
vn 0.6529 0.1383 -0.7447
vn 0.6877 -0.6039 -0.4029
vn 0.3904 0.8516 -0.3498
vn -0.6551 -0.1564 0.7391
vn -0.2884 -0.8500 0.4408
vn -0.2677 -0.8079 0.5250
vn -0.5696 -0.2101 0.7945
vn -0.4552 0.6547 0.6034
vn -0.4202 0.5264 0.7391
vn 0.2105 0.9614 -0.1770
vn -0.2989 0.4532 0.8398
vn -0.3585 -0.2805 0.8904
vn 0.5066 -0.1768 0.8438
vn 0.1944 0.4627 0.8649
vn -0.0535 -0.7798 0.6237
vn 0.8516 -0.4022 -0.3361
vn 0.3991 -0.6652 0.6310
vn 0.9628 0.1348 -0.2341
vn 0.6262 0.7740 -0.0937
vn -0.0085 -0.3997 -0.9166
vn 0.0522 0.8891 -0.4547
vn 0.5387 0.7783 -0.3225
vn 0.5970 -0.2616 -0.7584
vn 0.7088 0.2965 0.6401
vn 0.6761 -0.6855 0.2699
vn -0.5351 -0.8437 -0.0409
vn 0.3090 -0.7850 -0.5369
vn 0.8262 0.0677 -0.5592
vn -0.0919 0.4445 -0.8910
vn 0.0468 0.4333 -0.9000
vn -0.2830 -0.5123 -0.8108
vn 0.1945 -0.0308 -0.9804
vn -0.6462 0.3831 -0.6600
vn -0.4203 0.3240 -0.8476
vn 0.3597 -0.5305 0.7675
vn 0.0407 -0.5163 0.8554
vn 0.0649 -0.7238 0.6869
vn 0.3939 -0.8701 0.2963
vn -0.5865 -0.3104 0.7481
vn -0.8092 -0.1698 0.5624
vn 0.0842 -0.7089 0.7003
vn -0.7779 -0.3327 0.5330
vn -0.7843 -0.4666 0.4087
vn 0.0305 -0.8222 0.5683
vn -0.1302 0.9612 0.2430
vn 0.6803 0.6300 0.3744
vn 0.2290 0.4974 0.8367
vn -0.0821 0.6123 0.7863
vn -0.2357 0.3143 -0.9196
vn 0.6309 -0.0600 -0.7735
vn 0.9281 0.3130 -0.2014
vn -0.3505 0.8470 -0.3995
vn 0.6695 0.0064 -0.7428
vn -0.2585 0.3988 -0.8798
vn -0.7803 -0.1894 0.5960
vn 0.1928 -0.6249 0.7564
vn -0.9100 0.3747 -0.1776
vn -0.9586 0.2629 -0.1095
vn 0.8652 -0.4330 0.2528
vn 0.8176 -0.5134 0.2607
vn 0.0131 -0.9470 0.3210
vn 0.8547 -0.5049 0.1204
vn 0.8973 -0.4267 0.1127
vn 0.4225 -0.9004 -0.1040
vn -0.0220 -0.9897 -0.1417
vn -0.9903 0.1385 0.0070
vn -0.9218 0.3097 -0.2330
vn -0.9542 0.2905 -0.0712
vn -0.5007 0.4459 0.7419
vn -0.9381 0.3417 -0.0568
vn -0.7752 -0.6062 0.1777
vn -0.5567 -0.1656 0.8140
vn -0.0291 -0.3997 0.9162
vn -0.1387 0.8861 0.4422
vn -0.7945 0.4109 0.4472
vn 0.4182 0.0602 0.9063
vn 0.6630 -0.1961 0.7225
vn 0.5559 0.6000 0.5753
vn -0.6889 -0.3410 0.6395
vn -0.0029 -0.6377 0.7702
vn -0.0158 0.6620 -0.7493
vn -0.6928 0.1685 -0.7011
vn 0.6962 0.3677 -0.6165
vn -0.5820 -0.6228 -0.5228
vn 0.1000 -0.9163 -0.3878
vn 0.7940 -0.4370 -0.4226
vn 0.5887 -0.4230 -0.6887
vn 0.5561 0.1675 -0.8141
vn -0.4637 0.0142 -0.8859
vn -0.4321 -0.5596 -0.7071
vn 0.0020 0.3925 -0.9197
vn 0.1088 -0.7861 -0.6085
vn 0.7983 0.5946 -0.0952
vn -0.1023 0.9548 -0.2791
vn -0.7927 -0.6096 0.0032
vn 0.0868 -0.9762 0.1985
vn 0.9144 -0.3827 0.1322
vn -0.9091 0.3351 -0.2473
vn -0.9176 0.2381 -0.3182
vn -0.7412 -0.6699 -0.0433
vn -0.1672 0.9328 -0.3193
vn 0.8014 0.5932 -0.0768
vn 0.2130 -0.9536 0.2127
vn 0.9237 -0.3537 0.1469
vn -0.6643 -0.7233 0.1886
vn 0.4093 -0.8155 0.4091
vn 0.9235 -0.2016 0.3264
vn 0.6856 0.6786 0.2635
vn -0.9949 0.0741 -0.0681
vn -0.3893 0.9183 0.0714
vn -0.9937 0.0839 0.0736
vn -0.5743 -0.8186 0.0052
vn -0.4744 0.7689 0.4286
vn 0.5926 0.6464 0.4806
vn 0.5240 -0.8438 0.1158
vn 0.9559 -0.0253 0.2926
vn -0.4944 -0.5071 -0.7060
vn 0.5879 -0.5378 -0.6042
vn 0.9776 0.2072 -0.0369
vn 0.5101 0.8308 0.2226
vn -0.9459 0.2537 -0.2023
vn -0.4400 0.8879 0.1342
vn -0.5085 0.4599 -0.7280
vn -0.3506 0.1728 -0.9204
vn -0.2542 0.8036 -0.5381
vn 0.3931 0.7846 -0.4795
vn 0.5184 0.1529 -0.8414
vn 0.6493 0.4433 -0.6179
vn -0.1554 0.2145 -0.9643
vn -0.0570 0.2400 -0.9691
vn -0.1612 -0.3861 0.9082
vn -0.0150 -0.4527 0.8915
vn 0.1917 -0.5181 0.8335
vn 0.1436 -0.4862 0.8619
vn -0.3053 0.1015 -0.9468
vn -0.0631 0.0304 -0.9975
vn -0.7238 0.0818 -0.6850
vn -0.8506 0.1369 -0.5077
vn -0.7167 -0.2821 0.6377
vn -0.8011 0.0443 0.5969
vn -0.9963 -0.0859 -0.0073
vn -0.9663 0.1957 0.1669
vn -0.2590 -0.0957 0.9611
vn 0.1429 -0.0912 0.9855
vn 0.1448 0.0264 0.9891
vn -0.2084 0.0201 0.9778
vn -0.3818 0.2953 -0.8758
vn -0.2629 0.5577 -0.7873
vn -0.1003 0.2148 -0.9715
vn -0.0966 0.5928 -0.7995
vn 0.3933 0.5599 -0.7292
vn 0.0694 0.8010 -0.5946
vn -0.9010 0.3666 0.2317
vn -0.5759 -0.2331 0.7836
vn 0.0288 -0.5199 0.8537
vn -0.6944 0.7043 -0.1475
vn 0.1682 -0.4265 0.8887
vn -0.9266 0.2428 0.2872
vn -0.7155 0.6985 0.0067
vn -0.7691 0.6326 -0.0905
vn -0.9378 0.1987 0.2846
vn 0.1271 0.8314 -0.5410
vn 0.0568 0.8368 -0.5445
vn 0.5645 0.3254 -0.7586
vn 0.6684 0.3029 -0.6793
vn -0.5669 -0.4669 0.6787
vn -0.5437 -0.6395 0.5435
vn -0.0164 -0.7299 0.6833
vn -0.0265 -0.8564 0.5155
vn -0.9449 0.2504 0.2106
vn -0.8412 -0.1146 0.5284
vn -0.8156 0.5149 -0.2638
vn 0.0804 0.5957 -0.7991
vn 0.6813 0.1759 -0.7105
vn -0.9459 0.2604 0.1935
vn -0.8502 0.4541 -0.2663
vn -0.0780 0.4834 -0.8719
vn 0.6653 0.0845 -0.7417
vn -0.6334 0.6422 -0.4317
vn -0.2549 0.4920 -0.8324
vn -0.3516 0.0273 0.9357
vn 0.0675 0.2790 0.9579
vn -0.6704 0.2761 0.6887
vn -0.8484 0.4910 0.1976
vn -0.1127 0.4866 -0.8663
vn -0.3231 0.3907 -0.8620
vn -0.1283 0.3364 -0.9329
vn -0.7851 0.2217 0.5782
vn -0.9070 0.3986 0.1354
vn 0.0151 -0.0811 0.9966
vn -0.7413 0.4874 -0.4614
vn -0.3596 -0.5172 0.7766
vn -0.7968 0.3638 0.4824
vn -0.2796 0.5882 -0.7588
vn -0.1050 0.5482 -0.8297
vn -0.8094 0.5829 0.0707
vn -0.6329 0.6773 -0.3749
vn -0.3466 0.5485 0.7609
vn -0.4922 0.7126 0.4998
vn -0.2065 0.8365 -0.5076
vn -0.0563 0.8179 -0.5726
vn -0.5018 0.8545 0.1340
vn -0.3371 0.9229 -0.1860
vn 0.0834 -0.7161 0.6929
vn 0.1456 0.5208 0.8412
vn 0.0418 0.9985 0.0344
vn 0.3601 -0.3313 0.8721
vn 0.1687 -0.8107 0.5606
vn -0.0795 0.4622 0.8832
vn 0.0474 -0.8447 0.5331
vn -0.3903 -0.1253 0.9121
vn 0.1415 -0.2020 0.9691
vn 0.1429 -0.1344 0.9806
vn 0.6417 0.1962 0.7414
vn 0.9457 0.3037 -0.1155
vn 0.9805 -0.1462 -0.1314
vn 0.6083 -0.6343 0.4771
vn -0.0045 0.9933 0.1156
vn 0.6475 0.6878 -0.3281
vn 0.9439 -0.1864 -0.2725
vn 0.8207 -0.5237 0.2283
vn 0.3117 -0.8825 -0.3521
vn 0.3419 -0.6752 -0.6536
vn -0.6647 -0.7345 0.1363
vn -0.5286 -0.6403 -0.5572
vn -0.9547 0.2267 0.1926
vn -0.6530 -0.2261 0.7228
vn -0.0802 0.4622 0.8831
vn 0.0655 0.7365 0.6733
vn 0.7749 0.1825 0.6052
vn 0.8754 0.3995 0.2721
vn 0.9128 0.3075 0.2685
vn 0.9386 -0.3449 0.0065
vn 0.4640 -0.6891 -0.5565
vn 0.7712 -0.3225 -0.5488
vn 0.2752 0.0486 -0.9601
vn -0.0728 -0.0855 -0.9937
vn -0.0890 0.6320 -0.7698
vn 0.2197 0.6165 -0.7560
vn 0.3290 0.9257 -0.1863
vn 0.5049 -0.8033 0.3157
vn -0.8356 -0.2005 0.5114
vn 0.0310 0.4648 0.8849
vn 0.4571 0.0099 0.8893
vn 0.7560 0.5800 -0.3034
vn 0.8052 0.3779 -0.4569
vn 0.7811 -0.0870 -0.6182
vn 0.5629 0.3666 -0.7407
vn 0.7266 0.6419 0.2449
vn 0.7701 0.6201 0.1496
vn 0.8622 0.0706 -0.5016
vn 0.2738 -0.5675 -0.7765
vn -0.7892 -0.5987 -0.1365
vn -0.5915 -0.6905 -0.4162
vn 0.7527 -0.0117 -0.6582
vn 0.7805 0.4903 0.3877
vn -0.2677 0.5517 0.7899
vn -0.8581 -0.0113 0.5134
vn -0.9245 -0.3158 -0.2132
vn -0.9446 0.3280 -0.0082
vn -0.5028 0.6681 0.5484
vn -0.1028 -0.6227 0.7757
vn -0.4095 -0.8861 0.2171
vn -0.0154 0.0663 0.9977
vn -0.4442 -0.1141 0.8886
vn -0.7859 0.3624 0.5009
vn -0.7706 -0.5150 0.3753
vn -0.4569 -0.5426 0.7049
vn -0.9842 0.1346 0.1149
vn -0.9460 -0.2886 0.1475
vn -0.7943 -0.2105 -0.5699
vn -0.7999 -0.1654 -0.5769
vn -0.8376 0.2368 -0.4923
vn -0.5294 0.4548 -0.7161
vn -0.0539 0.8795 0.4727
vn -0.3864 0.2494 0.8879
vn -0.7175 -0.6930 -0.0712
vn -0.7557 -0.0211 -0.6546
vn -0.3146 0.6673 -0.6750
vn 0.1239 0.9922 -0.0150
vn 0.3100 -0.6814 0.6630
vn 0.1987 -0.6991 0.6868
vn -0.2550 -0.9492 0.1841
vn -0.2344 -0.9678 0.0919
vn 0.5266 0.1170 0.8420
vn 0.4060 -0.0111 0.9138
vn 0.2836 0.9380 0.1993
vn 0.2438 -0.0406 0.9690
vn -0.1841 0.2062 0.9610
vn -0.7279 -0.1489 0.6692
vn -0.0385 -0.6799 0.7323
vn -0.4526 -0.8496 0.2706
vn -0.7949 -0.5327 0.2903
vn -0.8259 0.2036 -0.5258
vn -0.7127 0.6627 -0.2298
vn -0.1782 0.9686 0.1730
vn 0.0644 -0.0462 -0.9968
vn -0.4378 0.3198 -0.8402
vn -0.0429 0.9986 -0.0290
vn 0.4588 0.8855 -0.0727
vn -0.9516 -0.2996 -0.0684
vn -0.6439 0.3980 0.6534
vn 0.0598 -0.9884 -0.1397
vn -0.5750 -0.2108 -0.7906
vn -0.4932 0.6191 -0.6111
vn 0.0384 0.3824 -0.9232
vn -0.3049 -0.4699 -0.8284
vn 0.5027 0.3646 -0.7837
vn 0.4392 -0.0969 -0.8931
vn 0.1944 -0.5921 0.7821
vn 0.3531 -0.5924 0.7241
vn 0.9015 -0.1890 0.3891
vn 0.6506 -0.4370 0.6211
vn -0.4732 0.3024 0.8274
vn -0.4578 0.3255 0.8273
vn 0.5255 0.3980 0.7519
vn 0.5099 0.3679 0.7776
vn 0.4572 -0.2806 -0.8439
vn 0.1229 0.4269 -0.8959
vn -0.2504 0.3882 -0.8869
vn -0.4859 -0.3731 -0.7903
vn 0.5215 -0.5251 -0.6725
vn 0.5184 -0.3977 -0.7570
vn -0.5116 -0.5002 -0.6985
vn -0.4756 -0.6308 -0.6130
vn 0.5505 -0.4419 -0.7083
vn -0.4747 -0.5716 -0.6692
vn -0.5495 0.3225 0.7707
vn 0.5197 0.4410 0.7317
vn 0.9940 0.0896 -0.0620
vn 0.9673 0.1203 -0.2232
vn -0.9950 -0.0725 0.0688
vn -0.4475 0.3978 0.8009
vn -0.9857 -0.1015 0.1339
vn -0.9809 -0.1304 0.1445
vn -0.9905 -0.1256 0.0549
vn -0.5088 -0.8593 -0.0507
vn 0.9915 0.1101 -0.0692
vn 0.9983 0.0507 -0.0297
vn 0.9995 0.0169 -0.0258
vn 0.9933 0.0859 -0.0767
vn 0.4358 0.6470 -0.6257
vn 0.4947 0.4648 0.7342
vn -0.3496 0.9326 -0.0900
vn 0.2447 0.9610 -0.1289
vn 0.7498 0.5000 -0.4333
vn 0.3358 0.0177 -0.9418
vn -0.4201 -0.0254 -0.9071
vn -0.8409 0.4026 -0.3616
vn -0.5838 0.5772 -0.5710
vn 0.3338 0.9382 0.0910
vn -0.4163 0.8990 0.1361
vn 0.8405 -0.4006 0.3647
vn 0.4272 -0.8946 -0.1312
vn -0.3278 -0.9400 -0.0944
vn -0.3251 -0.0155 0.9456
vn 0.4265 0.0193 0.9043
vn -0.7512 -0.4957 0.4358
vn -0.2287 -0.9586 0.1693
vn -0.4731 -0.6581 0.5857
vn 0.3367 -0.2718 0.9015
vn 0.6030 -0.5911 0.5356
vn 0.3531 -0.9239 0.1473
vn -0.2014 -0.3081 0.9298
vn 0.4992 -0.5697 -0.6529
vn -0.4903 -0.6303 -0.6019
vn -0.4666 0.5072 0.7245
vn 0.4949 0.5593 0.6650
vn -0.9890 -0.1000 0.1089
vn 0.9997 0.0242 0.0079
vn 0.5730 0.6673 0.4758
vn 0.9983 0.0300 -0.0506
vn 0.5202 -0.5527 -0.6511
vn -0.5429 -0.6268 -0.5589
vn -0.5379 0.5520 0.6371
vn -0.9795 -0.1181 0.1628
vn -0.5772 0.8089 0.1123
vn 0.5528 0.8200 -0.1480
vn -0.9969 0.0744 0.0224
vn -0.6076 -0.4514 -0.6535
vn 0.9255 0.1480 -0.3486
vn 0.4313 -0.4038 -0.8068
vn 0.5789 0.8153 0.0060
vn 0.9257 0.0651 -0.3724
vn 0.4225 -0.4419 -0.7913
vn -0.6340 -0.4608 -0.6210
vn -0.4917 0.8374 0.2387
vn -0.9984 0.0563 0.0062
vn -0.3611 0.3359 0.8699
vn 0.6984 0.3179 0.6412
vn -0.9357 -0.2491 0.2498
vn -0.5603 -0.7642 -0.3195
vn 0.9573 -0.2629 -0.1202
vn 0.4060 -0.7662 -0.4981
vn 0.5864 -0.4001 0.7042
vn 0.6567 -0.6372 0.4033
vn 0.3619 -0.9178 0.1633
vn -0.2949 -0.9108 0.2890
vn -0.2615 -0.3884 0.8836
vn -0.4649 -0.6246 0.6275
vn -0.0281 0.2714 -0.9620
vn 0.3433 -0.4458 0.8267
vn 0.2778 -0.5083 0.8151
vn 0.0698 0.0685 -0.9952
vn 0.5777 0.1512 -0.8021
vn 0.6590 0.0772 -0.7481
vn 0.7679 -0.3688 0.5238
vn 0.8952 -0.1844 0.4058
vn 0.9870 -0.1144 -0.1126
vn 0.9934 -0.0181 -0.1132
vn 0.4324 -0.1233 0.8932
vn 0.4331 0.0922 0.8966
vn 0.1421 0.2188 -0.9653
vn 0.0607 0.5499 -0.8330
vn 0.3856 0.3976 -0.8325
vn 0.5409 0.7397 0.4003
vn 0.8380 0.5299 -0.1301
vn 0.3980 -0.0829 0.9136
vn 0.6685 0.4275 -0.6085
vn 0.8958 0.4277 -0.1211
vn 0.9740 0.2060 -0.0943
vn 0.7772 0.0570 -0.6266
vn 0.7314 0.2250 -0.6437
vn 0.5957 0.0950 -0.7976
vn 0.5406 0.1982 -0.8175
vn 0.5228 0.5929 0.6124
vn 0.6331 0.3078 0.7102
vn 0.0239 0.6379 0.7697
vn 0.0519 0.1783 0.9826
vn 0.8743 0.3066 0.3763
vn 0.9738 0.1916 -0.1220
vn 0.8130 0.0289 -0.5815
vn 0.6255 0.0183 -0.7800
vn 0.9536 0.2486 -0.1697
vn 0.8354 0.1131 -0.5378
vn 0.6155 0.0005 -0.7881
vn 0.0522 0.4660 -0.8832
vn 0.5406 0.5160 -0.6644
vn 0.8790 0.1767 0.4429
vn 0.3261 0.2312 0.9166
vn 0.6456 -0.0323 0.7629
vn 0.8909 0.4226 -0.1662
vn 0.0820 0.3758 -0.9230
vn 0.9329 0.3310 -0.1420
vn 0.9344 0.1586 0.3189
vn 0.2732 -0.0905 0.9576
vn 0.6055 0.4379 -0.6645
vn 0.9275 0.3005 0.2224
vn 0.5361 -0.5507 0.6397
vn 0.0852 0.5748 -0.8138
vn 0.5413 0.6342 -0.5520
vn 0.8340 0.5226 -0.1772
vn 0.6674 0.6701 0.3249
vn 0.5942 0.5148 0.6179
vn 0.1073 0.8249 -0.5549
vn 0.3327 0.8983 -0.2870
vn 0.5790 0.8148 -0.0290
vn -0.0546 -0.8033 0.5930
vn -0.1101 -0.3141 0.9430
vn 0.3690 0.4457 0.8155
vn 0.6316 -0.1628 0.7580
vn -0.0598 0.8158 -0.5753
vn 0.2897 0.7473 -0.5980
vn 0.4132 0.5493 -0.7262
vn 0.0807 0.7985 -0.5965
vn -0.5617 -0.1705 0.8096
vn -0.9071 0.3831 0.1744
vn -0.9013 0.3663 0.2313
vn -0.5763 -0.2350 0.7827
vn 0.0359 -0.4605 0.8869
vn 0.0204 -0.5224 0.8524
vn -0.6398 0.6905 -0.3373
vn -0.6942 0.7046 -0.1468
vn 0.3124 -0.4324 0.8458
vn 0.1292 -0.4300 0.8935
vn -0.9268 0.2425 0.2868
vn -0.7155 0.6986 0.0068
vn -0.7682 0.6347 -0.0840
vn -0.9376 0.1973 0.2862
vn 0.1360 0.8299 -0.5411
vn 0.0645 0.8414 -0.5365
vn 0.5790 0.3223 -0.7489
vn 0.6739 0.3113 -0.6700
vn -0.5672 -0.4678 0.6777
vn -0.5452 -0.6517 0.5272
vn -0.0164 -0.7310 0.6821
vn -0.0270 -0.8592 0.5109
vn -0.9445 0.2523 0.2102
vn -0.8472 -0.1202 0.5175
vn -0.8128 0.5227 -0.2572
vn 0.0885 0.6051 -0.7912
vn 0.6814 0.1687 -0.7122
vn -0.9451 0.2631 0.1936
vn -0.8477 0.4606 -0.2630
vn -0.0739 0.4927 -0.8670
vn 0.6582 0.0526 -0.7509
vn 0.2561 0.6278 -0.7350
vn 0.3894 0.3875 -0.8356
vn 0.5025 -0.0070 0.8646
vn 0.5599 0.7082 0.4300
vn 0.8507 0.5097 -0.1283
vn 0.8618 0.5070 0.0129
vn 0.1594 -0.3670 0.9164
vn 0.3425 -0.0800 0.9361
vn 0.6555 0.4143 -0.6313
vn 0.5624 0.5635 -0.6051
vn 0.9005 0.4232 -0.0996
vn 0.9670 0.2422 -0.0790
vn 0.7776 0.0843 -0.6231
vn 0.7319 0.2340 -0.6399
vn 0.5855 0.1035 -0.8040
vn 0.5378 0.2143 -0.8153
vn 0.5219 0.5881 0.6178
vn 0.6245 0.3229 0.7111
vn 0.0234 0.6471 0.7620
vn 0.8562 0.3221 0.4039
vn 0.9767 0.1943 -0.0911
vn 0.8207 0.0014 -0.5712
vn 0.6184 -0.0213 -0.7855
vn 0.9763 0.1762 -0.1250
vn 0.8556 0.0252 -0.5171
vn 0.6189 -0.0819 -0.7812
usemtl Material
s 1
f 81/1/1 82/2/2 28/3/3 29/4/4
f 86/5/5 81/1/1 29/4/4 24/6/6
f 89/7/7 87/8/8 10/9/9 11/10/10
f 91/11/11 90/12/12 8/13/13 9/14/14
f 88/15/15 92/16/16 80/17/17 7/18/18
f 87/8/8 91/11/11 9/14/14 10/9/9
f 29/4/4 28/3/3 40/19/19 41/20/20
f 28/3/3 27/21/21 37/22/22 40/19/19
f 26/23/23 25/24/24 38/25/25 39/26/26
f 24/6/6 29/4/4 41/20/20 30/27/27
f 17/28/28 13/29/29 20/30/30 22/31/31
f 14/32/32 15/33/33 18/34/34 21/35/35
f 19/36/36 21/35/35 4/37/37 2/38/38
f 18/34/34 23/39/39 1/40/40 5/41/41
f 15/33/33 16/42/42 23/39/39 18/34/34
f 13/29/29 12/43/43 19/36/36 20/30/30
f 12/43/43 14/32/32 21/35/35 19/36/36
f 16/42/42 17/44/28 22/45/31 23/39/39
f 20/30/30 19/36/36 2/38/38 3/46/44
f 22/31/31 20/30/30 3/46/44 6/47/45
f 23/39/39 22/45/31 6/48/45 1/40/40
f 21/35/35 18/34/34 5/41/41 4/37/37
f 27/21/21 26/23/23 39/26/26 37/22/22
f 25/24/24 24/49/6 30/50/27 38/25/25
f 90/12/12 88/51/15 7/52/18 8/13/13
f 92/16/16 89/7/7 11/10/10 80/17/17
f 39/26/26 38/25/25 46/53/46 47/54/47
f 38/25/25 30/50/27 43/55/48 46/53/46
f 40/19/19 37/22/22 45/56/49 44/57/50
f 37/22/22 39/26/26 47/54/47 45/56/49
f 41/20/20 40/19/19 44/57/50 42/58/51
f 30/27/27 41/20/20 42/58/51 43/59/48
f 32/60/52 31/61/53 43/59/48 42/58/51
f 34/62/54 33/63/55 44/57/50 45/56/49
f 33/63/55 32/60/52 42/58/51 44/57/50
f 35/64/56 36/65/57 47/54/47 46/53/46
f 36/65/57 34/62/54 45/56/49 47/54/47
f 31/66/53 35/64/56 46/53/46 43/55/48
f 68/67/58 67/68/59 52/69/60 53/70/61
f 48/71/62 52/72/60 74/73/63 73/74/64
f 53/70/61 52/69/60 58/75/65 59/76/66
f 52/69/60 48/77/62 55/78/67 58/75/65
f 70/79/68 69/80/69 51/81/70 50/82/71
f 69/80/69 68/67/58 53/70/61 51/81/70
f 71/83/72 70/79/68 50/82/71 49/84/73
f 66/85/74 71/86/72 49/87/73 48/77/62
f 54/88/75 56/89/76 62/90/77 60/91/78
f 57/92/79 59/76/66 65/93/80 63/94/81
f 50/82/71 51/81/70 57/92/79 56/89/76
f 51/81/70 53/70/61 59/76/66 57/92/79
f 49/84/73 50/82/71 56/89/76 54/88/75
f 48/77/62 49/87/73 54/95/75 55/78/67
f 63/94/81 65/93/80 64/96/82 62/90/77
f 61/97/83 60/91/78 62/90/77 64/96/82
f 55/78/67 54/95/75 60/98/78 61/99/83
f 58/75/65 55/78/67 61/99/83 64/100/82
f 59/76/66 58/75/65 64/100/82 65/93/80
f 56/89/76 57/92/79 63/94/81 62/90/77
f 31/101/53 32/102/52 71/86/72 66/85/74
f 32/103/52 33/104/55 70/79/68 71/83/72
f 34/105/54 36/106/57 68/67/58 69/80/69
f 33/104/55 34/105/54 69/80/69 70/79/68
f 35/107/56 31/101/53 66/85/74 67/68/59
f 36/106/57 35/107/56 67/68/59 68/67/58
f 75/108/84 72/109/85 76/110/86 79/111/87
f 66/112/74 48/71/62 73/74/64 72/113/85
f 52/72/60 67/114/59 75/108/84 74/73/63
f 67/114/59 66/115/74 72/109/85 75/108/84
f 79/111/87 76/110/86 77/116/88 78/117/89
f 73/74/64 74/73/63 78/117/89 77/118/88
f 74/73/63 75/108/84 79/111/87 78/117/89
f 72/113/85 73/74/64 77/118/88 76/119/86
f 83/120/90 84/121/91 26/23/23 27/21/21
f 82/2/2 83/120/90 27/21/21 28/3/3
f 85/122/92 86/123/5 24/49/6 25/24/24
f 84/121/91 85/122/92 25/24/24 26/23/23
f 9/14/14 8/13/13 85/122/92 84/121/91
f 8/13/13 7/52/18 86/123/5 85/122/92
f 11/10/10 10/9/9 83/120/90 82/2/2
f 10/9/9 9/14/14 84/121/91 83/120/90
f 7/18/18 80/17/17 81/1/1 86/5/5
f 80/17/17 11/10/10 82/2/2 81/1/1
f 2/124/38 4/125/37 89/7/7 92/16/16
f 6/126/45 3/127/44 88/51/15 90/12/12
f 5/128/41 1/129/40 91/11/11 87/8/8
f 3/130/44 2/124/38 92/16/16 88/15/15
f 1/129/40 6/126/45 90/12/12 91/11/11
f 4/125/37 5/128/41 87/8/8 89/7/7
f 96/131/93 344/132/94 350/133/95 100/134/96
f 94/135/97 96/131/93 100/134/96 98/136/98
f 343/137/99 95/138/100 99/139/101 349/140/102
f 95/138/100 93/141/103 97/142/104 99/139/101
f 245/143/105 243/144/106 101/145/107 103/146/108
f 238/147/109 237/148/110 108/149/111 106/150/112
f 246/151/113 244/152/114 104/153/115 102/154/116
f 98/136/98 100/134/96 111/155/117 112/156/118
f 99/139/101 97/142/104 109/157/119 110/158/120
f 113/159/121 109/157/119 97/142/104 120/160/122
f 241/161/123 118/162/124 103/146/108 240/163/125
f 247/164/126 245/143/105 103/146/108 118/162/124
f 119/165/127 111/155/117 100/134/96 121/166/128
f 365/167/129 121/166/128 100/134/96 350/133/95
f 117/168/130 120/160/122 97/142/104 93/141/103
f 94/135/97 98/136/98 120/169/122 117/170/130
f 349/140/102 99/139/101 121/166/128 365/167/129
f 110/158/120 119/165/127 121/166/128 99/139/101
f 244/152/114 247/164/126 118/162/124 104/153/115
f 237/148/110 104/153/115 118/162/124 241/161/123
f 112/156/118 113/171/121 120/169/122 98/136/98
f 243/144/106 248/172/131 115/173/132 101/145/107
f 238/147/109 106/150/112 116/174/133 242/175/134
f 239/176/135 105/177/136 107/178/137 240/163/125
f 242/179/134 116/180/133 105/177/136 239/176/135
f 248/181/131 246/151/113 102/154/116 115/182/132
f 116/183/133 106/184/112 123/185/138 127/186/139
f 108/187/111 114/188/140 126/189/141 125/190/142
f 106/191/112 108/192/111 125/193/142 123/194/138
f 105/195/136 116/196/133 127/197/139 122/198/143
f 107/199/137 105/200/136 122/201/143 124/202/144
f 114/203/140 107/204/137 124/205/144 126/206/141
f 127/186/139 123/185/138 129/207/145 133/208/146
f 123/194/138 125/193/142 131/209/147 129/210/145
f 124/202/144 122/201/143 128/211/148 130/212/149
f 126/206/141 124/205/144 130/213/149 132/214/150
f 125/190/142 126/189/141 132/215/150 131/216/147
f 122/198/143 127/197/139 133/217/146 128/218/148
f 131/216/147 132/215/150 138/219/151 137/220/152
f 128/218/148 133/217/146 139/221/153 134/222/154
f 133/208/146 129/207/145 135/223/155 139/224/153
f 129/210/145 131/209/147 137/225/152 135/226/155
f 130/212/149 128/211/148 134/227/154 136/228/156
f 132/214/150 130/213/149 136/229/156 138/230/151
f 135/226/155 137/225/152 143/231/157 141/232/158
f 136/228/156 134/227/154 140/233/159 142/234/160
f 138/230/151 136/229/156 142/235/160 144/236/161
f 137/220/152 138/219/151 144/237/161 143/238/157
f 134/222/154 139/221/153 145/239/162 140/240/159
f 139/224/153 135/223/155 141/241/158 145/242/162
f 140/240/159 145/239/162 151/243/163 146/244/164
f 145/242/162 141/241/158 147/245/165 151/246/163
f 141/232/158 143/231/157 149/247/166 147/248/165
f 142/234/160 140/233/159 146/249/164 148/250/167
f 144/236/161 142/235/160 148/251/167 150/252/168
f 143/238/157 144/237/161 150/253/168 149/254/166
f 148/250/167 146/249/164 152/255/169 154/256/170
f 150/252/168 148/251/167 154/257/170 156/258/171
f 149/254/166 150/253/168 156/259/171 155/260/172
f 146/244/164 151/243/163 157/261/173 152/262/169
f 151/246/163 147/245/165 153/263/174 157/264/173
f 147/248/165 149/247/166 155/265/172 153/266/174
f 152/262/169 157/261/173 163/267/175 158/268/176
f 157/264/173 153/263/174 159/269/177 163/270/175
f 153/266/174 155/265/172 161/271/178 159/272/177
f 154/256/170 152/255/169 158/273/176 160/274/179
f 156/258/171 154/257/170 160/275/179 162/276/180
f 155/260/172 156/259/171 162/277/180 161/278/178
f 160/274/179 158/273/176 164/279/181 166/280/182
f 162/276/180 160/275/179 166/281/182 168/282/183
f 161/278/178 162/277/180 168/283/183 167/284/184
f 158/268/176 163/267/175 169/285/185 164/286/181
f 163/270/175 159/269/177 165/287/186 169/288/185
f 159/272/177 161/271/178 167/289/184 165/290/186
f 164/286/181 169/285/185 175/291/187 170/292/188
f 169/288/185 165/287/186 171/293/189 175/291/187
f 165/290/186 167/289/184 173/294/190 171/293/189
f 166/280/182 164/279/181 170/292/188 172/295/191
f 168/282/183 166/281/182 172/295/191 174/296/192
f 167/284/184 168/283/183 174/296/192 173/294/190
f 96/297/93 180/298/193 440/299/194 344/300/94
f 181/301/195 183/302/196 439/303/197 435/304/198
f 183/302/196 95/305/100 343/306/99 439/303/197
f 180/298/193 182/307/199 437/308/200 440/299/194
f 178/309/201 179/310/202 182/307/199 180/298/193
f 176/311/203 93/312/103 95/305/100 183/302/196
f 177/313/204 176/311/203 183/302/196 181/301/195
f 94/314/97 178/309/201 180/298/193 96/297/93
f 184/315/205 178/309/201 94/314/97 117/316/130
f 185/317/206 179/310/202 178/309/201 184/315/205
f 177/313/204 185/317/206 184/315/205 176/311/203
f 176/311/203 184/315/205 117/316/130 93/312/103
f 189/318/207 447/319/208 444/320/209 186/321/210
f 188/322/211 16/42/42 15/33/33 187/323/212
f 182/324/199 179/325/202 16/42/42 188/322/211
f 181/326/195 435/327/198 447/319/208 189/318/207
f 177/328/204 181/326/195 189/318/207 13/29/29
f 437/329/200 182/324/199 188/322/211 448/330/213
f 448/330/213 188/322/211 187/323/212 446/331/214
f 13/29/29 189/318/207 186/321/210 12/43/43
f 185/332/206 17/44/28 16/42/42 179/325/202
f 177/328/204 13/29/29 17/28/28 185/333/206
f 96/334/93 344/335/94 454/336/215 193/337/216
f 93/338/103 117/339/130 194/340/217 190/341/218
f 95/342/100 93/338/103 190/341/218 192/343/219
f 117/339/130 94/344/97 191/345/220 194/340/217
f 343/346/99 95/342/100 192/343/219 453/347/221
f 94/344/97 96/334/93 193/337/216 191/345/220
f 208/348/222 207/349/223 196/350/224 199/351/225
f 207/349/223 209/352/226 198/353/227 196/350/224
f 209/352/226 476/354/228 460/355/229 198/353/227
f 210/356/230 208/348/222 199/351/225 195/357/231
f 211/358/232 210/356/230 195/357/231 197/359/233
f 195/357/231 199/351/225 203/360/234 200/361/235
f 197/359/233 195/357/231 200/361/235
f 199/351/225 196/350/224 201/362/236 203/360/234
f 196/350/224 198/353/227 202/363/237 201/362/236
f 198/353/227 460/355/229 466/364/238 202/363/237
f 200/361/235 203/360/234 206/365/239
f 203/360/234 201/362/236 204/366/240 206/365/239
f 201/362/236 202/363/237 205/367/241 204/366/240
f 202/363/237 466/364/238 470/368/242 205/367/241
f 192/343/219 190/341/218 210/356/230 211/358/232
f 190/341/218 194/340/217 208/348/222 210/356/230
f 193/337/216 454/336/215 476/354/228 209/352/226
f 191/345/220 193/337/216 209/352/226 207/349/223
f 194/340/217 191/345/220 207/349/223 208/348/222
f 174/296/192 172/295/191 170/292/188 175/291/187
f 171/293/189 173/294/190 174/296/192 175/291/187
f 187/369/212 15/370/33 213/371/243 216/372/244
f 12/373/43 186/374/210 215/375/245 217/376/246 214/377/247
f 14/378/32 12/373/43 214/377/247 212/379/248
f 446/380/214 187/369/212 216/372/244 484/381/249
f 444/382/209 215/375/245 186/374/210
f 15/370/33 14/378/32 212/379/248 213/371/243
f 484/383/249 216/384/244 221/385/250 490/386/251
f 212/387/248 214/388/247 220/389/252 218/390/253
f 214/388/247 217/391/246 222/392/254 220/389/252
f 213/393/243 212/387/248 218/390/253 219/394/255
f 216/384/244 213/393/243 219/394/255 221/385/250
f 220/389/252 222/392/254 227/395/256 225/396/257
f 490/386/251 221/385/250 226/397/258 496/398/259
f 219/394/255 218/390/253 223/399/260 224/400/261
f 221/385/250 219/394/255 224/400/261 226/397/258
f 218/390/253 220/389/252 225/396/257 223/399/260
f 225/396/257 227/395/256 232/401/262 230/402/263
f 496/398/259 226/397/258 231/403/264 502/404/265
f 224/400/261 223/399/260 228/405/266 229/406/267
f 226/397/258 224/400/261 229/406/267 231/403/264
f 223/399/260 225/396/257 230/402/263 228/405/266
f 232/401/262 227/395/256 504/407/268 505/408/269
f 228/405/266 230/402/263 506/409/270 229/406/267
f 506/409/270 230/402/263 232/401/262 505/408/269
f 229/406/267 506/409/270 502/404/265 231/403/264
f 227/395/256 222/392/254 234/410/271 235/411/272
f 222/392/254 217/391/246 233/412/273 234/410/271
f 504/407/268 227/395/256 235/411/272 510/413/274
f 215/414/245 233/412/273 217/391/246
f 233/415/273 236/416/275 234/417/271
f 234/417/271 236/416/275 235/418/272
f 235/418/272 236/416/275 510/419/274
f 115/173/132 242/179/134 239/176/135 101/145/107
f 101/145/107 239/176/135 240/163/125 103/146/108
f 102/154/116 238/147/109 242/175/134 115/182/132
f 108/149/111 237/148/110 241/161/123 114/420/140
f 114/420/140 241/161/123 240/163/125 107/178/137
f 102/154/116 104/153/115 237/148/110 238/147/109
f 113/171/121 112/156/118 246/151/113 248/181/131
f 109/157/119 113/159/121 248/172/131 243/144/106
f 111/155/117 119/165/127 247/164/126 244/152/114
f 119/165/127 110/158/120 245/143/105 247/164/126
f 112/156/118 111/155/117 244/152/114 246/151/113
f 110/158/120 109/157/119 243/144/106 245/143/105
f 444/421/209 525/422/276 215/423/245
f 236/416/275 524/424/277 510/419/274
f 236/416/275 525/422/276 524/424/277
f 525/422/276 236/416/275 215/423/245
f 233/415/273 215/423/245 236/416/275
f 329/425/278 277/426/279 276/427/280 330/428/281
f 334/429/282 272/430/283 277/426/279 329/425/278
f 337/431/284 259/432/285 258/433/286 335/434/287
f 339/435/288 257/436/289 256/437/290 338/438/291
f 336/439/292 255/440/293 328/441/294 340/442/295
f 335/434/287 258/433/286 257/436/289 339/435/288
f 277/426/279 289/443/296 288/444/297 276/427/280
f 276/427/280 288/444/297 285/445/298 275/446/299
f 274/447/300 287/448/301 286/449/302 273/450/303
f 272/430/283 278/451/304 289/443/296 277/426/279
f 265/452/305 270/453/306 268/454/307 261/455/308
f 262/456/309 269/457/310 266/458/311 263/459/312
f 267/460/313 250/461/314 252/462/315 269/457/310
f 266/458/311 253/463/316 249/464/317 271/465/318
f 263/459/312 266/458/311 271/465/318 264/466/319
f 261/455/308 268/454/307 267/460/313 260/467/320
f 260/467/320 267/460/313 269/457/310 262/456/309
f 264/466/319 271/465/318 270/468/306 265/469/305
f 268/454/307 251/470/321 250/461/314 267/460/313
f 270/453/306 254/471/322 251/470/321 268/454/307
f 271/465/318 249/464/317 254/472/322 270/468/306
f 269/457/310 252/462/315 253/463/316 266/458/311
f 275/446/299 285/445/298 287/448/301 274/447/300
f 273/450/303 286/449/302 278/473/304 272/474/283
f 338/438/291 256/437/290 255/475/293 336/476/292
f 340/442/295 328/441/294 259/432/285 337/431/284
f 287/448/301 295/477/323 294/478/324 286/449/302
f 286/449/302 294/478/324 291/479/325 278/473/304
f 288/444/297 292/480/326 293/481/327 285/445/298
f 285/445/298 293/481/327 295/477/323 287/448/301
f 289/443/296 290/482/328 292/480/326 288/444/297
f 278/451/304 291/483/325 290/482/328 289/443/296
f 280/484/329 290/482/328 291/483/325 279/485/330
f 282/486/331 293/481/327 292/480/326 281/487/332
f 281/487/332 292/480/326 290/482/328 280/484/329
f 283/488/333 294/478/324 295/477/323 284/489/334
f 284/489/334 295/477/323 293/481/327 282/486/331
f 279/490/330 291/479/325 294/478/324 283/488/333
f 316/491/335 301/492/336 300/493/337 315/494/338
f 296/495/339 321/496/340 322/497/341 300/498/337
f 301/492/336 307/499/342 306/500/343 300/493/337
f 300/493/337 306/500/343 303/501/344 296/502/339
f 318/503/345 298/504/346 299/505/347 317/506/348
f 317/506/348 299/505/347 301/492/336 316/491/335
f 319/507/349 297/508/350 298/504/346 318/503/345
f 314/509/351 296/502/339 297/510/350 319/511/349
f 302/512/352 308/513/353 310/514/354 304/515/355
f 305/516/356 311/517/357 313/518/358 307/499/342
f 298/504/346 304/515/355 305/516/356 299/505/347
f 299/505/347 305/516/356 307/499/342 301/492/336
f 297/508/350 302/512/352 304/515/355 298/504/346
f 296/502/339 303/501/344 302/519/352 297/510/350
f 311/517/357 310/514/354 312/520/359 313/518/358
f 309/521/360 312/520/359 310/514/354 308/513/353
f 303/501/344 309/522/360 308/523/353 302/519/352
f 306/500/343 312/524/359 309/522/360 303/501/344
f 307/499/342 313/518/358 312/524/359 306/500/343
f 304/515/355 310/514/354 311/517/357 305/516/356
f 279/525/330 314/509/351 319/511/349 280/526/329
f 280/527/329 319/507/349 318/503/345 281/528/332
f 282/529/331 317/506/348 316/491/335 284/530/334
f 281/528/332 318/503/345 317/506/348 282/529/331
f 283/531/333 315/494/338 314/509/351 279/525/330
f 284/530/334 316/491/335 315/494/338 283/531/333
f 323/532/361 327/533/362 324/534/363 320/535/364
f 314/536/351 320/537/364 321/496/340 296/495/339
f 300/498/337 322/497/341 323/532/361 315/538/338
f 315/538/338 323/532/361 320/535/364 314/539/351
f 327/533/362 326/540/365 325/541/366 324/534/363
f 321/496/340 325/542/366 326/540/365 322/497/341
f 322/497/341 326/540/365 327/533/362 323/532/361
f 320/537/364 324/543/363 325/542/366 321/496/340
f 331/544/367 275/446/299 274/447/300 332/545/368
f 330/428/281 276/427/280 275/446/299 331/544/367
f 333/546/369 273/450/303 272/474/283 334/547/282
f 332/545/368 274/447/300 273/450/303 333/546/369
f 257/436/289 332/545/368 333/546/369 256/437/290
f 256/437/290 333/546/369 334/547/282 255/475/293
f 259/432/285 330/428/281 331/544/367 258/433/286
f 258/433/286 331/544/367 332/545/368 257/436/289
f 255/440/293 334/429/282 329/425/278 328/441/294
f 328/441/294 329/425/278 330/428/281 259/432/285
f 250/548/314 340/442/295 337/431/284 252/549/315
f 254/550/322 338/438/291 336/476/292 251/551/321
f 253/552/316 335/434/287 339/435/288 249/553/317
f 251/554/321 336/439/292 340/442/295 250/548/314
f 249/553/317 339/435/288 338/438/291 254/550/322
f 252/549/315 337/431/284 335/434/287 253/552/316
f 346/555/370 352/556/371 350/133/95 344/132/94
f 342/557/372 348/558/373 352/556/371 346/555/370
f 343/137/99 349/140/102 351/559/374 345/560/375
f 345/560/375 351/559/374 347/561/376 341/562/377
f 520/563/378 355/564/379 353/565/380 518/566/381
f 513/567/382 358/568/383 360/569/384 512/570/385
f 521/571/386 354/572/387 356/573/388 519/574/389
f 348/558/373 364/575/390 363/576/391 352/556/371
f 351/559/374 362/577/392 361/578/393 347/561/376
f 366/579/394 373/580/395 347/561/376 361/578/393
f 516/581/396 515/582/397 355/564/379 371/583/398
f 522/584/399 371/583/398 355/564/379 520/563/378
f 372/585/400 374/586/401 352/556/371 363/576/391
f 365/167/129 350/133/95 352/556/371 374/586/401
f 370/587/402 341/562/377 347/561/376 373/580/395
f 342/557/372 370/588/402 373/589/395 348/558/373
f 349/140/102 365/167/129 374/586/401 351/559/374
f 362/577/392 351/559/374 374/586/401 372/585/400
f 519/574/389 356/573/388 371/583/398 522/584/399
f 512/570/385 516/581/396 371/583/398 356/573/388
f 364/575/390 348/558/373 373/589/395 366/590/394
f 518/566/381 353/565/380 368/591/403 523/592/404
f 513/567/382 517/593/405 369/594/406 358/568/383
f 514/595/407 515/582/397 359/596/408 357/597/409
f 517/598/405 514/595/407 357/597/409 369/599/406
f 523/600/404 368/601/403 354/572/387 521/571/386
f 369/602/406 380/603/410 376/604/411 358/605/383
f 360/606/384 378/607/412 379/608/413 367/609/414
f 358/610/383 376/611/411 378/612/412 360/613/384
f 357/614/409 375/615/415 380/616/410 369/617/406
f 359/618/408 377/619/416 375/620/415 357/621/409
f 367/622/414 379/623/413 377/624/416 359/625/408
f 380/603/410 386/626/417 382/627/418 376/604/411
f 376/611/411 382/628/418 384/629/419 378/612/412
f 377/619/416 383/630/420 381/631/421 375/620/415
f 379/623/413 385/632/422 383/633/420 377/624/416
f 378/607/412 384/634/419 385/635/422 379/608/413
f 375/615/415 381/636/421 386/637/417 380/616/410
f 384/634/419 390/638/423 391/639/424 385/635/422
f 381/636/421 387/640/425 392/641/426 386/637/417
f 386/626/417 392/642/426 388/643/427 382/627/418
f 382/628/418 388/644/427 390/645/423 384/629/419
f 383/630/420 389/646/428 387/647/425 381/631/421
f 385/632/422 391/648/424 389/649/428 383/633/420
f 388/644/427 394/650/429 396/651/430 390/645/423
f 389/646/428 395/652/431 393/653/432 387/647/425
f 391/648/424 397/654/433 395/655/431 389/649/428
f 390/638/423 396/656/430 397/657/433 391/639/424
f 387/640/425 393/658/432 398/659/434 392/641/426
f 392/642/426 398/660/434 394/661/429 388/643/427
f 393/658/432 399/662/435 404/663/436 398/659/434
f 398/660/434 404/664/436 400/665/437 394/661/429
f 394/650/429 400/666/437 402/667/438 396/651/430
f 395/652/431 401/668/439 399/669/435 393/653/432
f 397/654/433 403/670/440 401/671/439 395/655/431
f 396/656/430 402/672/438 403/673/440 397/657/433
f 401/668/439 407/674/441 405/675/442 399/669/435
f 403/670/440 409/676/443 407/677/441 401/671/439
f 402/672/438 408/678/444 409/679/443 403/673/440
f 399/662/435 405/680/442 410/681/445 404/663/436
f 404/664/436 410/682/445 406/683/446 400/665/437
f 400/666/437 406/684/446 408/685/444 402/667/438
f 405/680/442 411/686/447 416/687/448 410/681/445
f 410/682/445 416/688/448 412/689/449 406/683/446
f 406/684/446 412/690/449 414/691/450 408/685/444
f 407/674/441 413/692/451 411/693/447 405/675/442
f 409/676/443 415/694/452 413/695/451 407/677/441
f 408/678/444 414/696/450 415/697/452 409/679/443
f 413/692/451 419/698/453 417/699/454 411/693/447
f 415/694/452 421/700/455 419/701/453 413/695/451
f 414/696/450 420/702/456 421/703/455 415/697/452
f 411/686/447 417/704/454 422/705/457 416/687/448
f 416/688/448 422/706/457 418/707/458 412/689/449
f 412/690/449 418/708/458 420/709/456 414/691/450
f 417/704/454 423/710/459 428/711/460 422/705/457
f 422/706/457 428/711/460 424/712/461 418/707/458
f 418/708/458 424/712/461 426/713/462 420/709/456
f 419/698/453 425/714/463 423/710/459 417/699/454
f 421/700/455 427/715/464 425/714/463 419/701/453
f 420/702/456 426/713/462 427/715/464 421/703/455
f 346/716/370 344/717/94 440/718/194 433/719/465
f 434/720/466 435/304/198 439/303/197 438/721/467
f 438/721/467 439/303/197 343/306/99 345/722/375
f 433/719/465 440/718/194 437/723/200 436/724/468
f 431/725/469 433/719/465 436/724/468 432/726/470
f 429/727/471 438/721/467 345/722/375 341/728/377
f 430/729/472 434/720/466 438/721/467 429/727/471
f 342/730/372 346/716/370 433/719/465 431/725/469
f 441/731/473 370/732/402 342/730/372 431/725/469
f 442/733/474 441/731/473 431/725/469 432/726/470
f 430/729/472 429/727/471 441/731/473 442/733/474
f 429/727/471 341/728/377 370/732/402 441/731/473
f 450/734/475 443/735/476 444/320/209 447/319/208
f 449/736/477 445/737/478 263/459/312 264/466/319
f 436/738/468 449/736/477 264/466/319 432/739/470
f 434/740/466 450/734/475 447/319/208 435/327/198
f 430/741/472 261/455/308 450/734/475 434/740/466
f 437/742/200 448/743/213 449/736/477 436/738/468
f 448/743/213 446/744/214 445/737/478 449/736/477
f 261/455/308 260/467/320 443/735/476 450/734/475
f 442/745/474 432/739/470 264/466/319 265/469/305
f 430/741/472 442/746/474 265/452/305 261/455/308
f 346/747/370 456/748/479 454/749/215 344/750/94
f 341/751/377 451/752/480 457/753/481 370/754/402
f 345/755/375 455/756/482 451/752/480 341/751/377
f 370/754/402 457/753/481 452/757/483 342/758/372
f 343/346/99 453/347/221 455/756/482 345/755/375
f 342/758/372 452/757/483 456/748/479 346/747/370
f 474/759/484 463/760/485 459/761/486 473/762/487
f 473/762/487 459/761/486 462/763/488 475/764/489
f 475/764/489 462/763/488 460/765/229 476/766/228
f 477/767/490 458/768/491 463/760/485 474/759/484
f 478/769/492 461/770/493 458/768/491 477/767/490
f 458/768/491 464/771/494 468/772/495 463/760/485
f 461/770/493 464/771/494 458/768/491
f 463/760/485 468/772/495 465/773/496 459/761/486
f 459/761/486 465/773/496 467/774/497 462/763/488
f 462/763/488 467/774/497 466/775/238 460/765/229
f 464/771/494 472/776/498 468/772/495
f 468/772/495 472/776/498 469/777/499 465/773/496
f 465/773/496 469/777/499 471/778/500 467/774/497
f 467/774/497 471/778/500 470/779/242 466/775/238
f 455/756/482 478/769/492 477/767/490 451/752/480
f 451/752/480 477/767/490 474/759/484 457/753/481
f 456/748/479 475/764/489 476/766/228 454/749/215
f 452/757/483 473/762/487 475/764/489 456/748/479
f 457/753/481 474/759/484 473/762/487 452/757/483
f 427/715/464 428/711/460 423/710/459 425/714/463
f 424/712/461 428/711/460 427/715/464 426/713/462
f 445/780/478 483/781/501 480/782/502 263/783/312
f 260/784/320 481/785/503 485/786/504 482/787/505 443/788/476
f 262/789/309 479/790/506 481/785/503 260/784/320
f 446/791/214 484/792/249 483/781/501 445/780/478
f 444/793/209 443/788/476 482/787/505
f 263/783/312 480/782/502 479/790/506 262/789/309
f 484/794/249 490/795/251 489/796/507 483/797/501
f 479/798/506 486/799/508 488/800/509 481/801/503
f 481/801/503 488/800/509 491/802/510 485/803/504
f 480/804/502 487/805/511 486/799/508 479/798/506
f 483/797/501 489/796/507 487/805/511 480/804/502
f 488/800/509 494/806/512 497/807/513 491/802/510
f 490/795/251 496/808/259 495/809/514 489/796/507
f 487/805/511 493/810/515 492/811/516 486/799/508
f 489/796/507 495/809/514 493/810/515 487/805/511
f 486/799/508 492/811/516 494/806/512 488/800/509
f 494/806/512 500/812/517 503/813/518 497/807/513
f 496/808/259 502/814/265 501/815/519 495/809/514
f 493/810/515 499/816/520 498/817/521 492/811/516
f 495/809/514 501/815/519 499/816/520 493/810/515
f 492/811/516 498/817/521 500/812/517 494/806/512
f 503/813/518 505/408/269 504/407/268 497/807/513
f 498/817/521 499/816/520 506/409/270 500/812/517
f 506/409/270 505/408/269 503/813/518 500/812/517
f 499/816/520 501/815/519 502/814/265 506/409/270
f 497/807/513 509/818/522 508/819/523 491/802/510
f 491/802/510 508/819/523 507/820/524 485/803/504
f 504/407/268 510/413/274 509/818/522 497/807/513
f 482/821/505 485/803/504 507/820/524
f 507/822/524 508/823/523 511/824/525
f 508/823/523 509/825/522 511/824/525
f 509/825/522 510/419/274 511/824/525
f 368/591/403 353/565/380 514/595/407 517/598/405
f 353/565/380 355/564/379 515/582/397 514/595/407
f 354/572/387 368/601/403 517/593/405 513/567/382
f 360/569/384 367/826/414 516/581/396 512/570/385
f 367/826/414 359/596/408 515/582/397 516/581/396
f 354/572/387 513/567/382 512/570/385 356/573/388
f 366/590/394 523/600/404 521/571/386 364/575/390
f 361/578/393 518/566/381 523/592/404 366/579/394
f 363/576/391 519/574/389 522/584/399 372/585/400
f 372/585/400 522/584/399 520/563/378 362/577/392
f 364/575/390 521/571/386 519/574/389 363/576/391
f 362/577/392 520/563/378 518/566/381 361/578/393
f 444/421/209 482/827/505 525/422/276
f 511/824/525 510/419/274 524/424/277
f 511/824/525 524/424/277 525/422/276
f 525/422/276 482/827/505 511/824/525
f 507/822/524 511/824/525 482/827/505
f 529/828/526 556/829/527 563/830/528 534/831/529
f 526/832/530 530/833/531 535/834/532 531/835/533
f 528/836/534 526/832/530 531/835/533 533/837/535
f 530/833/531 527/838/536 532/839/537 535/834/532
f 555/840/538 528/836/534 533/837/535 562/841/539
f 527/838/536 529/828/526 534/831/529 532/839/537
f 549/842/540 548/843/541 537/844/542 540/845/543
f 548/843/541 550/846/544 539/847/545 537/844/542
f 550/846/544 585/848/546 569/849/547 539/847/545
f 551/850/548 549/842/540 540/845/543 536/851/549
f 552/852/550 551/850/548 536/851/549 538/853/551
f 536/851/549 540/845/543 544/854/552 541/855/553
f 538/853/551 536/851/549 541/855/553
f 540/845/543 537/844/542 542/856/554 544/854/552
f 537/844/542 539/847/545 543/857/555 542/856/554
f 539/847/545 569/849/547 575/858/556 543/857/555
f 541/855/553 544/854/552 547/859/557
f 544/854/552 542/856/554 545/860/558 547/859/557
f 542/856/554 543/857/555 546/861/559 545/860/558
f 543/857/555 575/858/556 579/862/560 546/861/559
f 533/837/535 531/835/533 551/850/548 552/852/550
f 531/835/533 535/834/532 549/842/540 551/850/548
f 534/831/529 563/830/528 585/848/546 550/846/544
f 532/839/537 534/831/529 550/846/544 548/843/541
f 535/834/532 532/839/537 548/843/541 549/842/540
f 558/863/561 565/864/562 563/865/528 556/866/527
f 553/867/563 560/868/564 566/869/565 559/870/566
f 557/871/567 564/872/568 560/868/564 553/867/563
f 559/870/566 566/869/565 561/873/569 554/874/570
f 555/840/538 562/841/539 564/872/568 557/871/567
f 554/874/570 561/873/569 565/864/562 558/863/561
f 583/875/571 572/876/572 568/877/573 582/878/574
f 582/878/574 568/877/573 571/879/575 584/880/576
f 584/880/576 571/879/575 569/881/547 585/882/546
f 586/883/577 567/884/578 572/876/572 583/875/571
f 587/885/579 570/886/493 567/884/578 586/883/577
f 567/884/578 573/887/580 577/888/581 572/876/572
f 570/886/493 573/887/580 567/884/578
f 572/876/572 577/888/581 574/889/582 568/877/573
f 568/877/573 574/889/582 576/890/583 571/879/575
f 571/879/575 576/890/583 575/891/556 569/881/547
f 573/887/580 581/892/584 577/888/581
f 577/888/581 581/892/584 578/893/585 574/889/582
f 574/889/582 578/893/585 580/894/586 576/890/583
f 576/890/583 580/894/586 579/895/560 575/891/556
f 564/872/568 587/885/579 586/883/577 560/868/564
f 560/868/564 586/883/577 583/875/571 566/869/565
f 565/864/562 584/880/576 585/882/546 563/865/528
f 561/873/569 582/878/574 584/880/576 565/864/562
f 566/869/565 583/875/571 582/878/574 561/873/569
